INFO     root:logDecoratorl.py:39 
>>===============================正在执行第11条用例======================================>>
测试标题: 获取按一口价低到高是否成功
请求方式: post
请求头:   {'accesstoken': '7864f47c8fae63494381c8df222ae758', 'timespan': '1661138311', 'TOKEN': '86AF2DC047BB1C1853DA37D4486B24DD8148D45D3915D46FB6746CD2110752DB22D648E8E5B29660D2E9BD0C6FF9EAFE7381CC53D7C7934D626CB9003E6BBE4345008A158FE66B77D46CB9CB369464CC'}
请求路径: http://110.80.137.11:8059/auction/PageList
传参方式： json
请求内容: {"platFormId":"0","source":0,"pageSize":10,"pageIndex":1,"order":8,"searchParm":"","pid":""}
依赖测试用例: 暂无依赖用例数据
接口响应内容: {"success":true,"pageCount":176,"totalCount":1754,"pageSize":10,"pageIndex":1,"list":[{"id":"504854806117412478","num":"57061017","dataStatus":2,"auctionType":1,"auctionStartTick":1659343098,"auctionTick":1664527088,"endTick":1664527088,"startPrice":1.00,"maxPrice":3.00,"nowPrice":1.00,"auctionGoods":{"id":"562190630157984736","cid":"507784198226545250","classInfo":null,"goodsType":"1","mainNetNum":3,"mainNetName":"低傲","contractAddr":"0x1f393fF6Af4c7ce6bE35E5A360A6A9a68a4087Bb","goodsKey":"1692","goodsName":"傲","goodsInfo":"{\"video\":\"https://v2.cdwami.com:666/CMS/1/202206/video/20220617194217443.mp4\",\"images\":[\"https://v2.cdwami.com:666/CMS/1/202206/img/20220617194207595.jpg\"],\"tags\":[],\"detail\":\"<p><img src=\\\"https://v2.cdwami.com:666/CMS/1/202206/img/20220617194233685.jpg\\\"></p>\"}","deliveryTick":0,"source":1,"goodsProduct":{"pid":"507784198226545250","className":"低傲数藏","productInfo":"{\"video\":\"https://v2.cdwami.com:666/CMS/1/202206/video/20220617194217443.mp4\",\"images\":[\"https://v2.cdwami.com:666/CMS/1/202206/img/20220617194207595.jpg\"],\"tags\":[],\"detail\":\"<p><img src=\\\"https://v2.cdwami.com:666/CMS/1/202206/img/20220617194233685.jpg\\\"></p>\"}","totalCount":"0","authorId":"409735638338764801","authorName":"低傲","authorImg":"","publisherName":"低傲","sellTick":"1655308800"}},"tokenNum":"","goodsSource":1,"sellerBzj":0.00,"countDown":3531416,"buyerUid":"0","isInBid":"0","topuserid":null,"deliveryTime":0},{"id":"504885929607660806","num":"53751287","dataStatus":2,"auctionType":1,"auctionStartTick":1659343085,"auctionTick":1664527076,"endTick":1664527076,"startPrice":1.00,"maxPrice":3.00,"nowPrice":1.00,"auctionGoods":{"id":"522742151875590315","cid":"507784198226545250","classInfo":null,"goodsType":"1","mainNetNum":3,"mainNetName":"低傲","contractAddr":"0x1f393fF6Af4c7ce6bE35E5A360A6A9a68a4087Bb","goodsKey":"327","goodsName":"傲","goodsInfo":"{\"video\":\"https://v2.cdwami.com:666/CMS/1/202206/video/20220617194217443.mp4\",\"images\":[\"https://v2.cdwami.com:666/CMS/1/202206/img/20220617194207595.jpg\"],\"tags\":[],\"detail\":\"<p><img src=\\\"https://v2.cdwami.com:666/CMS/1/202206/img/20220617194233685.jpg\\\"></p>\"}","deliveryTick":0,"source":1,"goodsProduct":{"pid":"507784198226545250","className":"低傲数藏","productInfo":"{\"video\":\"https://v2.cdwami.com:666/CMS/1/202206/video/20220617194217443.mp4\",\"images\":[\"https://v2.cdwami.com:666/CMS/1/202206/img/20220617194207595.jpg\"],\"tags\":[],\"detail\":\"<p><img src=\\\"https://v2.cdwami.com:666/CMS/1/202206/img/20220617194233685.jpg\\\"></p>\"}","totalCount":"0","authorId":"409735638338764801","authorName":"低傲","authorImg":"","publisherName":"低傲","sellTick":"1655308800"}},"tokenNum":"","goodsSource":1,"sellerBzj":0.00,"countDown":3531404,"buyerUid":"0","isInBid":"0","topuserid":null,"deliveryTime":0},{"id":"512672659820607273","num":"58110069","dataStatus":2,"auctionType":1,"auctionStartTick":1659340954,"auctionTick":1664524942,"endTick":1664524942,"startPrice":1.00,"maxPrice":3.00,"nowPrice":1.00,"auctionGoods":{"id":"597554094295817694","cid":"507784198226545250","classInfo":null,"goodsType":"1","mainNetNum":3,"mainNetName":"低傲","contractAddr":"0x1f393fF6Af4c7ce6bE35E5A360A6A9a68a4087Bb","goodsKey":"6524","goodsName":"傲","goodsInfo":"{\"video\":\"https://v2.cdwami.com:666/CMS/1/202206/video/20220617194217443.mp4\",\"images\":[\"https://v2.cdwami.com:666/CMS/1/202206/img/20220617194207595.jpg\"],\"tags\":[],\"detail\":\"<p><img src=\\\"https://v2.cdwami.com:666/CMS/1/202206/img/20220617194233685.jpg\\\"></p>\"}","deliveryTick":0,"source":1,"goodsProduct":{"pid":"507784198226545250","className":"低傲数藏","productInfo":"{\"video\":\"https://v2.cdwami.com:666/CMS/1/202206/video/20220617194217443.mp4\",\"images\":[\"https://v2.cdwami.com:666/CMS/1/202206/img/20220617194207595.jpg\"],\"tags\":[],\"detail\":\"<p><img src=\\\"https://v2.cdwami.com:666/CMS/1/202206/img/20220617194233685.jpg\\\"></p>\"}","totalCount":"0","authorId":"409735638338764801","authorName":"低傲","authorImg":"","publisherName":"低傲","sellTick":"1655308800"}},"tokenNum":"","goodsSource":1,"sellerBzj":0.00,"countDown":3529191,"buyerUid":"0","isInBid":"0","topuserid":null,"deliveryTime":0},{"id":"521257116179921048","num":"59608594","dataStatus":2,"auctionType":1,"auctionStartTick":1659343111,"auctionTick":1664527102,"endTick":1664527102,"startPrice":1.00,"maxPrice":3.00,"nowPrice":1.00,"auctionGoods":{"id":"566473917493890973","cid":"507784198226545250","classInfo":null,"goodsType":"1","mainNetNum":3,"mainNetName":"低傲","contractAddr":"0x1f393fF6Af4c7ce6bE35E5A360A6A9a68a4087Bb","goodsKey":"10115","goodsName":"傲","goodsInfo":"{\"video\":\"https://v2.cdwami.com:666/CMS/1/202206/video/20220617194217443.mp4\",\"images\":[\"https://v2.cdwami.com:666/CMS/1/202206/img/20220617194207595.jpg\"],\"tags\":[],\"detail\":\"<p><img src=\\\"https://v2.cdwami.com:666/CMS/1/202206/img/20220617194233685.jpg\\\"></p>\"}","deliveryTick":0,"source":1,"goodsProduct":{"pid":"507784198226545250","className":"低傲数藏","productInfo":"{\"video\":\"https://v2.cdwami.com:666/CMS/1/202206/video/20220617194217443.mp4\",\"images\":[\"https://v2.cdwami.com:666/CMS/1/202206/img/20220617194207595.jpg\"],\"tags\":[],\"detail\":\"<p><img src=\\\"https://v2.cdwami.com:666/CMS/1/202206/img/20220617194233685.jpg\\\"></p>\"}","totalCount":"0","authorId":"409735638338764801","authorName":"低傲","authorImg":"","publisherName":"低傲","sellTick":"1655308800"}},"tokenNum":"","goodsSource":1,"sellerBzj":0.00,"countDown":3531256,"buyerUid":"0","isInBid":"0","topuserid":null,"deliveryTime":0},{"id":"534583962230571153","num":"53907704","dataStatus":2,"auctionType":1,"auctionStartTick":1659342700,"auctionTick":1664526691,"endTick":1664526691,"startPrice":1.00,"maxPrice":3.00,"nowPrice":1.00,"auctionGoods":{"id":"505939072924989307","cid":"579246700726478200","classInfo":null,"goodsType":"1","mainNetNum":3,"mainNetName":"低傲","contractAddr":"0xB869E9BEF553030F3200D3eB9E049Ed4968D4584","goodsKey":"7674","goodsName":"藏","goodsInfo":"{\"video\":\"https://v2.cdwami.com:666/CMS/1/202206/video/20220617194811696.mp4\",\"images\":[\"https://v2.cdwami.com:666/CMS/1/202206/img/20220617194801848.jpg\"],\"tags\":[],\"detail\":\"<p><img src=\\\"https://v2.cdwami.com:666/CMS/1/202206/img/20220617194823278.jpg\\\"></p>\"}","deliveryTick":0,"source":1,"goodsProduct":{"pid":"579246700726478200","className":"低傲数藏","productInfo":"{\"video\":\"https://v2.cdwami.com:666/CMS/1/202206/video/20220617194811696.mp4\",\"images\":[\"https://v2.cdwami.com:666/CMS/1/202206/img/20220617194801848.jpg\"],\"tags\":[],\"detail\":\"<p><img src=\\\"https://v2.cdwami.com:666/CMS/1/202206/img/20220617194823278.jpg\\\"></p>\"}","totalCount":"0","authorId":"409735638338764801","authorName":"低傲","authorImg":"https://v2.cdwami.com:666/CMS/1/202206/img/20220617194729218.png","publisherName":"低傲","sellTick":"1655308800"}},"tokenNum":"","goodsSource":1,"sellerBzj":0.00,"countDown":3530695,"buyerUid":"0","isInBid":"0","topuserid":null,"deliveryTime":0},{"id":"540406125000809723","num":"52406969","dataStatus":2,"auctionType":1,"auctionStartTick":1659308719,"auctionTick":1664492710,"endTick":1664492710,"startPrice":1.00,"maxPrice":3.00,"nowPrice":1.00,"auctionGoods":{"id":"538389138640372134","cid":"541441265330316778","classInfo":null,"goodsType":"1","mainNetNum":3,"mainNetName":"低傲","contractAddr":"0x36eBA6137865fbF9E4aa3786889901efD1FcC89B","goodsKey":"6111","goodsName":"数","goodsInfo":"{\"video\":\"https://v2.cdwami.com:666/CMS/1/202206/video/20220617194533205.mp4\",\"images\":[\"https://v2.cdwami.com:666/CMS/1/202206/img/20220617194523864.jpg\"],\"tags\":[],\"detail\":\"<p><img src=\\\"https://v2.cdwami.com:666/CMS/1/202206/img/20220617194541643.jpg\\\"></p>\"}","deliveryTick":0,"source":1,"goodsProduct":{"pid":"541441265330316778","className":"低傲数藏","productInfo":"{\"video\":\"https://v2.cdwami.com:666/CMS/1/202206/video/20220617194533205.mp4\",\"images\":[\"https://v2.cdwami.com:666/CMS/1/202206/img/20220617194523864.jpg\"],\"tags\":[],\"detail\":\"<p><img src=\\\"https://v2.cdwami.com:666/CMS/1/202206/img/20220617194541643.jpg\\\"></p>\"}","totalCount":"0","authorId":"409735638338764801","authorName":"低傲","authorImg":"https://v2.cdwami.com:666/CMS/1/202206/img/20220617194443356.png","publisherName":"低傲","sellTick":"1655308800"}},"tokenNum":"","goodsSource":1,"sellerBzj":0.00,"countDown":3496649,"buyerUid":"0","isInBid":"0","topuserid":null,"deliveryTime":0},{"id":"575760611039864581","num":"54572077","dataStatus":2,"auctionType":1,"auctionStartTick":1659361432,"auctionTick":1664545423,"endTick":1664545423,"startPrice":1.00,"maxPrice":3.00,"nowPrice":1.00,"auctionGoods":{"id":"564215520172525517","cid":"507784198226545250","classInfo":null,"goodsType":"1","mainNetNum":3,"mainNetName":"低傲","contractAddr":"0x1f393fF6Af4c7ce6bE35E5A360A6A9a68a4087Bb","goodsKey":"7894","goodsName":"傲","goodsInfo":"{\"video\":\"https://v2.cdwami.com:666/CMS/1/202206/video/20220617194217443.mp4\",\"images\":[\"https://v2.cdwami.com:666/CMS/1/202206/img/20220617194207595.jpg\"],\"tags\":[],\"detail\":\"<p><img src=\\\"https://v2.cdwami.com:666/CMS/1/202206/img/20220617194233685.jpg\\\"></p>\"}","deliveryTick":0,"source":1,"goodsProduct":{"pid":"507784198226545250","className":"低傲数藏","productInfo":"{\"video\":\"https://v2.cdwami.com:666/CMS/1/202206/video/20220617194217443.mp4\",\"images\":[\"https://v2.cdwami.com:666/CMS/1/202206/img/20220617194207595.jpg\"],\"tags\":[],\"detail\":\"<p><img src=\\\"https://v2.cdwami.com:666/CMS/1/202206/img/20220617194233685.jpg\\\"></p>\"}","totalCount":"0","authorId":"409735638338764801","authorName":"低傲","authorImg":"","publisherName":"低傲","sellTick":"1655308800"}},"tokenNum":"","goodsSource":1,"sellerBzj":0.00,"countDown":3548984,"buyerUid":"0","isInBid":"0","topuserid":null,"deliveryTime":0},{"id":"576324736757932193","num":"54873048","dataStatus":2,"auctionType":1,"auctionStartTick":1659356843,"auctionTick":1667219233,"endTick":1667219233,"startPrice":1.00,"maxPrice":3.00,"nowPrice":1.00,"auctionGoods":{"id":"588893573410694217","cid":"579246700726478200","classInfo":null,"goodsType":"1","mainNetNum":3,"mainNetName":"低傲","contractAddr":"0xB869E9BEF553030F3200D3eB9E049Ed4968D4584","goodsKey":"6284","goodsName":"藏","goodsInfo":"{\"video\":\"https://v2.cdwami.com:666/CMS/1/202206/video/20220617194811696.mp4\",\"images\":[\"https://v2.cdwami.com:666/CMS/1/202206/img/20220617194801848.jpg\"],\"tags\":[],\"detail\":\"<p><img src=\\\"https://v2.cdwami.com:666/CMS/1/202206/img/20220617194823278.jpg\\\"></p>\"}","deliveryTick":0,"source":1,"goodsProduct":{"pid":"579246700726478200","className":"低傲数藏","productInfo":"{\"video\":\"https://v2.cdwami.com:666/CMS/1/202206/video/20220617194811696.mp4\",\"images\":[\"https://v2.cdwami.com:666/CMS/1/202206/img/20220617194801848.jpg\"],\"tags\":[],\"detail\":\"<p><img src=\\\"https://v2.cdwami.com:666/CMS/1/202206/img/20220617194823278.jpg\\\"></p>\"}","totalCount":"0","authorId":"409735638338764801","authorName":"低傲","authorImg":"https://v2.cdwami.com:666/CMS/1/202206/img/20220617194729218.png","publisherName":"低傲","sellTick":"1655308800"}},"tokenNum":"","goodsSource":1,"sellerBzj":0.00,"countDown":6222786,"buyerUid":"0","isInBid":"0","topuserid":null,"deliveryTime":0},{"id":"587939453138327692","num":"53542170","dataStatus":2,"auctionType":1,"auctionStartTick":1659250814,"auctionTick":1661929207,"endTick":1661929207,"startPrice":1.00,"maxPrice":3.00,"nowPrice":1.00,"auctionGoods":{"id":"529282779919707727","cid":"541441265330316778","classInfo":null,"goodsType":"1","mainNetNum":3,"mainNetName":"低傲","contractAddr":"0x36eBA6137865fbF9E4aa3786889901efD1FcC89B","goodsKey":"24899","goodsName":"数","goodsInfo":"{\"video\":\"https://v2.cdwami.com:666/CMS/1/202206/video/20220617194533205.mp4\",\"images\":[\"https://v2.cdwami.com:666/CMS/1/202206/img/20220617194523864.jpg\"],\"tags\":[],\"detail\":\"<p><img src=\\\"https://v2.cdwami.com:666/CMS/1/202206/img/20220617194541643.jpg\\\"></p>\"}","deliveryTick":0,"source":1,"goodsProduct":{"pid":"541441265330316778","className":"低傲数藏","productInfo":"{\"video\":\"https://v2.cdwami.com:666/CMS/1/202206/video/20220617194533205.mp4\",\"images\":[\"https://v2.cdwami.com:666/CMS/1/202206/img/20220617194523864.jpg\"],\"tags\":[],\"detail\":\"<p><img src=\\\"https://v2.cdwami.com:666/CMS/1/202206/img/20220617194541643.jpg\\\"></p>\"}","totalCount":"0","authorId":"409735638338764801","authorName":"低傲","authorImg":"https://v2.cdwami.com:666/CMS/1/202206/img/20220617194443356.png","publisherName":"低傲","sellTick":"1655308800"}},"tokenNum":"","goodsSource":1,"sellerBzj":0.00,"countDown":932643,"buyerUid":"0","isInBid":"0","topuserid":null,"deliveryTime":0},{"id":"592327457912698688","num":"55663586","dataStatus":2,"auctionType":1,"auctionStartTick":1659367602,"auctionTick":1664551580,"endTick":1664551580,"startPrice":1.00,"maxPrice":3.00,"nowPrice":1.00,"auctionGoods":{"id":"510233754032852838","cid":"507784198226545250","classInfo":null,"goodsType":"1","mainNetNum":3,"mainNetName":"低傲","contractAddr":"0x1f393fF6Af4c7ce6bE35E5A360A6A9a68a4087Bb","goodsKey":"6747","goodsName":"傲","goodsInfo":"{\"video\":\"https://v2.cdwami.com:666/CMS/1/202206/video/20220617194217443.mp4\",\"images\":[\"https://v2.cdwami.com:666/CMS/1/202206/img/20220617194207595.jpg\"],\"tags\":[],\"detail\":\"<p><img src=\\\"https://v2.cdwami.com:666/CMS/1/202206/img/20220617194233685.jpg\\\"></p>\"}","deliveryTick":0,"source":1,"goodsProduct":{"pid":"507784198226545250","className":"低傲数藏","productInfo":"{\"video\":\"https://v2.cdwami.com:666/CMS/1/202206/video/20220617194217443.mp4\",\"images\":[\"https://v2.cdwami.com:666/CMS/1/202206/img/20220617194207595.jpg\"],\"tags\":[],\"detail\":\"<p><img src=\\\"https://v2.cdwami.com:666/CMS/1/202206/img/20220617194233685.jpg\\\"></p>\"}","totalCount":"0","authorId":"409735638338764801","authorName":"低傲","authorImg":"","publisherName":"低傲","sellTick":"1655308800"}},"tokenNum":"","goodsSource":1,"sellerBzj":0.00,"countDown":3554965,"buyerUid":"0","isInBid":"0","topuserid":null,"deliveryTime":0}],"msg":"ok","code":"","data":null}
接口响应时长: 0.083844 s
Http状态码: 200
断言方式：相等
期望结果：10
实际结果：[10]
>>==============================第11条用例执行完毕=======================================>>