INFO     root:logDecoratorl.py:39 
>>===============================正在执行第6条用例======================================>>
测试标题: 获取竞拍列表未页是否成功
请求方式: post
请求头:   {'accesstoken': 'd90871171914905b0f494127fa74bab6', 'timespan': '1661138300', 'TOKEN': '86AF2DC047BB1C1853DA37D4486B24DD8148D45D3915D46FB6746CD2110752DB22D648E8E5B29660D2E9BD0C6FF9EAFE7381CC53D7C7934D626CB9003E6BBE4345008A158FE66B77D46CB9CB369464CC'}
请求路径: http://110.80.137.11:8059/auction/PageList
传参方式： json
请求内容: {"platFormId": "0", "source": 0, "pageSize": 10, "pageIndex": "176", "order": 1, "searchParm": "", "pid": ""}
依赖测试用例: 暂无依赖用例数据
接口响应内容: {"success":true,"pageCount":176,"totalCount":1754,"pageSize":10,"pageIndex":176,"list":[{"id":"599903023512252055","num":"","dataStatus":2,"auctionType":1,"auctionStartTick":1659575875,"auctionTick":2145888000,"endTick":2145888000,"startPrice":500.00,"maxPrice":666.00,"nowPrice":500.00,"auctionGoods":{"id":"509159844559269477","cid":"0","classInfo":"","goodsType":"0","mainNetNum":1,"mainNetName":"鲸探","contractAddr":"0","goodsKey":"","goodsName":"青铜犀僔","goodsInfo":"{\"images\":[\"https://wm-auction-1.oss-cn-beijing.aliyuncs.com/D_1659428784021_1659428783833_Screenshot_2022-08-02-16-25-50-02_bfe3d3c622cd1dd22d0bf1b6c8f79ecf.jpg\"]}","deliveryTick":0,"source":2,"goodsProduct":null},"tokenNum":"","goodsSource":2,"sellerBzj":100.00,"countDown":484891315,"buyerUid":"0","isInBid":"0","topuserid":null,"deliveryTime":0},{"id":"599938275136003699","num":"","dataStatus":2,"auctionType":1,"auctionStartTick":1659023198,"auctionTick":2145888000,"endTick":2145888000,"startPrice":100.00,"maxPrice":123.00,"nowPrice":100.00,"auctionGoods":{"id":"504743251941604576","cid":"0","classInfo":"","goodsType":"0","mainNetNum":10057,"mainNetName":"幻藏艺术","contractAddr":"0","goodsKey":"","goodsName":"五行机甲木6298491","goodsInfo":"{\"images\":[\"https://wm-auction-1.oss-cn-beijing.aliyuncs.com/D_1659022823799_1659022823653_IMG_20220727_182946.jpg\"]}","deliveryTick":0,"source":2,"goodsProduct":null},"tokenNum":"","goodsSource":2,"sellerBzj":100.00,"countDown":484891314,"buyerUid":"0","isInBid":"0","topuserid":null,"deliveryTime":0},{"id":"599951578927605166","num":"","dataStatus":2,"auctionType":1,"auctionStartTick":1658817527,"auctionTick":1692167828,"endTick":1692167828,"startPrice":200.00,"maxPrice":550.00,"nowPrice":200.00,"auctionGoods":{"id":"542394893359734559","cid":"0","classInfo":"","goodsType":"0","mainNetNum":1,"mainNetName":"鲸探","contractAddr":"0","goodsKey":"","goodsName":"东岳大帝","goodsInfo":"{\"images\":[\"https://wm-auction-1.oss-cn-beijing.aliyuncs.com/D_1658817438774_1658817438634_Screenshot_20220725_205512.jpg\"]}","deliveryTick":0,"source":2,"goodsProduct":null},"tokenNum":"","goodsSource":2,"sellerBzj":100.00,"countDown":31171142,"buyerUid":"0","isInBid":"0","topuserid":null,"deliveryTime":0},{"id":"599964059149183957","num":"","dataStatus":2,"auctionType":1,"auctionStartTick":1658804507,"auctionTick":1719802728,"endTick":1719802728,"startPrice":180.00,"maxPrice":280.00,"nowPrice":180.00,"auctionGoods":{"id":"599964059149183957","cid":"0","classInfo":"","goodsType":"0","mainNetNum":1,"mainNetName":"鲸探","contractAddr":"0","goodsKey":"","goodsName":"科幻卡","goodsInfo":"{\"images\":[\"https://wm-auction-1.oss-cn-beijing.aliyuncs.com/D_1658804337632_1658804337540_1658753447451.jpg\"]}","deliveryTick":0,"source":2,"goodsProduct":null},"tokenNum":"","goodsSource":2,"sellerBzj":100.00,"countDown":58806041,"buyerUid":"0","isInBid":"0","topuserid":null,"deliveryTime":0}],"msg":"ok","code":"","data":null}
接口响应时长: 0.081101 s
Http状态码: 200
断言方式：不等于
期望结果：0
实际结果：[4]
>>==============================第6条用例执行完毕=======================================>>