INFO     root:logDecoratorl.py:39 
>>===============================正在执行第12条用例======================================>>
测试标题: 获取第三方平台藏品是否成功
请求方式: post
请求头:   {'accesstoken': '9a36e47603de057980ffdc571d114c37', 'timespan': '1661138313', 'TOKEN': '86AF2DC047BB1C1853DA37D4486B24DD8148D45D3915D46FB6746CD2110752DB22D648E8E5B29660D2E9BD0C6FF9EAFE7381CC53D7C7934D626CB9003E6BBE4345008A158FE66B77D46CB9CB369464CC'}
请求路径: http://110.80.137.11:8059/auction/PageList
传参方式： json
请求内容: {"platFormId":"1","source":0,"pageSize":10,"pageIndex":1,"order":2,"searchParm":"","pid":""}
依赖测试用例: 暂无依赖用例数据
接口响应内容: {"success":true,"pageCount":72,"totalCount":719,"pageSize":10,"pageIndex":1,"list":[{"id":"592441312616208105","num":"","dataStatus":2,"auctionType":1,"auctionStartTick":1659075825,"auctionTick":1661667624,"endTick":1661667624,"startPrice":366.00,"maxPrice":666.00,"nowPrice":366.00,"auctionGoods":{"id":"572038132370742400","cid":"0","classInfo":"","goodsType":"0","mainNetNum":1,"mainNetName":"鲸探","contractAddr":"0","goodsKey":"","goodsName":"元青花","goodsInfo":"{\"images\":[\"https://wm-auction-1.oss-cn-beijing.aliyuncs.com/D_1659075638969_ad4bb338-334f-4825-a2e4-4e32cde3fe77\"]}","deliveryTick":0,"source":2,"goodsProduct":null},"tokenNum":"","goodsSource":2,"sellerBzj":100.00,"countDown":671007,"buyerUid":"0","isInBid":"0","topuserid":null,"deliveryTime":0},{"id":"557197250303038284","num":"","dataStatus":2,"auctionType":1,"auctionStartTick":1659075836,"auctionTick":1661667746,"endTick":1661667746,"startPrice":220.00,"maxPrice":399.00,"nowPrice":220.00,"auctionGoods":{"id":"582865869953746702","cid":"0","classInfo":"","goodsType":"0","mainNetNum":1,"mainNetName":"鲸探","contractAddr":"0","goodsKey":"","goodsName":"战国矛","goodsInfo":"{\"images\":[\"https://wm-auction-1.oss-cn-beijing.aliyuncs.com/D_1659075763111_14ee0238-8251-4ae7-b210-b931c86e36a7\"]}","deliveryTick":0,"source":2,"goodsProduct":null},"tokenNum":"","goodsSource":2,"sellerBzj":100.00,"countDown":671511,"buyerUid":"0","isInBid":"0","topuserid":null,"deliveryTime":0},{"id":"517540027270746607","num":"","dataStatus":2,"auctionType":1,"auctionStartTick":1659075989,"auctionTick":1661667804,"endTick":1661667804,"startPrice":299.00,"maxPrice":620.00,"nowPrice":299.00,"auctionGoods":{"id":"536393925401377802","cid":"0","classInfo":"","goodsType":"0","mainNetNum":1,"mainNetName":"鲸探","contractAddr":"0","goodsKey":"","goodsName":"铜尊","goodsInfo":"{\"images\":[\"https://wm-auction-1.oss-cn-beijing.aliyuncs.com/D_1659075826425_a8005fec-2a36-45ab-ad98-915de051dc9d\"]}","deliveryTick":0,"source":2,"goodsProduct":null},"tokenNum":"","goodsSource":2,"sellerBzj":100.00,"countDown":671998,"buyerUid":"0","isInBid":"0","topuserid":null,"deliveryTime":0},{"id":"597624397526328015","num":"","dataStatus":2,"auctionType":1,"auctionStartTick":1659076019,"auctionTick":1661667880,"endTick":1661667880,"startPrice":289.00,"maxPrice":560.00,"nowPrice":289.00,"auctionGoods":{"id":"548738927031693133","cid":"0","classInfo":"","goodsType":"0","mainNetNum":1,"mainNetName":"鲸探","contractAddr":"0","goodsKey":"","goodsName":"血而方","goodsInfo":"{\"images\":[\"https://wm-auction-1.oss-cn-beijing.aliyuncs.com/D_1659075902095_e21b013a-c2d4-4ecb-81ee-99c0fb76a7a6\"]}","deliveryTick":0,"source":2,"goodsProduct":null},"tokenNum":"","goodsSource":2,"sellerBzj":100.00,"countDown":671216,"buyerUid":"0","isInBid":"0","topuserid":null,"deliveryTime":0},{"id":"597016553366025086","num":"","dataStatus":2,"auctionType":1,"auctionStartTick":1659076091,"auctionTick":1661668018,"endTick":1661668018,"startPrice":520.00,"maxPrice":999.00,"nowPrice":520.00,"auctionGoods":{"id":"549787322072462577","cid":"0","classInfo":"","goodsType":"0","mainNetNum":1,"mainNetName":"鲸探","contractAddr":"0","goodsKey":"","goodsName":"鲸探","goodsInfo":"{\"images\":[\"https://wm-auction-1.oss-cn-beijing.aliyuncs.com/D_1659076031489_4674ab20-8964-4755-875e-5a8c2667de76\"]}","deliveryTick":0,"source":2,"goodsProduct":null},"tokenNum":"","goodsSource":2,"sellerBzj":100.00,"countDown":671364,"buyerUid":"0","isInBid":"0","topuserid":null,"deliveryTime":0},{"id":"556264134964214618","num":"","dataStatus":2,"auctionType":1,"auctionStartTick":1659076189,"auctionTick":1661668074,"endTick":1661668074,"startPrice":268.00,"maxPrice":386.00,"nowPrice":268.00,"auctionGoods":{"id":"599624667744773902","cid":"0","classInfo":"","goodsType":"0","mainNetNum":1,"mainNetName":"鲸探","contractAddr":"0","goodsKey":"","goodsName":"虎","goodsInfo":"{\"images\":[\"https://wm-auction-1.oss-cn-beijing.aliyuncs.com/D_1659076086321_a3ae6674-be5f-4742-9135-fcece7507564\"]}","deliveryTick":0,"source":2,"goodsProduct":null},"tokenNum":"","goodsSource":2,"sellerBzj":100.00,"countDown":671848,"buyerUid":"0","isInBid":"0","topuserid":null,"deliveryTime":0},{"id":"520689110390665688","num":"","dataStatus":2,"auctionType":1,"auctionStartTick":1659075568,"auctionTick":1661753899,"endTick":1661753899,"startPrice":286.00,"maxPrice":680.00,"nowPrice":286.00,"auctionGoods":{"id":"522246683577079745","cid":"0","classInfo":"","goodsType":"0","mainNetNum":1,"mainNetName":"鲸探","contractAddr":"0","goodsKey":"","goodsName":"玄武","goodsInfo":"{\"images\":[\"https://wm-auction-1.oss-cn-beijing.aliyuncs.com/D_1659075512375_dfb494d8-fef7-4b72-aedb-0f51a6e3cf4b\"]}","deliveryTick":0,"source":2,"goodsProduct":null},"tokenNum":"","goodsSource":2,"sellerBzj":100.00,"countDown":758057,"buyerUid":"0","isInBid":"0","topuserid":null,"deliveryTime":0},{"id":"514156396711110170","num":"","dataStatus":2,"auctionType":1,"auctionStartTick":1659365454,"auctionTick":1661870878,"endTick":1661870878,"startPrice":40.00,"maxPrice":99.00,"nowPrice":40.00,"auctionGoods":{"id":"582133798066577526","cid":"0","classInfo":"","goodsType":"0","mainNetNum":1,"mainNetName":"鲸探","contractAddr":"0","goodsKey":"","goodsName":"丰子恺香饵自香鱼不食","goodsInfo":"{\"images\":[\"https://wm-auction-1.oss-cn-beijing.aliyuncs.com/D_1659365353198_1659365352721_Screenshot_2022-08-01-22-42-02-715_com.antfans.fans.jpg\",\"https://wm-auction-1.oss-cn-beijing.aliyuncs.com/D_1659365353208_1659365352915_Screenshot_2022-08-01-22-42-14-667_com.antfans.fans.jpg\"]}","deliveryTick":0,"source":2,"goodsProduct":null},"tokenNum":"","goodsSource":2,"sellerBzj":100.00,"countDown":875109,"buyerUid":"0","isInBid":"0","topuserid":null,"deliveryTime":0},{"id":"526795703582424162","num":"","dataStatus":2,"auctionType":1,"auctionStartTick":1659078935,"auctionTick":1661929934,"endTick":1661929934,"startPrice":150.00,"maxPrice":280.00,"nowPrice":150.00,"auctionGoods":{"id":"515896798585954754","cid":"0","classInfo":"","goodsType":"0","mainNetNum":1,"mainNetName":"鲸探","contractAddr":"0","goodsKey":"","goodsName":"亚址方尊","goodsInfo":"{\"images\":[\"https://wm-auction-1.oss-cn-beijing.aliyuncs.com/D_1659078790840_1659078790635_mmexport1659078783554.jpg\"]}","deliveryTick":0,"source":2,"goodsProduct":null},"tokenNum":"","goodsSource":2,"sellerBzj":100.00,"countDown":934033,"buyerUid":"0","isInBid":"0","topuserid":null,"deliveryTime":0},{"id":"580267608991973699","num":"","dataStatus":2,"auctionType":1,"auctionStartTick":1659365445,"auctionTick":1661956563,"endTick":1661956563,"startPrice":39.00,"maxPrice":88.00,"nowPrice":39.00,"auctionGoods":{"id":"596096052452985314","cid":"0","classInfo":"","goodsType":"0","mainNetNum":1,"mainNetName":"鲸探","contractAddr":"0","goodsKey":"","goodsName":"丰子恺扶摇直上","goodsInfo":"{\"images\":[\"https://wm-auction-1.oss-cn-beijing.aliyuncs.com/D_1659365200391_1659365199762_Screenshot_2022-08-01-22-41-14-913_com.antfans.fans.jpg\",\"https://wm-auction-1.oss-cn-beijing.aliyuncs.com/D_1659365200415_1659365200019_Screenshot_2022-08-01-22-41-30-715_com.antfans.fans.jpg\"]}","deliveryTick":0,"source":2,"goodsProduct":null},"tokenNum":"","goodsSource":2,"sellerBzj":100.00,"countDown":960079,"buyerUid":"0","isInBid":"0","topuserid":null,"deliveryTime":0}],"msg":"ok","code":"","data":null}
接口响应时长: 0.080243 s
Http状态码: 200
断言方式：相等
期望结果：10
实际结果：[10]
>>==============================第12条用例执行完毕=======================================>>