INFO     root:logDecoratorl.py:39 
>>===============================正在执行第8条用例======================================>>
测试标题: 获取按最近上架排序是否成功
请求方式: post
请求头:   {'accesstoken': '292dff67662e5c32490a08f12976375c', 'timespan': '1661138304', 'TOKEN': '86AF2DC047BB1C1853DA37D4486B24DD8148D45D3915D46FB6746CD2110752DB22D648E8E5B29660D2E9BD0C6FF9EAFE7381CC53D7C7934D626CB9003E6BBE4345008A158FE66B77D46CB9CB369464CC'}
请求路径: http://110.80.137.11:8059/auction/PageList
传参方式： json
请求内容: {"platFormId":"0","source":0,"pageSize":10,"pageIndex":1,"order":3,"searchParm":"","pid":""}
依赖测试用例: 暂无依赖用例数据
接口响应内容: {"success":true,"pageCount":176,"totalCount":1754,"pageSize":10,"pageIndex":1,"list":[{"id":"578184557323213071","num":"","dataStatus":2,"auctionType":1,"auctionStartTick":1660975676,"auctionTick":2145888000,"endTick":2145888000,"startPrice":20.00,"maxPrice":111.00,"nowPrice":20.00,"auctionGoods":{"id":"591516380703250204","cid":"0","classInfo":"","goodsType":"0","mainNetNum":2,"mainNetName":"幻核","contractAddr":"0","goodsKey":"","goodsName":"gdfgdfg","goodsInfo":"{\"images\":[\"https://wm-auction-1.oss-cn-beijing.aliyuncs.com/D_1660975633362_e70bc3f8-e7e7-472c-937c-0f1c8550381e\"]}","deliveryTick":0,"source":2,"goodsProduct":null},"tokenNum":"","goodsSource":2,"sellerBzj":100.00,"countDown":484892333,"buyerUid":"0","isInBid":"0","topuserid":null,"deliveryTime":0},{"id":"532694956734811914","num":"56998371","dataStatus":2,"auctionType":1,"auctionStartTick":1660975549,"auctionTick":2145888000,"endTick":2145888000,"startPrice":11.00,"maxPrice":1222.00,"nowPrice":11.00,"auctionGoods":{"id":"583458371474626994","cid":"535182088493825002","classInfo":null,"goodsType":"1","mainNetNum":3,"mainNetName":"低傲","contractAddr":"124sd6we6","goodsKey":"6","goodsName":"S1","goodsInfo":"{\"video\":\"https://wm-auction-1.oss-cn-beijing.aliyuncs.com/2022_08/D1660875907407.mp4\",\"images\":[\"https://wm-auction-1.oss-cn-beijing.aliyuncs.com/2022_08/D1660875899940.gif\"],\"tags\":[],\"fbxUrl\":\"\",\"detail\":\"<p>adasda</p>\"}","deliveryTick":0,"source":1,"goodsProduct":{"pid":"535182088493825002","className":"S","productInfo":"{\"video\":\"https://wm-auction-1.oss-cn-beijing.aliyuncs.com/2022_08/D1660875907407.mp4\",\"images\":[\"https://wm-auction-1.oss-cn-beijing.aliyuncs.com/2022_08/D1660875899940.gif\"],\"tags\":[],\"fbxUrl\":\"\",\"detail\":\"<p>adasda</p>\"}","totalCount":"10","authorId":"409719704244977665","authorName":"ddd","authorImg":"https://wm-auction-1.oss-cn-beijing.aliyuncs.com/2022_07/D1659012360923.png","publisherName":"ddd","sellTick":"1660875887"}},"tokenNum":"","goodsSource":1,"sellerBzj":0.00,"countDown":484892333,"buyerUid":"0","isInBid":"0","topuserid":null,"deliveryTime":0},{"id":"525587045560200648","num":"","dataStatus":2,"auctionType":1,"auctionStartTick":1660095535,"auctionTick":2145888124,"endTick":2145888124,"startPrice":100.00,"maxPrice":500.00,"nowPrice":100.00,"auctionGoods":{"id":"578779415338024837","cid":"0","classInfo":"","goodsType":"0","mainNetNum":2,"mainNetName":"幻核","contractAddr":"0","goodsKey":"","goodsName":"123","goodsInfo":"{\"images\":[\"https://wm-auction-1.oss-cn-beijing.aliyuncs.com/D_1660095127277_1f71679b-3a31-4072-89b5-0c259c8a817b\"]}","deliveryTick":0,"source":2,"goodsProduct":null},"tokenNum":"","goodsSource":2,"sellerBzj":100.00,"countDown":484892456,"buyerUid":"0","isInBid":"0","topuserid":null,"deliveryTime":0},{"id":"519855549917830458","num":"","dataStatus":2,"auctionType":1,"auctionStartTick":1660054495,"auctionTick":2145888000,"endTick":2145888000,"startPrice":100.00,"maxPrice":800.00,"nowPrice":100.00,"auctionGoods":{"id":"595562823671493877","cid":"0","classInfo":"","goodsType":"0","mainNetNum":2,"mainNetName":"幻核","contractAddr":"0","goodsKey":"","goodsName":"123123","goodsInfo":"{\"images\":[\"https://wm-auction-1.oss-cn-beijing.aliyuncs.com/D_1660054439163_f347c568-ca6f-45de-a83c-88343d4e8b79\"]}","deliveryTick":0,"source":2,"goodsProduct":null},"tokenNum":"","goodsSource":2,"sellerBzj":100.00,"countDown":484892332,"buyerUid":"0","isInBid":"0","topuserid":null,"deliveryTime":0},{"id":"501999154612964919","num":"","dataStatus":2,"auctionType":1,"auctionStartTick":1660054337,"auctionTick":2145888000,"endTick":2145888000,"startPrice":200.00,"maxPrice":1000.00,"nowPrice":200.00,"auctionGoods":{"id":"587390104394200117","cid":"0","classInfo":"","goodsType":"0","mainNetNum":10061,"mainNetName":"artpro","contractAddr":"0","goodsKey":"","goodsName":"阿达是发生","goodsInfo":"{\"images\":[\"https://wm-auction-1.oss-cn-beijing.aliyuncs.com/D_1660054302495_79dec23b-0cc8-46ba-9536-9dc753c8cf87\"]}","deliveryTick":0,"source":2,"goodsProduct":null},"tokenNum":"","goodsSource":2,"sellerBzj":100.00,"countDown":484892362,"buyerUid":"0","isInBid":"0","topuserid":null,"deliveryTime":0},{"id":"580785462229758378","num":"","dataStatus":2,"auctionType":1,"auctionStartTick":1659690365,"auctionTick":2145888000,"endTick":2145888000,"startPrice":35.00,"maxPrice":39.00,"nowPrice":35.00,"auctionGoods":{"id":"588618099681158877","cid":"0","classInfo":"","goodsType":"0","mainNetNum":1,"mainNetName":"鲸探","contractAddr":"0","goodsKey":"","goodsName":"邂逅冰淇淋  最q的鲸探隐藏","goodsInfo":"{\"images\":[\"https://wm-auction-1.oss-cn-beijing.aliyuncs.com/D_1659690273779_1659690273173_1659690143683_100.PNG\"]}","deliveryTick":0,"source":2,"goodsProduct":null},"tokenNum":"","goodsSource":2,"sellerBzj":100.00,"countDown":484892331,"buyerUid":"0","isInBid":"0","topuserid":null,"deliveryTime":0},{"id":"573031690100088124","num":"","dataStatus":2,"auctionType":1,"auctionStartTick":1659687837,"auctionTick":2145888000,"endTick":2145888000,"startPrice":128.00,"maxPrice":588.00,"nowPrice":128.00,"auctionGoods":{"id":"583497942316885959","cid":"0","classInfo":"","goodsType":"0","mainNetNum":1,"mainNetName":"鲸探","contractAddr":"0","goodsKey":"","goodsName":"鲸探 2022晞系列•骊【天猫限量888份】（到期秒转）","goodsInfo":"{\"images\":[\"https://wm-auction-1.oss-cn-beijing.aliyuncs.com/D_1659687578641_1659687578528_Screenshot_20220805_161025_edit_567673358325584.jpg\"]}","deliveryTick":0,"source":2,"goodsProduct":null},"tokenNum":"","goodsSource":2,"sellerBzj":100.00,"countDown":484892331,"buyerUid":"0","isInBid":"0","topuserid":null,"deliveryTime":0},{"id":"599059168789109827","num":"","dataStatus":2,"auctionType":1,"auctionStartTick":1659687830,"auctionTick":2145888000,"endTick":2145888000,"startPrice":40.00,"maxPrice":66.00,"nowPrice":40.00,"auctionGoods":{"id":"544599720244463193","cid":"0","classInfo":"","goodsType":"0","mainNetNum":1,"mainNetName":"鲸探","contractAddr":"0","goodsKey":"","goodsName":"元宵行乐图（一套两张）","goodsInfo":"{\"images\":[\"https://wm-auction-1.oss-cn-beijing.aliyuncs.com/D_1659687754162_1659687753783_Screenshot_20220805_155455_com.antfans.fans.jpg\",\"https://wm-auction-1.oss-cn-beijing.aliyuncs.com/D_1659687754168_1659687753945_Screenshot_20220805_155459_com.antfans.fans.jpg\"]}","deliveryTick":0,"source":2,"goodsProduct":null},"tokenNum":"","goodsSource":2,"sellerBzj":100.00,"countDown":484892330,"buyerUid":"0","isInBid":"0","topuserid":null,"deliveryTime":0},{"id":"506486854231810552","num":"","dataStatus":2,"auctionType":1,"auctionStartTick":1659686095,"auctionTick":2145888000,"endTick":2145888000,"startPrice":48.00,"maxPrice":88.00,"nowPrice":48.00,"auctionGoods":{"id":"590617848737696550","cid":"0","classInfo":"","goodsType":"0","mainNetNum":1,"mainNetName":"鲸探","contractAddr":"0","goodsKey":"","goodsName":"星际驾驶员 懒羊羊","goodsInfo":"{\"images\":[\"https://wm-auction-1.oss-cn-beijing.aliyuncs.com/D_1659342266409_1659342266230_Screenshot_20220801_162338_com.antfans.fans.jpg\"]}","deliveryTick":0,"source":2,"goodsProduct":null},"tokenNum":"","goodsSource":2,"sellerBzj":100.00,"countDown":484892330,"buyerUid":"0","isInBid":"0","topuserid":null,"deliveryTime":0},{"id":"531507772916413204","num":"","dataStatus":2,"auctionType":1,"auctionStartTick":1659685982,"auctionTick":2145888000,"endTick":2145888000,"startPrice":99.00,"maxPrice":166.00,"nowPrice":99.00,"auctionGoods":{"id":"533373315381515817","cid":"0","classInfo":"","goodsType":"0","mainNetNum":1,"mainNetName":"鲸探","contractAddr":"0","goodsKey":"","goodsName":"霁青金彩海晏河清尊","goodsInfo":"{\"images\":[\"https://wm-auction-1.oss-cn-beijing.aliyuncs.com/D_1659685950785_1659685950599_Screenshot_20220805_155109_com.antfans.fans.jpg\"]}","deliveryTick":0,"source":2,"goodsProduct":null},"tokenNum":"","goodsSource":2,"sellerBzj":100.00,"countDown":484892042,"buyerUid":"0","isInBid":"0","topuserid":null,"deliveryTime":0}],"msg":"ok","code":"","data":null}
接口响应时长: 0.080527 s
Http状态码: 200
断言方式：相等
期望结果：10
实际结果：[10]
>>==============================第8条用例执行完毕=======================================>>