INFO     root:logDecoratorl.py:39 
>>===============================正在执行第10条用例======================================>>
测试标题: 获取按竞拍次数是否成功
请求方式: post
请求头:   {'accesstoken': 'ab5d0a2c50162988afc8aa2e78a465e3', 'timespan': '1661138309', 'TOKEN': '86AF2DC047BB1C1853DA37D4486B24DD8148D45D3915D46FB6746CD2110752DB22D648E8E5B29660D2E9BD0C6FF9EAFE7381CC53D7C7934D626CB9003E6BBE4345008A158FE66B77D46CB9CB369464CC'}
请求路径: http://110.80.137.11:8059/auction/PageList
传参方式： json
请求内容: {"platFormId":"0","source":0,"pageSize":10,"pageIndex":1,"order":6,"searchParm":"","pid":""}
依赖测试用例: 暂无依赖用例数据
接口响应内容: {"success":true,"pageCount":176,"totalCount":1754,"pageSize":10,"pageIndex":1,"list":[{"id":"508619613554080033","num":"58386563","dataStatus":2,"auctionType":1,"auctionStartTick":1659192577,"auctionTick":1717253344,"endTick":1717253344,"startPrice":1.00,"maxPrice":99.00,"nowPrice":2.00,"auctionGoods":{"id":"545102908016367048","cid":"573978134655224746","classInfo":null,"goodsType":"1","mainNetNum":3,"mainNetName":"低傲","contractAddr":"0xcF0076c9af189f2b7054be86c05b2353Db5E6795","goodsKey":"53918","goodsName":"军","goodsInfo":"{\"video\":\"https://wm-auction-1.oss-cn-beijing.aliyuncs.com/2022_07/D1657029351169.mp4\",\"images\":[\"https://wm-auction-1.oss-cn-beijing.aliyuncs.com/2022_07/D1657029347789.png\"],\"tags\":[],\"fbxUrl\":\"\",\"detail\":\"<p><img src=\\\"https://v2.cdwami.com:666/CMS/1/202207/img/20220705215601342.png\\\"></p>\"}","deliveryTick":0,"source":1,"goodsProduct":{"pid":"573978134655224746","className":"爱国拥军","productInfo":"{\"video\":\"https://wm-auction-1.oss-cn-beijing.aliyuncs.com/2022_07/D1657029351169.mp4\",\"images\":[\"https://wm-auction-1.oss-cn-beijing.aliyuncs.com/2022_07/D1657029347789.png\"],\"tags\":[],\"fbxUrl\":\"\",\"detail\":\"<p><img src=\\\"https://v2.cdwami.com:666/CMS/1/202207/img/20220705215601342.png\\\"></p>\"}","totalCount":"0","authorId":"409735638338764801","authorName":"低傲","authorImg":"https://wm-auction-1.oss-cn-beijing.aliyuncs.com/2022_07/D1656988648606.png","publisherName":"低傲","sellTick":"1657072800"}},"tokenNum":"","goodsSource":1,"sellerBzj":0.00,"countDown":56257636,"buyerUid":"0","isInBid":"0","topuserid":null,"deliveryTime":0},{"id":"513810454977234372","num":"55153947","dataStatus":2,"auctionType":1,"auctionStartTick":1659192447,"auctionTick":1717252881,"endTick":1717252881,"startPrice":1.00,"maxPrice":99.00,"nowPrice":2.00,"auctionGoods":{"id":"597178973148002211","cid":"573978134655224746","classInfo":null,"goodsType":"1","mainNetNum":3,"mainNetName":"低傲","contractAddr":"0xcF0076c9af189f2b7054be86c05b2353Db5E6795","goodsKey":"63749","goodsName":"军","goodsInfo":"{\"video\":\"https://wm-auction-1.oss-cn-beijing.aliyuncs.com/2022_07/D1657029351169.mp4\",\"images\":[\"https://wm-auction-1.oss-cn-beijing.aliyuncs.com/2022_07/D1657029347789.png\"],\"tags\":[],\"fbxUrl\":\"\",\"detail\":\"<p><img src=\\\"https://v2.cdwami.com:666/CMS/1/202207/img/20220705215601342.png\\\"></p>\"}","deliveryTick":0,"source":1,"goodsProduct":{"pid":"573978134655224746","className":"爱国拥军","productInfo":"{\"video\":\"https://wm-auction-1.oss-cn-beijing.aliyuncs.com/2022_07/D1657029351169.mp4\",\"images\":[\"https://wm-auction-1.oss-cn-beijing.aliyuncs.com/2022_07/D1657029347789.png\"],\"tags\":[],\"fbxUrl\":\"\",\"detail\":\"<p><img src=\\\"https://v2.cdwami.com:666/CMS/1/202207/img/20220705215601342.png\\\"></p>\"}","totalCount":"0","authorId":"409735638338764801","authorName":"低傲","authorImg":"https://wm-auction-1.oss-cn-beijing.aliyuncs.com/2022_07/D1656988648606.png","publisherName":"低傲","sellTick":"1657072800"}},"tokenNum":"","goodsSource":1,"sellerBzj":0.00,"countDown":56257118,"buyerUid":"0","isInBid":"0","topuserid":null,"deliveryTime":0},{"id":"595791818631263465","num":"52555384","dataStatus":2,"auctionType":1,"auctionStartTick":1658720254,"auctionTick":1661917041,"endTick":1661917041,"startPrice":3.00,"maxPrice":5.00,"nowPrice":4.00,"auctionGoods":{"id":"518876548378316385","cid":"527784816493039790","classInfo":null,"goodsType":"1","mainNetNum":3,"mainNetName":"低傲","contractAddr":"0xF6310D1B3b29Cf04ae0e7f030e45571A8838F6E7","goodsKey":"16016","goodsName":"原驻民勋章","goodsInfo":"{\"video\":\"https://v2.cdwami.com:666/CMS/1/202206/video/20220616045933793.mp4\",\"images\":[\"https://v2.cdwami.com:666/CMS/1/202206/img/20220616045929510.jpeg\"],\"tags\":[],\"detail\":\"<p><img src=\\\"https://v2.cdwami.com:666/CMS/1/202206/img/20220616053321986.jpg\\\"></p>\"}","deliveryTick":0,"source":1,"goodsProduct":{"pid":"527784816493039790","className":"原驻民勋章","productInfo":"{\"video\":\"https://v2.cdwami.com:666/CMS/1/202206/video/20220616045933793.mp4\",\"images\":[\"https://v2.cdwami.com:666/CMS/1/202206/img/20220616045929510.jpeg\"],\"tags\":[],\"detail\":\"<p><img src=\\\"https://v2.cdwami.com:666/CMS/1/202206/img/20220616053321986.jpg\\\"></p>\"}","totalCount":"91029","authorId":"409735638338764801","authorName":"低傲","authorImg":"https://v2.cdwami.com:666/CMS/1/202206/img/20220616050209770.png","publisherName":"低傲","sellTick":"1655356600"}},"tokenNum":"","goodsSource":1,"sellerBzj":0.00,"countDown":920397,"buyerUid":"0","isInBid":"0","topuserid":null,"deliveryTime":0},{"id":"520041796141386294","num":"56549741","dataStatus":2,"auctionType":1,"auctionStartTick":1659192667,"auctionTick":1717253425,"endTick":1717253425,"startPrice":1.00,"maxPrice":99.00,"nowPrice":1.00,"auctionGoods":{"id":"528198538617182130","cid":"573978134655224746","classInfo":null,"goodsType":"1","mainNetNum":3,"mainNetName":"低傲","contractAddr":"0xcF0076c9af189f2b7054be86c05b2353Db5E6795","goodsKey":"53928","goodsName":"军","goodsInfo":"{\"video\":\"https://wm-auction-1.oss-cn-beijing.aliyuncs.com/2022_07/D1657029351169.mp4\",\"images\":[\"https://wm-auction-1.oss-cn-beijing.aliyuncs.com/2022_07/D1657029347789.png\"],\"tags\":[],\"fbxUrl\":\"\",\"detail\":\"<p><img src=\\\"https://v2.cdwami.com:666/CMS/1/202207/img/20220705215601342.png\\\"></p>\"}","deliveryTick":0,"source":1,"goodsProduct":{"pid":"573978134655224746","className":"爱国拥军","productInfo":"{\"video\":\"https://wm-auction-1.oss-cn-beijing.aliyuncs.com/2022_07/D1657029351169.mp4\",\"images\":[\"https://wm-auction-1.oss-cn-beijing.aliyuncs.com/2022_07/D1657029347789.png\"],\"tags\":[],\"fbxUrl\":\"\",\"detail\":\"<p><img src=\\\"https://v2.cdwami.com:666/CMS/1/202207/img/20220705215601342.png\\\"></p>\"}","totalCount":"0","authorId":"409735638338764801","authorName":"低傲","authorImg":"https://wm-auction-1.oss-cn-beijing.aliyuncs.com/2022_07/D1656988648606.png","publisherName":"低傲","sellTick":"1657072800"}},"tokenNum":"","goodsSource":1,"sellerBzj":0.00,"countDown":56257591,"buyerUid":"0","isInBid":"0","topuserid":null,"deliveryTime":0},{"id":"528049895678580185","num":"52212637","dataStatus":2,"auctionType":1,"auctionStartTick":1659192704,"auctionTick":1717253478,"endTick":1717253478,"startPrice":1.00,"maxPrice":99.00,"nowPrice":1.00,"auctionGoods":{"id":"567379960023644659","cid":"573978134655224746","classInfo":null,"goodsType":"1","mainNetNum":3,"mainNetName":"低傲","contractAddr":"0xcF0076c9af189f2b7054be86c05b2353Db5E6795","goodsKey":"53929","goodsName":"军","goodsInfo":"{\"video\":\"https://wm-auction-1.oss-cn-beijing.aliyuncs.com/2022_07/D1657029351169.mp4\",\"images\":[\"https://wm-auction-1.oss-cn-beijing.aliyuncs.com/2022_07/D1657029347789.png\"],\"tags\":[],\"fbxUrl\":\"\",\"detail\":\"<p><img src=\\\"https://v2.cdwami.com:666/CMS/1/202207/img/20220705215601342.png\\\"></p>\"}","deliveryTick":0,"source":1,"goodsProduct":{"pid":"573978134655224746","className":"爱国拥军","productInfo":"{\"video\":\"https://wm-auction-1.oss-cn-beijing.aliyuncs.com/2022_07/D1657029351169.mp4\",\"images\":[\"https://wm-auction-1.oss-cn-beijing.aliyuncs.com/2022_07/D1657029347789.png\"],\"tags\":[],\"fbxUrl\":\"\",\"detail\":\"<p><img src=\\\"https://v2.cdwami.com:666/CMS/1/202207/img/20220705215601342.png\\\"></p>\"}","totalCount":"0","authorId":"409735638338764801","authorName":"低傲","authorImg":"https://wm-auction-1.oss-cn-beijing.aliyuncs.com/2022_07/D1656988648606.png","publisherName":"低傲","sellTick":"1657072800"}},"tokenNum":"","goodsSource":1,"sellerBzj":0.00,"countDown":56257565,"buyerUid":"0","isInBid":"0","topuserid":null,"deliveryTime":0},{"id":"534098978803826037","num":"51183558","dataStatus":2,"auctionType":1,"auctionStartTick":1659192618,"auctionTick":1717253386,"endTick":1717253386,"startPrice":1.00,"maxPrice":99.00,"nowPrice":1.00,"auctionGoods":{"id":"508942189306973644","cid":"573978134655224746","classInfo":null,"goodsType":"1","mainNetNum":3,"mainNetName":"低傲","contractAddr":"0xcF0076c9af189f2b7054be86c05b2353Db5E6795","goodsKey":"53951","goodsName":"军","goodsInfo":"{\"video\":\"https://wm-auction-1.oss-cn-beijing.aliyuncs.com/2022_07/D1657029351169.mp4\",\"images\":[\"https://wm-auction-1.oss-cn-beijing.aliyuncs.com/2022_07/D1657029347789.png\"],\"tags\":[],\"fbxUrl\":\"\",\"detail\":\"<p><img src=\\\"https://v2.cdwami.com:666/CMS/1/202207/img/20220705215601342.png\\\"></p>\"}","deliveryTick":0,"source":1,"goodsProduct":{"pid":"573978134655224746","className":"爱国拥军","productInfo":"{\"video\":\"https://wm-auction-1.oss-cn-beijing.aliyuncs.com/2022_07/D1657029351169.mp4\",\"images\":[\"https://wm-auction-1.oss-cn-beijing.aliyuncs.com/2022_07/D1657029347789.png\"],\"tags\":[],\"fbxUrl\":\"\",\"detail\":\"<p><img src=\\\"https://v2.cdwami.com:666/CMS/1/202207/img/20220705215601342.png\\\"></p>\"}","totalCount":"0","authorId":"409735638338764801","authorName":"低傲","authorImg":"https://wm-auction-1.oss-cn-beijing.aliyuncs.com/2022_07/D1656988648606.png","publisherName":"低傲","sellTick":"1657072800"}},"tokenNum":"","goodsSource":1,"sellerBzj":0.00,"countDown":56257400,"buyerUid":"0","isInBid":"0","topuserid":null,"deliveryTime":0},{"id":"534583962230571153","num":"53907704","dataStatus":2,"auctionType":1,"auctionStartTick":1659342700,"auctionTick":1664526691,"endTick":1664526691,"startPrice":1.00,"maxPrice":3.00,"nowPrice":1.00,"auctionGoods":{"id":"505939072924989307","cid":"579246700726478200","classInfo":null,"goodsType":"1","mainNetNum":3,"mainNetName":"低傲","contractAddr":"0xB869E9BEF553030F3200D3eB9E049Ed4968D4584","goodsKey":"7674","goodsName":"藏","goodsInfo":"{\"video\":\"https://v2.cdwami.com:666/CMS/1/202206/video/20220617194811696.mp4\",\"images\":[\"https://v2.cdwami.com:666/CMS/1/202206/img/20220617194801848.jpg\"],\"tags\":[],\"detail\":\"<p><img src=\\\"https://v2.cdwami.com:666/CMS/1/202206/img/20220617194823278.jpg\\\"></p>\"}","deliveryTick":0,"source":1,"goodsProduct":{"pid":"579246700726478200","className":"低傲数藏","productInfo":"{\"video\":\"https://v2.cdwami.com:666/CMS/1/202206/video/20220617194811696.mp4\",\"images\":[\"https://v2.cdwami.com:666/CMS/1/202206/img/20220617194801848.jpg\"],\"tags\":[],\"detail\":\"<p><img src=\\\"https://v2.cdwami.com:666/CMS/1/202206/img/20220617194823278.jpg\\\"></p>\"}","totalCount":"0","authorId":"409735638338764801","authorName":"低傲","authorImg":"https://v2.cdwami.com:666/CMS/1/202206/img/20220617194729218.png","publisherName":"低傲","sellTick":"1655308800"}},"tokenNum":"","goodsSource":1,"sellerBzj":0.00,"countDown":3530695,"buyerUid":"0","isInBid":"0","topuserid":null,"deliveryTime":0},{"id":"536227252511264499","num":"51492004","dataStatus":2,"auctionType":1,"auctionStartTick":1659192856,"auctionTick":1717253627,"endTick":1717253627,"startPrice":1.00,"maxPrice":99.00,"nowPrice":1.00,"auctionGoods":{"id":"569292775587840184","cid":"573978134655224746","classInfo":null,"goodsType":"1","mainNetNum":3,"mainNetName":"低傲","contractAddr":"0xcF0076c9af189f2b7054be86c05b2353Db5E6795","goodsKey":"12393","goodsName":"军","goodsInfo":"{\"video\":\"https://wm-auction-1.oss-cn-beijing.aliyuncs.com/2022_07/D1657029351169.mp4\",\"images\":[\"https://wm-auction-1.oss-cn-beijing.aliyuncs.com/2022_07/D1657029347789.png\"],\"tags\":[],\"fbxUrl\":\"\",\"detail\":\"<p><img src=\\\"https://v2.cdwami.com:666/CMS/1/202207/img/20220705215601342.png\\\"></p>\"}","deliveryTick":0,"source":1,"goodsProduct":{"pid":"573978134655224746","className":"爱国拥军","productInfo":"{\"video\":\"https://wm-auction-1.oss-cn-beijing.aliyuncs.com/2022_07/D1657029351169.mp4\",\"images\":[\"https://wm-auction-1.oss-cn-beijing.aliyuncs.com/2022_07/D1657029347789.png\"],\"tags\":[],\"fbxUrl\":\"\",\"detail\":\"<p><img src=\\\"https://v2.cdwami.com:666/CMS/1/202207/img/20220705215601342.png\\\"></p>\"}","totalCount":"0","authorId":"409735638338764801","authorName":"低傲","authorImg":"https://wm-auction-1.oss-cn-beijing.aliyuncs.com/2022_07/D1656988648606.png","publisherName":"低傲","sellTick":"1657072800"}},"tokenNum":"","goodsSource":1,"sellerBzj":0.00,"countDown":56257609,"buyerUid":"0","isInBid":"0","topuserid":null,"deliveryTime":0},{"id":"541666889164753036","num":"53974309","dataStatus":2,"auctionType":1,"auctionStartTick":1659308682,"auctionTick":1664492673,"endTick":1664492673,"startPrice":2.00,"maxPrice":4.00,"nowPrice":2.00,"auctionGoods":{"id":"512365256393152399","cid":"573978134655224746","classInfo":null,"goodsType":"1","mainNetNum":3,"mainNetName":"低傲","contractAddr":"0xcF0076c9af189f2b7054be86c05b2353Db5E6795","goodsKey":"79558","goodsName":"军","goodsInfo":"{\"video\":\"https://wm-auction-1.oss-cn-beijing.aliyuncs.com/2022_07/D1657029351169.mp4\",\"images\":[\"https://wm-auction-1.oss-cn-beijing.aliyuncs.com/2022_07/D1657029347789.png\"],\"tags\":[],\"fbxUrl\":\"\",\"detail\":\"<p><img src=\\\"https://v2.cdwami.com:666/CMS/1/202207/img/20220705215601342.png\\\"></p>\"}","deliveryTick":0,"source":1,"goodsProduct":{"pid":"573978134655224746","className":"爱国拥军","productInfo":"{\"video\":\"https://wm-auction-1.oss-cn-beijing.aliyuncs.com/2022_07/D1657029351169.mp4\",\"images\":[\"https://wm-auction-1.oss-cn-beijing.aliyuncs.com/2022_07/D1657029347789.png\"],\"tags\":[],\"fbxUrl\":\"\",\"detail\":\"<p><img src=\\\"https://v2.cdwami.com:666/CMS/1/202207/img/20220705215601342.png\\\"></p>\"}","totalCount":"0","authorId":"409735638338764801","authorName":"低傲","authorImg":"https://wm-auction-1.oss-cn-beijing.aliyuncs.com/2022_07/D1656988648606.png","publisherName":"低傲","sellTick":"1657072800"}},"tokenNum":"","goodsSource":1,"sellerBzj":0.00,"countDown":3496602,"buyerUid":"0","isInBid":"0","topuserid":null,"deliveryTime":0},{"id":"557363168728159439","num":"51664679","dataStatus":2,"auctionType":1,"auctionStartTick":1659359342,"auctionTick":1661173699,"endTick":1661173699,"startPrice":3.00,"maxPrice":100.00,"nowPrice":3.00,"auctionGoods":{"id":"411455992975392870","cid":"411158621955555330","classInfo":null,"goodsType":"1","mainNetNum":3,"mainNetName":"低傲","contractAddr":"0xbEDFe410Ea934Ffd6D6EE1937e6E93004e8ADc2e","goodsKey":"7633","goodsName":"万能券","goodsInfo":"{\"video\":\"https://wm-auction-1.oss-cn-beijing.aliyuncs.com/2022_06/D1654599217394_video.mp4\",\"images\":[\"https://wm-auction-1.oss-cn-beijing.aliyuncs.com/2022_06/D1654597886183_img.png\"],\"detail\":\"<p><img src=\\\"https://wm-auction-1.oss-cn-beijing.aliyuncs.com/2022_06/D1654597892086_detail.png\\\"></p>\",\"totalCount\":\"100000\",\"tags\":[\"\"]}","deliveryTick":0,"source":1,"goodsProduct":{"pid":"411158621955555330","className":"万能券","productInfo":"{\"video\":\"https://wm-auction-1.oss-cn-beijing.aliyuncs.com/2022_06/D1654599217394_video.mp4\",\"images\":[\"https://wm-auction-1.oss-cn-beijing.aliyuncs.com/2022_06/D1654597886183_img.png\"],\"detail\":\"<p><img src=\\\"https://wm-auction-1.oss-cn-beijing.aliyuncs.com/2022_06/D1654597892086_detail.png\\\"></p>\",\"totalCount\":\"100000\",\"tags\":[\"\"]}","totalCount":"100000","authorId":"409735638338764801","authorName":"低傲","authorImg":"https://wm-auction-1.oss-cn-beijing.aliyuncs.com/2022_05/D1653751067011_飞书20220528-231648.png","publisherName":"低傲","sellTick":"1655208480"}},"tokenNum":"","goodsSource":1,"sellerBzj":0.00,"countDown":177463,"buyerUid":"0","isInBid":"0","topuserid":null,"deliveryTime":0}],"msg":"ok","code":"","data":null}
接口响应时长: 0.085774 s
Http状态码: 200
断言方式：相等
期望结果：10
实际结果：[10]
>>==============================第10条用例执行完毕=======================================>>