INFO     root:logDecoratorl.py:39 
>>===============================正在执行第32条用例======================================>>
测试标题: 获取成交历史是否成功
请求方式: post
请求头:   {'accesstoken': 'd300b3b536bac96f312fef18fbd49ba6', 'timespan': '1661138356', 'TOKEN': '86AF2DC047BB1C1853DA37D4486B24DD8148D45D3915D46FB6746CD2110752DB22D648E8E5B29660D2E9BD0C6FF9EAFE7381CC53D7C7934D626CB9003E6BBE4345008A158FE66B77D46CB9CB369464CC'}
请求路径: http://110.80.137.11:8059/auction/PageList
传参方式： json
请求内容: {"platFormId":"0","source":7,"pageSize":10,"pageIndex":1,"order":7,"searchParm":"","pid":""}
依赖测试用例: 暂无依赖用例数据
接口响应内容: {"success":true,"pageCount":31,"totalCount":302,"pageSize":10,"pageIndex":1,"list":[{"id":"520041796141386294","num":"56549741","dataStatus":4,"auctionType":1,"auctionStartTick":1659192667,"auctionTick":1717253425,"endTick":1661138352,"startPrice":1.00,"maxPrice":99.00,"nowPrice":99.00,"auctionGoods":{"id":"528198538617182130","cid":"573978134655224746","classInfo":null,"goodsType":"1","mainNetNum":3,"mainNetName":"低傲","contractAddr":"0xcF0076c9af189f2b7054be86c05b2353Db5E6795","goodsKey":"53928","goodsName":"军","goodsInfo":"{\"video\":\"https://wm-auction-1.oss-cn-beijing.aliyuncs.com/2022_07/D1657029351169.mp4\",\"images\":[\"https://wm-auction-1.oss-cn-beijing.aliyuncs.com/2022_07/D1657029347789.png\"],\"tags\":[],\"fbxUrl\":\"\",\"detail\":\"<p><img src=\\\"https://v2.cdwami.com:666/CMS/1/202207/img/20220705215601342.png\\\"></p>\"}","deliveryTick":0,"source":1,"goodsProduct":{"pid":"573978134655224746","className":"爱国拥军","productInfo":"{\"video\":\"https://wm-auction-1.oss-cn-beijing.aliyuncs.com/2022_07/D1657029351169.mp4\",\"images\":[\"https://wm-auction-1.oss-cn-beijing.aliyuncs.com/2022_07/D1657029347789.png\"],\"tags\":[],\"fbxUrl\":\"\",\"detail\":\"<p><img src=\\\"https://v2.cdwami.com:666/CMS/1/202207/img/20220705215601342.png\\\"></p>\"}","totalCount":"0","authorId":"409735638338764801","authorName":"低傲","authorImg":"https://wm-auction-1.oss-cn-beijing.aliyuncs.com/2022_07/D1656988648606.png","publisherName":"低傲","sellTick":"1657072800"}},"tokenNum":"","goodsSource":1,"sellerBzj":0.00,"countDown":56257591,"buyerUid":"0","isInBid":"2","topuserid":"512864852807238442","deliveryTime":0},{"id":"598195827137757999","num":"57903492","dataStatus":3,"auctionType":1,"auctionStartTick":1658963120,"auctionTick":1661619600,"endTick":1661138343,"startPrice":7.00,"maxPrice":21.00,"nowPrice":21.00,"auctionGoods":{"id":"411311037225107559","cid":"411158621955555330","classInfo":null,"goodsType":"1","mainNetNum":3,"mainNetName":"低傲","contractAddr":"0xbEDFe410Ea934Ffd6D6EE1937e6E93004e8ADc2e","goodsKey":"4234","goodsName":"万能券","goodsInfo":"{\"video\":\"https://wm-auction-1.oss-cn-beijing.aliyuncs.com/2022_06/D1654599217394_video.mp4\",\"images\":[\"https://wm-auction-1.oss-cn-beijing.aliyuncs.com/2022_06/D1654597886183_img.png\"],\"detail\":\"<p><img src=\\\"https://wm-auction-1.oss-cn-beijing.aliyuncs.com/2022_06/D1654597892086_detail.png\\\"></p>\",\"totalCount\":\"100000\",\"tags\":[\"\"]}","deliveryTick":0,"source":1,"goodsProduct":{"pid":"411158621955555330","className":"万能券","productInfo":"{\"video\":\"https://wm-auction-1.oss-cn-beijing.aliyuncs.com/2022_06/D1654599217394_video.mp4\",\"images\":[\"https://wm-auction-1.oss-cn-beijing.aliyuncs.com/2022_06/D1654597886183_img.png\"],\"detail\":\"<p><img src=\\\"https://wm-auction-1.oss-cn-beijing.aliyuncs.com/2022_06/D1654597892086_detail.png\\\"></p>\",\"totalCount\":\"100000\",\"tags\":[\"\"]}","totalCount":"100000","authorId":"409735638338764801","authorName":"低傲","authorImg":"https://wm-auction-1.oss-cn-beijing.aliyuncs.com/2022_05/D1653751067011_飞书20220528-231648.png","publisherName":"低傲","sellTick":"1655208480"}},"tokenNum":"","goodsSource":1,"sellerBzj":0.00,"countDown":622933,"buyerUid":"0","isInBid":"2","topuserid":"512864852807238442","deliveryTime":0},{"id":"524263715389128868","num":"52345865","dataStatus":4,"auctionType":1,"auctionStartTick":1660995836,"auctionTick":2145888000,"endTick":1660995983,"startPrice":5000.00,"maxPrice":20000.00,"nowPrice":20000.00,"auctionGoods":{"id":"512876610470359057","cid":"410173682506268674","classInfo":null,"goodsType":"1","mainNetNum":3,"mainNetName":"低傲","contractAddr":"0xAADeb74a38cDabf37A3751941141CF983C141EbF","goodsKey":"2068","goodsName":"童话“播”","goodsInfo":"{\"video\":\"https://wm-auction-1.oss-cn-beijing.aliyuncs.com/2022_05/D1654012110166_bo.mp4\",\"images\":[\"https://wm-auction-1.oss-cn-beijing.aliyuncs.com/2022_05/D1654012105761_bo_1.png\"],\"detail\":\"<p><img src=\\\"https://wm-auction-1.oss-cn-beijing.aliyuncs.com/2022_05/D1654012117432_bo_img.png\\\"></p>\",\"tags\":[\"\"],\"totalCount\":\"2000\"}","deliveryTick":0,"source":1,"goodsProduct":{"pid":"410173682506268674","className":"童年","productInfo":"{\"video\":\"https://wm-auction-1.oss-cn-beijing.aliyuncs.com/2022_05/D1654012110166_bo.mp4\",\"images\":[\"https://wm-auction-1.oss-cn-beijing.aliyuncs.com/2022_05/D1654012105761_bo_1.png\"],\"detail\":\"<p><img src=\\\"https://wm-auction-1.oss-cn-beijing.aliyuncs.com/2022_05/D1654012117432_bo_img.png\\\"></p>\",\"tags\":[\"\"],\"totalCount\":\"2000\"}","totalCount":"2000","authorId":"409735638338764801","authorName":"低傲","authorImg":"https://wm-auction-1.oss-cn-beijing.aliyuncs.com/2022_05/D1653751067011_飞书20220528-231648.png","publisherName":"低傲","sellTick":"1654012800"}},"tokenNum":"","goodsSource":1,"sellerBzj":0.00,"countDown":484892107,"buyerUid":"0","isInBid":"0","topuserid":null,"deliveryTime":0},{"id":"503766587020410294","num":"55554657","dataStatus":4,"auctionType":1,"auctionStartTick":1658747742,"auctionTick":1669806913,"endTick":1660995945,"startPrice":999.00,"maxPrice":1999.00,"nowPrice":1999.00,"auctionGoods":{"id":"573201645561452865","cid":"511818459864177133","classInfo":null,"goodsType":"1","mainNetNum":3,"mainNetName":"低傲","contractAddr":"0x26D0dD3Bfc0b83A4F92b3aCfe7126F08ce0A8096","goodsKey":"1305","goodsName":"VT-4主战坦克","goodsInfo":"{\"video\":\"https://wm-auction-1.oss-cn-beijing.aliyuncs.com/2022_06/D1655876821056.mp4\",\"images\":[\"https://wm-auction-1.oss-cn-beijing.aliyuncs.com/2022_06/D1655881879751.png\"],\"tags\":[],\"fbxUrl\":\"https://wm-auction-1.oss-cn-beijing.aliyuncs.com/2022_06/D1655878790827.fbx\",\"detail\":\"<p><img src=\\\"https://v2.cdwami.com:666/CMS/1/202206/img/20220622162812034.png\\\"></p>\",\"fbxType\":\"tank\"}","deliveryTick":0,"source":1,"goodsProduct":{"pid":"511818459864177133","className":"陆战之王","productInfo":"{\"video\":\"https://wm-auction-1.oss-cn-beijing.aliyuncs.com/2022_06/D1655876821056.mp4\",\"images\":[\"https://wm-auction-1.oss-cn-beijing.aliyuncs.com/2022_06/D1655881879751.png\"],\"tags\":[],\"fbxUrl\":\"https://wm-auction-1.oss-cn-beijing.aliyuncs.com/2022_06/D1655878790827.fbx\",\"detail\":\"<p><img src=\\\"https://v2.cdwami.com:666/CMS/1/202206/img/20220622162812034.png\\\"></p>\",\"fbxType\":\"tank\"}","totalCount":"2999","authorId":"409735638338764801","authorName":"兵器工业集团","authorImg":"https://wm-auction-1.oss-cn-beijing.aliyuncs.com/2022_06/D1655850599829.png","publisherName":"兵器工业集团","sellTick":"1655901480"}},"tokenNum":"","goodsSource":1,"sellerBzj":0.00,"countDown":8811251,"buyerUid":"0","isInBid":"0","topuserid":null,"deliveryTime":0},{"id":"562699536246577694","num":"","dataStatus":4,"auctionType":1,"auctionStartTick":1660994699,"auctionTick":2145888000,"endTick":1660995691,"startPrice":200.00,"maxPrice":600.00,"nowPrice":600.00,"auctionGoods":{"id":"560536895243572007","cid":"0","classInfo":"","goodsType":"0","mainNetNum":2,"mainNetName":"幻核","contractAddr":"0","goodsKey":"","goodsName":"213131313123213","goodsInfo":"{\"images\":[\"https://wm-auction-1.oss-cn-beijing.aliyuncs.com/D_1661081052145_c5bda2cb-3644-471b-b97d-bf22e03cc0bf\"]}","deliveryTick":0,"source":2,"goodsProduct":null},"tokenNum":"","goodsSource":2,"sellerBzj":100.00,"countDown":484892334,"buyerUid":"0","isInBid":"0","topuserid":null,"deliveryTime":0},{"id":"516068150983178431","num":"","dataStatus":6,"auctionType":1,"auctionStartTick":1659434305,"auctionTick":2145888000,"endTick":1659811072,"startPrice":220.00,"maxPrice":230.00,"nowPrice":230.00,"auctionGoods":{"id":"562038662907657098","cid":"0","classInfo":"","goodsType":"0","mainNetNum":1,"mainNetName":"鲸探","contractAddr":"0","goodsKey":"","goodsName":"小鹏汽车机能飞行靓号   元宇宙飞行服   升级空气背包款","goodsInfo":"{\"images\":[\"https://wm-auction-1.oss-cn-beijing.aliyuncs.com/D_1659433403806_1659433402687_1659433236999_100.PNG\",\"https://wm-auction-1.oss-cn-beijing.aliyuncs.com/D_1659433403838_1659433403324_Screenshot_2022-08-02-17-28-13-997_com.antfans.fans.jpg\",\"https://wm-auction-1.oss-cn-beijing.aliyuncs.com/D_1659433403867_1659433403419_Screenshot_2022-08-02-17-40-21-151_com.antfans.fans.jpg\"]}","deliveryTick":0,"source":2,"goodsProduct":null},"tokenNum":"","goodsSource":2,"sellerBzj":100.00,"countDown":0,"buyerUid":"409812845962723329","isInBid":"0","topuserid":null,"deliveryTime":0},{"id":"591477448001421768","num":"50902183","dataStatus":3,"auctionType":1,"auctionStartTick":1659610397,"auctionTick":1659783174,"endTick":1659783177,"startPrice":2.00,"maxPrice":6.00,"nowPrice":2.00,"auctionGoods":{"id":"411311036688367717","cid":"411158621955555330","classInfo":null,"goodsType":"1","mainNetNum":3,"mainNetName":"低傲","contractAddr":"0xbEDFe410Ea934Ffd6D6EE1937e6E93004e8ADc2e","goodsKey":"3827","goodsName":"万能券","goodsInfo":"{\"video\":\"https://wm-auction-1.oss-cn-beijing.aliyuncs.com/2022_06/D1654599217394_video.mp4\",\"images\":[\"https://wm-auction-1.oss-cn-beijing.aliyuncs.com/2022_06/D1654597886183_img.png\"],\"detail\":\"<p><img src=\\\"https://wm-auction-1.oss-cn-beijing.aliyuncs.com/2022_06/D1654597892086_detail.png\\\"></p>\",\"totalCount\":\"100000\",\"tags\":[\"\"]}","deliveryTick":0,"source":1,"goodsProduct":{"pid":"411158621955555330","className":"万能券","productInfo":"{\"video\":\"https://wm-auction-1.oss-cn-beijing.aliyuncs.com/2022_06/D1654599217394_video.mp4\",\"images\":[\"https://wm-auction-1.oss-cn-beijing.aliyuncs.com/2022_06/D1654597886183_img.png\"],\"detail\":\"<p><img src=\\\"https://wm-auction-1.oss-cn-beijing.aliyuncs.com/2022_06/D1654597892086_detail.png\\\"></p>\",\"totalCount\":\"100000\",\"tags\":[\"\"]}","totalCount":"100000","authorId":"409735638338764801","authorName":"低傲","authorImg":"https://wm-auction-1.oss-cn-beijing.aliyuncs.com/2022_05/D1653751067011_飞书20220528-231648.png","publisherName":"低傲","sellTick":"1655208480"}},"tokenNum":"","goodsSource":1,"sellerBzj":0.00,"countDown":0,"buyerUid":"411839911847526503","isInBid":"0","topuserid":null,"deliveryTime":0},{"id":"508983874070004486","num":"53316071","dataStatus":3,"auctionType":1,"auctionStartTick":1659690136,"auctionTick":1659776526,"endTick":1659776530,"startPrice":1.00,"maxPrice":4.00,"nowPrice":1.00,"auctionGoods":{"id":"542500533910030414","cid":"573978134655224746","classInfo":null,"goodsType":"1","mainNetNum":3,"mainNetName":"低傲","contractAddr":"0xcF0076c9af189f2b7054be86c05b2353Db5E6795","goodsKey":"41085","goodsName":"军","goodsInfo":"{\"video\":\"https://wm-auction-1.oss-cn-beijing.aliyuncs.com/2022_07/D1657029351169.mp4\",\"images\":[\"https://wm-auction-1.oss-cn-beijing.aliyuncs.com/2022_07/D1657029347789.png\"],\"tags\":[],\"fbxUrl\":\"\",\"detail\":\"<p><img src=\\\"https://v2.cdwami.com:666/CMS/1/202207/img/20220705215601342.png\\\"></p>\"}","deliveryTick":0,"source":1,"goodsProduct":{"pid":"573978134655224746","className":"爱国拥军","productInfo":"{\"video\":\"https://wm-auction-1.oss-cn-beijing.aliyuncs.com/2022_07/D1657029351169.mp4\",\"images\":[\"https://wm-auction-1.oss-cn-beijing.aliyuncs.com/2022_07/D1657029347789.png\"],\"tags\":[],\"fbxUrl\":\"\",\"detail\":\"<p><img src=\\\"https://v2.cdwami.com:666/CMS/1/202207/img/20220705215601342.png\\\"></p>\"}","totalCount":"0","authorId":"409735638338764801","authorName":"低傲","authorImg":"https://wm-auction-1.oss-cn-beijing.aliyuncs.com/2022_07/D1656988648606.png","publisherName":"低傲","sellTick":"1657072800"}},"tokenNum":"","goodsSource":1,"sellerBzj":0.00,"countDown":0,"buyerUid":"410248911979020389","isInBid":"0","topuserid":null,"deliveryTime":0},{"id":"593805612986679454","num":"53834259","dataStatus":3,"auctionType":1,"auctionStartTick":1659690117,"auctionTick":1659776502,"endTick":1659776505,"startPrice":1.00,"maxPrice":4.00,"nowPrice":1.00,"auctionGoods":{"id":"586973076439391930","cid":"573978134655224746","classInfo":null,"goodsType":"1","mainNetNum":3,"mainNetName":"低傲","contractAddr":"0xcF0076c9af189f2b7054be86c05b2353Db5E6795","goodsKey":"84502","goodsName":"军","goodsInfo":"{\"video\":\"https://wm-auction-1.oss-cn-beijing.aliyuncs.com/2022_07/D1657029351169.mp4\",\"images\":[\"https://wm-auction-1.oss-cn-beijing.aliyuncs.com/2022_07/D1657029347789.png\"],\"tags\":[],\"fbxUrl\":\"\",\"detail\":\"<p><img src=\\\"https://v2.cdwami.com:666/CMS/1/202207/img/20220705215601342.png\\\"></p>\"}","deliveryTick":0,"source":1,"goodsProduct":{"pid":"573978134655224746","className":"爱国拥军","productInfo":"{\"video\":\"https://wm-auction-1.oss-cn-beijing.aliyuncs.com/2022_07/D1657029351169.mp4\",\"images\":[\"https://wm-auction-1.oss-cn-beijing.aliyuncs.com/2022_07/D1657029347789.png\"],\"tags\":[],\"fbxUrl\":\"\",\"detail\":\"<p><img src=\\\"https://v2.cdwami.com:666/CMS/1/202207/img/20220705215601342.png\\\"></p>\"}","totalCount":"0","authorId":"409735638338764801","authorName":"低傲","authorImg":"https://wm-auction-1.oss-cn-beijing.aliyuncs.com/2022_07/D1656988648606.png","publisherName":"低傲","sellTick":"1657072800"}},"tokenNum":"","goodsSource":1,"sellerBzj":0.00,"countDown":0,"buyerUid":"410248911979020389","isInBid":"0","topuserid":null,"deliveryTime":0},{"id":"579064924977674746","num":"54094302","dataStatus":3,"auctionType":1,"auctionStartTick":1659688402,"auctionTick":1659774789,"endTick":1659775415,"startPrice":1.00,"maxPrice":10.00,"nowPrice":1.00,"auctionGoods":{"id":"521291777830200583","cid":"579246700726478200","classInfo":null,"goodsType":"1","mainNetNum":3,"mainNetName":"低傲","contractAddr":"0xB869E9BEF553030F3200D3eB9E049Ed4968D4584","goodsKey":"16116","goodsName":"藏","goodsInfo":"{\"video\":\"https://v2.cdwami.com:666/CMS/1/202206/video/20220617194811696.mp4\",\"images\":[\"https://v2.cdwami.com:666/CMS/1/202206/img/20220617194801848.jpg\"],\"tags\":[],\"detail\":\"<p><img src=\\\"https://v2.cdwami.com:666/CMS/1/202206/img/20220617194823278.jpg\\\"></p>\"}","deliveryTick":0,"source":1,"goodsProduct":{"pid":"579246700726478200","className":"低傲数藏","productInfo":"{\"video\":\"https://v2.cdwami.com:666/CMS/1/202206/video/20220617194811696.mp4\",\"images\":[\"https://v2.cdwami.com:666/CMS/1/202206/img/20220617194801848.jpg\"],\"tags\":[],\"detail\":\"<p><img src=\\\"https://v2.cdwami.com:666/CMS/1/202206/img/20220617194823278.jpg\\\"></p>\"}","totalCount":"0","authorId":"409735638338764801","authorName":"低傲","authorImg":"https://v2.cdwami.com:666/CMS/1/202206/img/20220617194729218.png","publisherName":"低傲","sellTick":"1655308800"}},"tokenNum":"","goodsSource":1,"sellerBzj":0.00,"countDown":0,"buyerUid":"516408963278864982","isInBid":"0","topuserid":null,"deliveryTime":0}],"msg":"ok","code":"","data":null}
接口响应时长: 0.084944 s
Http状态码: 200
断言方式：相等
期望结果：10
实际结果：[10]
>>==============================第32条用例执行完毕=======================================>>