INFO     root:logDecoratorl.py:39 
>>===============================正在执行第28条用例======================================>>
测试标题: 一口价前获取按价格低到高排序是否成功
请求方式: post
请求头:   {'accesstoken': 'daee67b729de28504b364ec65c45f5e5', 'timespan': '1661138347', 'TOKEN': '86AF2DC047BB1C1853DA37D4486B24DD8148D45D3915D46FB6746CD2110752DB22D648E8E5B29660D2E9BD0C6FF9EAFE7381CC53D7C7934D626CB9003E6BBE4345008A158FE66B77D46CB9CB369464CC'}
请求路径: http://110.80.137.11:8059/auction/PageList
传参方式： json
请求内容: {"platFormId":"0","source":0,"pageSize":10,"pageIndex":1,"order":4,"searchParm":"","pid":""}
依赖测试用例: 暂无依赖用例数据
接口响应内容: {"success":true,"pageCount":176,"totalCount":1753,"pageSize":10,"pageIndex":1,"list":[{"id":"504854806117412478","num":"57061017","dataStatus":2,"auctionType":1,"auctionStartTick":1659343098,"auctionTick":1664527088,"endTick":1664527088,"startPrice":1.00,"maxPrice":3.00,"nowPrice":1.00,"auctionGoods":{"id":"562190630157984736","cid":"507784198226545250","classInfo":null,"goodsType":"1","mainNetNum":3,"mainNetName":"低傲","contractAddr":"0x1f393fF6Af4c7ce6bE35E5A360A6A9a68a4087Bb","goodsKey":"1692","goodsName":"傲","goodsInfo":"{\"video\":\"https://v2.cdwami.com:666/CMS/1/202206/video/20220617194217443.mp4\",\"images\":[\"https://v2.cdwami.com:666/CMS/1/202206/img/20220617194207595.jpg\"],\"tags\":[],\"detail\":\"<p><img src=\\\"https://v2.cdwami.com:666/CMS/1/202206/img/20220617194233685.jpg\\\"></p>\"}","deliveryTick":0,"source":1,"goodsProduct":{"pid":"507784198226545250","className":"低傲数藏","productInfo":"{\"video\":\"https://v2.cdwami.com:666/CMS/1/202206/video/20220617194217443.mp4\",\"images\":[\"https://v2.cdwami.com:666/CMS/1/202206/img/20220617194207595.jpg\"],\"tags\":[],\"detail\":\"<p><img src=\\\"https://v2.cdwami.com:666/CMS/1/202206/img/20220617194233685.jpg\\\"></p>\"}","totalCount":"0","authorId":"409735638338764801","authorName":"低傲","authorImg":"","publisherName":"低傲","sellTick":"1655308800"}},"tokenNum":"","goodsSource":1,"sellerBzj":0.00,"countDown":3531416,"buyerUid":"0","isInBid":"0","topuserid":null,"deliveryTime":0},{"id":"504885929607660806","num":"53751287","dataStatus":2,"auctionType":1,"auctionStartTick":1659343085,"auctionTick":1664527076,"endTick":1664527076,"startPrice":1.00,"maxPrice":3.00,"nowPrice":1.00,"auctionGoods":{"id":"522742151875590315","cid":"507784198226545250","classInfo":null,"goodsType":"1","mainNetNum":3,"mainNetName":"低傲","contractAddr":"0x1f393fF6Af4c7ce6bE35E5A360A6A9a68a4087Bb","goodsKey":"327","goodsName":"傲","goodsInfo":"{\"video\":\"https://v2.cdwami.com:666/CMS/1/202206/video/20220617194217443.mp4\",\"images\":[\"https://v2.cdwami.com:666/CMS/1/202206/img/20220617194207595.jpg\"],\"tags\":[],\"detail\":\"<p><img src=\\\"https://v2.cdwami.com:666/CMS/1/202206/img/20220617194233685.jpg\\\"></p>\"}","deliveryTick":0,"source":1,"goodsProduct":{"pid":"507784198226545250","className":"低傲数藏","productInfo":"{\"video\":\"https://v2.cdwami.com:666/CMS/1/202206/video/20220617194217443.mp4\",\"images\":[\"https://v2.cdwami.com:666/CMS/1/202206/img/20220617194207595.jpg\"],\"tags\":[],\"detail\":\"<p><img src=\\\"https://v2.cdwami.com:666/CMS/1/202206/img/20220617194233685.jpg\\\"></p>\"}","totalCount":"0","authorId":"409735638338764801","authorName":"低傲","authorImg":"","publisherName":"低傲","sellTick":"1655308800"}},"tokenNum":"","goodsSource":1,"sellerBzj":0.00,"countDown":3531404,"buyerUid":"0","isInBid":"0","topuserid":null,"deliveryTime":0},{"id":"512672659820607273","num":"58110069","dataStatus":2,"auctionType":1,"auctionStartTick":1659340954,"auctionTick":1664524942,"endTick":1664524942,"startPrice":1.00,"maxPrice":3.00,"nowPrice":1.00,"auctionGoods":{"id":"597554094295817694","cid":"507784198226545250","classInfo":null,"goodsType":"1","mainNetNum":3,"mainNetName":"低傲","contractAddr":"0x1f393fF6Af4c7ce6bE35E5A360A6A9a68a4087Bb","goodsKey":"6524","goodsName":"傲","goodsInfo":"{\"video\":\"https://v2.cdwami.com:666/CMS/1/202206/video/20220617194217443.mp4\",\"images\":[\"https://v2.cdwami.com:666/CMS/1/202206/img/20220617194207595.jpg\"],\"tags\":[],\"detail\":\"<p><img src=\\\"https://v2.cdwami.com:666/CMS/1/202206/img/20220617194233685.jpg\\\"></p>\"}","deliveryTick":0,"source":1,"goodsProduct":{"pid":"507784198226545250","className":"低傲数藏","productInfo":"{\"video\":\"https://v2.cdwami.com:666/CMS/1/202206/video/20220617194217443.mp4\",\"images\":[\"https://v2.cdwami.com:666/CMS/1/202206/img/20220617194207595.jpg\"],\"tags\":[],\"detail\":\"<p><img src=\\\"https://v2.cdwami.com:666/CMS/1/202206/img/20220617194233685.jpg\\\"></p>\"}","totalCount":"0","authorId":"409735638338764801","authorName":"低傲","authorImg":"","publisherName":"低傲","sellTick":"1655308800"}},"tokenNum":"","goodsSource":1,"sellerBzj":0.00,"countDown":3529191,"buyerUid":"0","isInBid":"0","topuserid":null,"deliveryTime":0},{"id":"520041796141386294","num":"56549741","dataStatus":2,"auctionType":1,"auctionStartTick":1659192667,"auctionTick":1717253425,"endTick":1717253425,"startPrice":1.00,"maxPrice":99.00,"nowPrice":1.00,"auctionGoods":{"id":"528198538617182130","cid":"573978134655224746","classInfo":null,"goodsType":"1","mainNetNum":3,"mainNetName":"低傲","contractAddr":"0xcF0076c9af189f2b7054be86c05b2353Db5E6795","goodsKey":"53928","goodsName":"军","goodsInfo":"{\"video\":\"https://wm-auction-1.oss-cn-beijing.aliyuncs.com/2022_07/D1657029351169.mp4\",\"images\":[\"https://wm-auction-1.oss-cn-beijing.aliyuncs.com/2022_07/D1657029347789.png\"],\"tags\":[],\"fbxUrl\":\"\",\"detail\":\"<p><img src=\\\"https://v2.cdwami.com:666/CMS/1/202207/img/20220705215601342.png\\\"></p>\"}","deliveryTick":0,"source":1,"goodsProduct":{"pid":"573978134655224746","className":"爱国拥军","productInfo":"{\"video\":\"https://wm-auction-1.oss-cn-beijing.aliyuncs.com/2022_07/D1657029351169.mp4\",\"images\":[\"https://wm-auction-1.oss-cn-beijing.aliyuncs.com/2022_07/D1657029347789.png\"],\"tags\":[],\"fbxUrl\":\"\",\"detail\":\"<p><img src=\\\"https://v2.cdwami.com:666/CMS/1/202207/img/20220705215601342.png\\\"></p>\"}","totalCount":"0","authorId":"409735638338764801","authorName":"低傲","authorImg":"https://wm-auction-1.oss-cn-beijing.aliyuncs.com/2022_07/D1656988648606.png","publisherName":"低傲","sellTick":"1657072800"}},"tokenNum":"","goodsSource":1,"sellerBzj":0.00,"countDown":56257591,"buyerUid":"0","isInBid":"0","topuserid":null,"deliveryTime":0},{"id":"521257116179921048","num":"59608594","dataStatus":2,"auctionType":1,"auctionStartTick":1659343111,"auctionTick":1664527102,"endTick":1664527102,"startPrice":1.00,"maxPrice":3.00,"nowPrice":1.00,"auctionGoods":{"id":"566473917493890973","cid":"507784198226545250","classInfo":null,"goodsType":"1","mainNetNum":3,"mainNetName":"低傲","contractAddr":"0x1f393fF6Af4c7ce6bE35E5A360A6A9a68a4087Bb","goodsKey":"10115","goodsName":"傲","goodsInfo":"{\"video\":\"https://v2.cdwami.com:666/CMS/1/202206/video/20220617194217443.mp4\",\"images\":[\"https://v2.cdwami.com:666/CMS/1/202206/img/20220617194207595.jpg\"],\"tags\":[],\"detail\":\"<p><img src=\\\"https://v2.cdwami.com:666/CMS/1/202206/img/20220617194233685.jpg\\\"></p>\"}","deliveryTick":0,"source":1,"goodsProduct":{"pid":"507784198226545250","className":"低傲数藏","productInfo":"{\"video\":\"https://v2.cdwami.com:666/CMS/1/202206/video/20220617194217443.mp4\",\"images\":[\"https://v2.cdwami.com:666/CMS/1/202206/img/20220617194207595.jpg\"],\"tags\":[],\"detail\":\"<p><img src=\\\"https://v2.cdwami.com:666/CMS/1/202206/img/20220617194233685.jpg\\\"></p>\"}","totalCount":"0","authorId":"409735638338764801","authorName":"低傲","authorImg":"","publisherName":"低傲","sellTick":"1655308800"}},"tokenNum":"","goodsSource":1,"sellerBzj":0.00,"countDown":3531256,"buyerUid":"0","isInBid":"0","topuserid":null,"deliveryTime":0},{"id":"528049895678580185","num":"52212637","dataStatus":2,"auctionType":1,"auctionStartTick":1659192704,"auctionTick":1717253478,"endTick":1717253478,"startPrice":1.00,"maxPrice":99.00,"nowPrice":1.00,"auctionGoods":{"id":"567379960023644659","cid":"573978134655224746","classInfo":null,"goodsType":"1","mainNetNum":3,"mainNetName":"低傲","contractAddr":"0xcF0076c9af189f2b7054be86c05b2353Db5E6795","goodsKey":"53929","goodsName":"军","goodsInfo":"{\"video\":\"https://wm-auction-1.oss-cn-beijing.aliyuncs.com/2022_07/D1657029351169.mp4\",\"images\":[\"https://wm-auction-1.oss-cn-beijing.aliyuncs.com/2022_07/D1657029347789.png\"],\"tags\":[],\"fbxUrl\":\"\",\"detail\":\"<p><img src=\\\"https://v2.cdwami.com:666/CMS/1/202207/img/20220705215601342.png\\\"></p>\"}","deliveryTick":0,"source":1,"goodsProduct":{"pid":"573978134655224746","className":"爱国拥军","productInfo":"{\"video\":\"https://wm-auction-1.oss-cn-beijing.aliyuncs.com/2022_07/D1657029351169.mp4\",\"images\":[\"https://wm-auction-1.oss-cn-beijing.aliyuncs.com/2022_07/D1657029347789.png\"],\"tags\":[],\"fbxUrl\":\"\",\"detail\":\"<p><img src=\\\"https://v2.cdwami.com:666/CMS/1/202207/img/20220705215601342.png\\\"></p>\"}","totalCount":"0","authorId":"409735638338764801","authorName":"低傲","authorImg":"https://wm-auction-1.oss-cn-beijing.aliyuncs.com/2022_07/D1656988648606.png","publisherName":"低傲","sellTick":"1657072800"}},"tokenNum":"","goodsSource":1,"sellerBzj":0.00,"countDown":56257565,"buyerUid":"0","isInBid":"0","topuserid":null,"deliveryTime":0},{"id":"534098978803826037","num":"51183558","dataStatus":2,"auctionType":1,"auctionStartTick":1659192618,"auctionTick":1717253386,"endTick":1717253386,"startPrice":1.00,"maxPrice":99.00,"nowPrice":1.00,"auctionGoods":{"id":"508942189306973644","cid":"573978134655224746","classInfo":null,"goodsType":"1","mainNetNum":3,"mainNetName":"低傲","contractAddr":"0xcF0076c9af189f2b7054be86c05b2353Db5E6795","goodsKey":"53951","goodsName":"军","goodsInfo":"{\"video\":\"https://wm-auction-1.oss-cn-beijing.aliyuncs.com/2022_07/D1657029351169.mp4\",\"images\":[\"https://wm-auction-1.oss-cn-beijing.aliyuncs.com/2022_07/D1657029347789.png\"],\"tags\":[],\"fbxUrl\":\"\",\"detail\":\"<p><img src=\\\"https://v2.cdwami.com:666/CMS/1/202207/img/20220705215601342.png\\\"></p>\"}","deliveryTick":0,"source":1,"goodsProduct":{"pid":"573978134655224746","className":"爱国拥军","productInfo":"{\"video\":\"https://wm-auction-1.oss-cn-beijing.aliyuncs.com/2022_07/D1657029351169.mp4\",\"images\":[\"https://wm-auction-1.oss-cn-beijing.aliyuncs.com/2022_07/D1657029347789.png\"],\"tags\":[],\"fbxUrl\":\"\",\"detail\":\"<p><img src=\\\"https://v2.cdwami.com:666/CMS/1/202207/img/20220705215601342.png\\\"></p>\"}","totalCount":"0","authorId":"409735638338764801","authorName":"低傲","authorImg":"https://wm-auction-1.oss-cn-beijing.aliyuncs.com/2022_07/D1656988648606.png","publisherName":"低傲","sellTick":"1657072800"}},"tokenNum":"","goodsSource":1,"sellerBzj":0.00,"countDown":56257400,"buyerUid":"0","isInBid":"0","topuserid":null,"deliveryTime":0},{"id":"534583962230571153","num":"53907704","dataStatus":2,"auctionType":1,"auctionStartTick":1659342700,"auctionTick":1664526691,"endTick":1664526691,"startPrice":1.00,"maxPrice":3.00,"nowPrice":1.00,"auctionGoods":{"id":"505939072924989307","cid":"579246700726478200","classInfo":null,"goodsType":"1","mainNetNum":3,"mainNetName":"低傲","contractAddr":"0xB869E9BEF553030F3200D3eB9E049Ed4968D4584","goodsKey":"7674","goodsName":"藏","goodsInfo":"{\"video\":\"https://v2.cdwami.com:666/CMS/1/202206/video/20220617194811696.mp4\",\"images\":[\"https://v2.cdwami.com:666/CMS/1/202206/img/20220617194801848.jpg\"],\"tags\":[],\"detail\":\"<p><img src=\\\"https://v2.cdwami.com:666/CMS/1/202206/img/20220617194823278.jpg\\\"></p>\"}","deliveryTick":0,"source":1,"goodsProduct":{"pid":"579246700726478200","className":"低傲数藏","productInfo":"{\"video\":\"https://v2.cdwami.com:666/CMS/1/202206/video/20220617194811696.mp4\",\"images\":[\"https://v2.cdwami.com:666/CMS/1/202206/img/20220617194801848.jpg\"],\"tags\":[],\"detail\":\"<p><img src=\\\"https://v2.cdwami.com:666/CMS/1/202206/img/20220617194823278.jpg\\\"></p>\"}","totalCount":"0","authorId":"409735638338764801","authorName":"低傲","authorImg":"https://v2.cdwami.com:666/CMS/1/202206/img/20220617194729218.png","publisherName":"低傲","sellTick":"1655308800"}},"tokenNum":"","goodsSource":1,"sellerBzj":0.00,"countDown":3530695,"buyerUid":"0","isInBid":"0","topuserid":null,"deliveryTime":0},{"id":"536227252511264499","num":"51492004","dataStatus":2,"auctionType":1,"auctionStartTick":1659192856,"auctionTick":1717253627,"endTick":1717253627,"startPrice":1.00,"maxPrice":99.00,"nowPrice":1.00,"auctionGoods":{"id":"569292775587840184","cid":"573978134655224746","classInfo":null,"goodsType":"1","mainNetNum":3,"mainNetName":"低傲","contractAddr":"0xcF0076c9af189f2b7054be86c05b2353Db5E6795","goodsKey":"12393","goodsName":"军","goodsInfo":"{\"video\":\"https://wm-auction-1.oss-cn-beijing.aliyuncs.com/2022_07/D1657029351169.mp4\",\"images\":[\"https://wm-auction-1.oss-cn-beijing.aliyuncs.com/2022_07/D1657029347789.png\"],\"tags\":[],\"fbxUrl\":\"\",\"detail\":\"<p><img src=\\\"https://v2.cdwami.com:666/CMS/1/202207/img/20220705215601342.png\\\"></p>\"}","deliveryTick":0,"source":1,"goodsProduct":{"pid":"573978134655224746","className":"爱国拥军","productInfo":"{\"video\":\"https://wm-auction-1.oss-cn-beijing.aliyuncs.com/2022_07/D1657029351169.mp4\",\"images\":[\"https://wm-auction-1.oss-cn-beijing.aliyuncs.com/2022_07/D1657029347789.png\"],\"tags\":[],\"fbxUrl\":\"\",\"detail\":\"<p><img src=\\\"https://v2.cdwami.com:666/CMS/1/202207/img/20220705215601342.png\\\"></p>\"}","totalCount":"0","authorId":"409735638338764801","authorName":"低傲","authorImg":"https://wm-auction-1.oss-cn-beijing.aliyuncs.com/2022_07/D1656988648606.png","publisherName":"低傲","sellTick":"1657072800"}},"tokenNum":"","goodsSource":1,"sellerBzj":0.00,"countDown":56257609,"buyerUid":"0","isInBid":"0","topuserid":null,"deliveryTime":0},{"id":"540406125000809723","num":"52406969","dataStatus":2,"auctionType":1,"auctionStartTick":1659308719,"auctionTick":1664492710,"endTick":1664492710,"startPrice":1.00,"maxPrice":3.00,"nowPrice":1.00,"auctionGoods":{"id":"538389138640372134","cid":"541441265330316778","classInfo":null,"goodsType":"1","mainNetNum":3,"mainNetName":"低傲","contractAddr":"0x36eBA6137865fbF9E4aa3786889901efD1FcC89B","goodsKey":"6111","goodsName":"数","goodsInfo":"{\"video\":\"https://v2.cdwami.com:666/CMS/1/202206/video/20220617194533205.mp4\",\"images\":[\"https://v2.cdwami.com:666/CMS/1/202206/img/20220617194523864.jpg\"],\"tags\":[],\"detail\":\"<p><img src=\\\"https://v2.cdwami.com:666/CMS/1/202206/img/20220617194541643.jpg\\\"></p>\"}","deliveryTick":0,"source":1,"goodsProduct":{"pid":"541441265330316778","className":"低傲数藏","productInfo":"{\"video\":\"https://v2.cdwami.com:666/CMS/1/202206/video/20220617194533205.mp4\",\"images\":[\"https://v2.cdwami.com:666/CMS/1/202206/img/20220617194523864.jpg\"],\"tags\":[],\"detail\":\"<p><img src=\\\"https://v2.cdwami.com:666/CMS/1/202206/img/20220617194541643.jpg\\\"></p>\"}","totalCount":"0","authorId":"409735638338764801","authorName":"低傲","authorImg":"https://v2.cdwami.com:666/CMS/1/202206/img/20220617194443356.png","publisherName":"低傲","sellTick":"1655308800"}},"tokenNum":"","goodsSource":1,"sellerBzj":0.00,"countDown":3496649,"buyerUid":"0","isInBid":"0","topuserid":null,"deliveryTime":0}],"msg":"ok","code":"","data":null}
接口响应时长: 0.085677 s
Http状态码: 200
断言方式：相等
期望结果：10
实际结果：[10]
>>==============================第28条用例执行完毕=======================================>>