INFO     root:logDecoratorl.py:39 
>>===============================正在执行第5条用例======================================>>
测试标题: 获取竞拍列表第一页是否成功
请求方式: post
请求头:   {'accesstoken': '3fa809f4a86a28dce8ef67cd347de193', 'timespan': '1661138298', 'TOKEN': '86AF2DC047BB1C1853DA37D4486B24DD8148D45D3915D46FB6746CD2110752DB22D648E8E5B29660D2E9BD0C6FF9EAFE7381CC53D7C7934D626CB9003E6BBE4345008A158FE66B77D46CB9CB369464CC'}
请求路径: http://110.80.137.11:8059/auction/PageList
传参方式： json
请求内容: {"platFormId":"0","source":0,"pageSize":10,"pageIndex":1,"order":1,"searchParm":"","pid":""}
依赖测试用例: 暂无依赖用例数据
接口响应内容: {"success":true,"pageCount":176,"totalCount":1754,"pageSize":10,"pageIndex":1,"list":[{"id":"525587045560200648","num":"","dataStatus":2,"auctionType":1,"auctionStartTick":1660095535,"auctionTick":2145888124,"endTick":2145888124,"startPrice":100.00,"maxPrice":500.00,"nowPrice":100.00,"auctionGoods":{"id":"578779415338024837","cid":"0","classInfo":"","goodsType":"0","mainNetNum":2,"mainNetName":"幻核","contractAddr":"0","goodsKey":"","goodsName":"123","goodsInfo":"{\"images\":[\"https://wm-auction-1.oss-cn-beijing.aliyuncs.com/D_1660095127277_1f71679b-3a31-4072-89b5-0c259c8a817b\"]}","deliveryTick":0,"source":2,"goodsProduct":null},"tokenNum":"","goodsSource":2,"sellerBzj":100.00,"countDown":484892456,"buyerUid":"0","isInBid":"0","topuserid":null,"deliveryTime":0},{"id":"502328996636346379","num":"52715232","dataStatus":2,"auctionType":1,"auctionStartTick":1658976578,"auctionTick":1661309333,"endTick":1661309460,"startPrice":320.00,"maxPrice":430.00,"nowPrice":320.00,"auctionGoods":{"id":"410441306968555623","cid":"410169777273700354","classInfo":null,"goodsType":"1","mainNetNum":3,"mainNetName":"低傲","contractAddr":"0x66aD5311570Af7eE7073A9e9b61c6AB9F1197F26","goodsKey":"1503","goodsName":"元宇宙五行-土","goodsInfo":"{\"video\":\"https://wm-auction-1.oss-cn-beijing.aliyuncs.com/2022_06/D1654094352404_video.mp4\",\"images\":[\"https://wm-auction-1.oss-cn-beijing.aliyuncs.com/2022_06/D1654094347717_img.jpg\"],\"detail\":\"<p><img src=\\\"https://wm-auction-1.oss-cn-beijing.aliyuncs.com/2022_06/D1654095223574_tu_detail.jpg\\\"></p>\",\"tags\":[\"\"],\"totalCount\":\"2999\"}","deliveryTick":0,"source":1,"goodsProduct":{"pid":"410169777273700354","className":"元宇宙五行","productInfo":"{\"video\":\"https://wm-auction-1.oss-cn-beijing.aliyuncs.com/2022_06/D1654094352404_video.mp4\",\"images\":[\"https://wm-auction-1.oss-cn-beijing.aliyuncs.com/2022_06/D1654094347717_img.jpg\"],\"detail\":\"<p><img src=\\\"https://wm-auction-1.oss-cn-beijing.aliyuncs.com/2022_06/D1654095223574_tu_detail.jpg\\\"></p>\",\"tags\":[\"\"],\"totalCount\":\"2999\"}","totalCount":"2899","authorId":"409735638338764801","authorName":"低傲","authorImg":"https://wm-auction-1.oss-cn-beijing.aliyuncs.com/2022_05/D1653751067011_飞书20220528-231648.png","publisherName":"低傲","sellTick":"1654171680"}},"tokenNum":"","goodsSource":1,"sellerBzj":0.00,"countDown":313690,"buyerUid":"0","isInBid":"0","topuserid":null,"deliveryTime":0},{"id":"511340933715300872","num":"","dataStatus":2,"auctionType":1,"auctionStartTick":1658800944,"auctionTick":1690336761,"endTick":1690336761,"startPrice":56.00,"maxPrice":168.00,"nowPrice":56.00,"auctionGoods":{"id":"511340933715300872","cid":"0","classInfo":"","goodsType":"0","mainNetNum":1,"mainNetName":"鲸探","contractAddr":"0","goodsKey":"","goodsName":"喜洋洋","goodsInfo":"{\"images\":[\"https://wm-auction-1.oss-cn-beijing.aliyuncs.com/D_1658800776517_1658800776374_Screenshot_20220725_204708.jpg\"]}","deliveryTick":0,"source":2,"goodsProduct":null},"tokenNum":"","goodsSource":2,"sellerBzj":100.00,"countDown":29341026,"buyerUid":"0","isInBid":"0","topuserid":null,"deliveryTime":0},{"id":"512556480036055563","num":"","dataStatus":2,"auctionType":1,"auctionStartTick":1659367511,"auctionTick":2145888000,"endTick":2145888000,"startPrice":200.00,"maxPrice":210.00,"nowPrice":200.00,"auctionGoods":{"id":"592970970377137417","cid":"0","classInfo":"","goodsType":"0","mainNetNum":1,"mainNetName":"鲸探","contractAddr":"0","goodsKey":"","goodsName":"水运仪象台  上海天文馆陈列  精细度很高 收藏佳品","goodsInfo":"{\"images\":[\"https://wm-auction-1.oss-cn-beijing.aliyuncs.com/D_1659367373088_1659367372128_mmexport1659367330930.png\",\"https://wm-auction-1.oss-cn-beijing.aliyuncs.com/D_1659367373107_1659367372890_mmexport1659367332137.jpg\"]}","deliveryTick":0,"source":2,"goodsProduct":null},"tokenNum":"","goodsSource":2,"sellerBzj":100.00,"countDown":484892250,"buyerUid":"0","isInBid":"0","topuserid":null,"deliveryTime":0},{"id":"513984189967428270","num":"","dataStatus":2,"auctionType":1,"auctionStartTick":1659418729,"auctionTick":2145888000,"endTick":2145888000,"startPrice":130.00,"maxPrice":140.00,"nowPrice":130.00,"auctionGoods":{"id":"510237724468727056","cid":"0","classInfo":"","goodsType":"0","mainNetNum":1,"mainNetName":"鲸探","contractAddr":"0","goodsKey":"","goodsName":"鲸探天猫未来元宇宙618衣服  戏  3d","goodsInfo":"{\"images\":[\"https://wm-auction-1.oss-cn-beijing.aliyuncs.com/D_1659417391920_1659417391396_1659416241351_100.PNG\"]}","deliveryTick":0,"source":2,"goodsProduct":null},"tokenNum":"","goodsSource":2,"sellerBzj":100.00,"countDown":484892233,"buyerUid":"0","isInBid":"0","topuserid":null,"deliveryTime":0},{"id":"515837517618540756","num":"","dataStatus":2,"auctionType":1,"auctionStartTick":1659187016,"auctionTick":2145888000,"endTick":2145888000,"startPrice":55.00,"maxPrice":88.00,"nowPrice":55.00,"auctionGoods":{"id":"509821044300382815","cid":"0","classInfo":"","goodsType":"0","mainNetNum":1,"mainNetName":"鲸探","contractAddr":"0","goodsKey":"","goodsName":"抱抱","goodsInfo":"{\"images\":[\"https://wm-auction-1.oss-cn-beijing.aliyuncs.com/D_1659186490140_1659186489886_Screenshot_2022-07-28-15-52-22-87_bfe3d3c622cd1dd22d0bf1b6c8f79ecf.jpg\"]}","deliveryTick":0,"source":2,"goodsProduct":null},"tokenNum":"","goodsSource":2,"sellerBzj":100.00,"countDown":484892218,"buyerUid":"0","isInBid":"0","topuserid":null,"deliveryTime":0},{"id":"516987123913651376","num":"","dataStatus":2,"auctionType":1,"auctionStartTick":1659009277,"auctionTick":2145888000,"endTick":2145888000,"startPrice":100.00,"maxPrice":128.00,"nowPrice":100.00,"auctionGoods":{"id":"543660900251694742","cid":"0","classInfo":"","goodsType":"0","mainNetNum":12,"mainNetName":"百度","contractAddr":"0","goodsKey":"","goodsName":"小度领航员","goodsInfo":"{\"images\":[\"https://wm-auction-1.oss-cn-beijing.aliyuncs.com/D_1659008848697_1659008848501_IMG_20220722_224126.jpg\"]}","deliveryTick":0,"source":2,"goodsProduct":null},"tokenNum":"","goodsSource":2,"sellerBzj":100.00,"countDown":484892202,"buyerUid":"0","isInBid":"0","topuserid":null,"deliveryTime":0},{"id":"518426779502290787","num":"","dataStatus":2,"auctionType":1,"auctionStartTick":1658994848,"auctionTick":2145888000,"endTick":2145888000,"startPrice":380.00,"maxPrice":400.00,"nowPrice":380.00,"auctionGoods":{"id":"544635653631514311","cid":"0","classInfo":"","goodsType":"0","mainNetNum":10,"mainNetName":"头号藏品","contractAddr":"0","goodsKey":"0","goodsName":"神兽青铜纹镜","goodsInfo":"{\"images\":[\"https://wm-auction-1.oss-cn-beijing.aliyuncs.com/D_1657687542980_1657687542821_Screenshot_2022-07-13-12-45-34-12_02d9bc82a703d1840359c97f68b9fea6.jpg\"]}","deliveryTick":0,"source":2,"goodsProduct":null},"tokenNum":"","goodsSource":2,"sellerBzj":100.00,"countDown":484892185,"buyerUid":"0","isInBid":"0","topuserid":null,"deliveryTime":0},{"id":"519120322845217852","num":"","dataStatus":2,"auctionType":1,"auctionStartTick":1659537961,"auctionTick":2145888000,"endTick":2145888000,"startPrice":78.00,"maxPrice":98.00,"nowPrice":78.00,"auctionGoods":{"id":"579876979137917654","cid":"0","classInfo":"","goodsType":"0","mainNetNum":1,"mainNetName":"鲸探","contractAddr":"0","goodsKey":"","goodsName":"阳陵虎符","goodsInfo":"{\"images\":[\"https://wm-auction-1.oss-cn-beijing.aliyuncs.com/D_1659536170898_b78ce096-b530-416c-a38f-10be6792df4b\"]}","deliveryTick":0,"source":2,"goodsProduct":null},"tokenNum":"","goodsSource":2,"sellerBzj":100.00,"countDown":484892180,"buyerUid":"0","isInBid":"0","topuserid":null,"deliveryTime":0},{"id":"519932504404237639","num":"","dataStatus":2,"auctionType":1,"auctionStartTick":1659278201,"auctionTick":2145888000,"endTick":2145888000,"startPrice":15.00,"maxPrice":25.00,"nowPrice":15.00,"auctionGoods":{"id":"518578236545054307","cid":"0","classInfo":"","goodsType":"0","mainNetNum":10228,"mainNetName":"百度超级链","contractAddr":"0","goodsKey":"","goodsName":"Apollo Next家族（有转赠劵）","goodsInfo":"{\"images\":[\"https://wm-auction-1.oss-cn-beijing.aliyuncs.com/D_1659278044162_1659278044011_Screenshot_20220731_221641.jpg\"]}","deliveryTick":0,"source":2,"goodsProduct":null},"tokenNum":"","goodsSource":2,"sellerBzj":100.00,"countDown":484892170,"buyerUid":"0","isInBid":"0","topuserid":null,"deliveryTime":0}],"msg":"ok","code":"","data":null}
接口响应时长: 0.081734 s
Http状态码: 200
断言方式：相等
期望结果：10
实际结果：[10]
>>==============================第5条用例执行完毕=======================================>>