INFO     root:logDecoratorl.py:39 
>>===============================正在执行第3条用例======================================>>
测试标题: 获取按最近上架排序是否成功
请求方式: post
请求头:   {'accesstoken': '41324522f6db31240afe1ee4d7030fa4', 'timespan': '1660813082', 'TOKEN': '86AF2DC047BB1C1853DA37D4486B24DDB061DB08A2044CBA1B5F520F38081D1026A630AC6C1F7C24AD0FEF27B821AF9E1E7E2FAB668575B92FE968A4EA9F3227A6496BEF012D4236CE199BCF45E32D98'}
请求路径: http://110.80.137.11:8051/auction/PageList
传参方式： json
请求内容: {"platFormId":"0","source":0,"pageSize":10,"pageIndex":1,"order":3,"searchParm":"","pid":""}
依赖测试用例: 暂无依赖用例数据
接口响应内容: {"success":true,"pageCount":196,"totalCount":1951,"pageSize":10,"pageIndex":1,"list":[{"id":"573794724507586104","num":"","dataStatus":2,"auctionType":1,"auctionStartTick":1660640919,"auctionTick":2145888000,"endTick":2145888000,"startPrice":500.00,"maxPrice":3000.00,"nowPrice":500.00,"auctionGoods":{"id":"516941843528291325","cid":"0","classInfo":"","goodsType":"0","mainNetNum":2,"mainNetName":"幻核","contractAddr":"0","goodsKey":"","goodsName":"2222222222222222","goodsInfo":"{\"images\":[\"https://wm-auction-1.oss-cn-beijing.aliyuncs.com/D_1660640870209_029f53e2-b79a-42a8-8911-de07c6ebf12f\"]}","deliveryTick":0,"source":2,"goodsProduct":null},"tokenNum":"","goodsSource":2,"sellerBzj":100.00,"countDown":485176019,"buyerUid":"0","isInBid":"0","topuserid":null,"deliveryTime":0},{"id":"500367423218700831","num":"55933444","dataStatus":2,"auctionType":1,"auctionStartTick":1660636891,"auctionTick":2145888000,"endTick":2145888000,"startPrice":11.00,"maxPrice":66.00,"nowPrice":11.00,"auctionGoods":{"id":"410266462373019749","cid":"410174510428323842","classInfo":null,"goodsType":"1","mainNetNum":3,"mainNetName":"低傲","contractAddr":"0xd0AB89c24e8509c318640873171242aEB39822bd","goodsKey":"635","goodsName":"童心“控”","goodsInfo":"{\"series\":\"童年\"}","deliveryTick":0,"source":1,"goodsProduct":{"pid":"410174510428323842","className":"童年","productInfo":"{\"video\":\"https://wm-auction-1.oss-cn-beijing.aliyuncs.com/2022_05/D1654012627214_kong.mp4\",\"images\":[\"https://wm-auction-1.oss-cn-beijing.aliyuncs.com/2022_05/D1654012622859_kong_1.png\"],\"detail\":\"<p><img src=\\\"https://wm-auction-1.oss-cn-beijing.aliyuncs.com/2022_05/D1654012632763_kong_img.png\\\"></p>\",\"tags\":[],\"totalCount\":\"1500\"}","totalCount":"1500","authorId":"409735638338764801","authorName":"低傲","authorImg":"https://wm-auction-1.oss-cn-beijing.aliyuncs.com/2022_05/D1653751067011_飞书20220528-231648.png","publisherName":"低傲","sellTick":"1654067280"}},"tokenNum":"","goodsSource":1,"sellerBzj":0.00,"countDown":485176929,"buyerUid":"0","isInBid":"0","topuserid":null,"deliveryTime":0},{"id":"519306704827371364","num":"","dataStatus":2,"auctionType":1,"auctionStartTick":1660095543,"auctionTick":2145888000,"endTick":2145888000,"startPrice":21.00,"maxPrice":188.00,"nowPrice":21.00,"auctionGoods":{"id":"599365354785439273","cid":"0","classInfo":"","goodsType":"0","mainNetNum":10021,"mainNetName":"数元meta","contractAddr":"0","goodsKey":"","goodsName":"BAIBAI","goodsInfo":"{\"images\":[\"https://wm-auction-1.oss-cn-beijing.aliyuncs.com/D_1658562942482_aded2e74-05b3-48e9-ae2f-e3bb4bb23cf2\"]}","deliveryTick":0,"source":2,"goodsProduct":null},"tokenNum":"","goodsSource":2,"sellerBzj":100.00,"countDown":485176694,"buyerUid":"0","isInBid":"0","topuserid":null,"deliveryTime":0},{"id":"560840064529829224","num":"","dataStatus":2,"auctionType":1,"auctionStartTick":1660095542,"auctionTick":2145888000,"endTick":2145888000,"startPrice":12.00,"maxPrice":100.00,"nowPrice":12.00,"auctionGoods":{"id":"594539249484538372","cid":"0","classInfo":"","goodsType":"0","mainNetNum":10021,"mainNetName":"数元meta","contractAddr":"0","goodsKey":"","goodsName":"BAIBAI","goodsInfo":"{\"images\":[\"https://wm-auction-1.oss-cn-beijing.aliyuncs.com/D_1658562942482_aded2e74-05b3-48e9-ae2f-e3bb4bb23cf2\"]}","deliveryTick":0,"source":2,"goodsProduct":null},"tokenNum":"","goodsSource":2,"sellerBzj":100.00,"countDown":485176182,"buyerUid":"0","isInBid":"0","topuserid":null,"deliveryTime":0},{"id":"512370960685790536","num":"","dataStatus":2,"auctionType":1,"auctionStartTick":1660095541,"auctionTick":2145888000,"endTick":2145888000,"startPrice":91.00,"maxPrice":888.00,"nowPrice":91.00,"auctionGoods":{"id":"592756396870136276","cid":"0","classInfo":"","goodsType":"0","mainNetNum":10021,"mainNetName":"数元meta","contractAddr":"0","goodsKey":"","goodsName":"BAIBAI","goodsInfo":"{\"images\":[\"https://wm-auction-1.oss-cn-beijing.aliyuncs.com/D_1658562942482_aded2e74-05b3-48e9-ae2f-e3bb4bb23cf2\"]}","deliveryTick":0,"source":2,"goodsProduct":null},"tokenNum":"","goodsSource":2,"sellerBzj":100.00,"countDown":485176782,"buyerUid":"0","isInBid":"0","topuserid":null,"deliveryTime":0},{"id":"599359832291371672","num":"","dataStatus":2,"auctionType":1,"auctionStartTick":1660095540,"auctionTick":2145888000,"endTick":2145888000,"startPrice":21.00,"maxPrice":188.00,"nowPrice":21.00,"auctionGoods":{"id":"592541193802836411","cid":"0","classInfo":"","goodsType":"0","mainNetNum":10021,"mainNetName":"数元meta","contractAddr":"0","goodsKey":"","goodsName":"BAIBAI","goodsInfo":"{\"images\":[\"https://wm-auction-1.oss-cn-beijing.aliyuncs.com/D_1658562942482_aded2e74-05b3-48e9-ae2f-e3bb4bb23cf2\"]}","deliveryTick":0,"source":2,"goodsProduct":null},"tokenNum":"","goodsSource":2,"sellerBzj":100.00,"countDown":485175714,"buyerUid":"0","isInBid":"0","topuserid":null,"deliveryTime":0},{"id":"547535848342017754","num":"","dataStatus":2,"auctionType":1,"auctionStartTick":1660095538,"auctionTick":2145888000,"endTick":2145888000,"startPrice":71.00,"maxPrice":688.00,"nowPrice":71.00,"auctionGoods":{"id":"587976082946395365","cid":"0","classInfo":"","goodsType":"0","mainNetNum":10021,"mainNetName":"数元meta","contractAddr":"0","goodsKey":"","goodsName":"BAIBAI","goodsInfo":"{\"images\":[\"https://wm-auction-1.oss-cn-beijing.aliyuncs.com/D_1658562942482_aded2e74-05b3-48e9-ae2f-e3bb4bb23cf2\"]}","deliveryTick":0,"source":2,"goodsProduct":null},"tokenNum":"","goodsSource":2,"sellerBzj":100.00,"countDown":485176340,"buyerUid":"0","isInBid":"0","topuserid":null,"deliveryTime":0},{"id":"513657117984088014","num":"","dataStatus":2,"auctionType":1,"auctionStartTick":1660095537,"auctionTick":2145888000,"endTick":2145888000,"startPrice":71.00,"maxPrice":688.00,"nowPrice":71.00,"auctionGoods":{"id":"587685659757440496","cid":"0","classInfo":"","goodsType":"0","mainNetNum":10021,"mainNetName":"数元meta","contractAddr":"0","goodsKey":"","goodsName":"BAIBAI","goodsInfo":"{\"images\":[\"https://wm-auction-1.oss-cn-beijing.aliyuncs.com/D_1658562942482_aded2e74-05b3-48e9-ae2f-e3bb4bb23cf2\"]}","deliveryTick":0,"source":2,"goodsProduct":null},"tokenNum":"","goodsSource":2,"sellerBzj":100.00,"countDown":485176766,"buyerUid":"0","isInBid":"0","topuserid":null,"deliveryTime":0},{"id":"572241145648425516","num":"","dataStatus":2,"auctionType":1,"auctionStartTick":1660095536,"auctionTick":2145888000,"endTick":2145888250,"startPrice":21.00,"maxPrice":188.00,"nowPrice":21.00,"auctionGoods":{"id":"587390722951693412","cid":"0","classInfo":"","goodsType":"0","mainNetNum":10021,"mainNetName":"数元meta","contractAddr":"0","goodsKey":"","goodsName":"BAIBAI","goodsInfo":"{\"images\":[\"https://wm-auction-1.oss-cn-beijing.aliyuncs.com/D_1658562942482_aded2e74-05b3-48e9-ae2f-e3bb4bb23cf2\"]}","deliveryTick":0,"source":2,"goodsProduct":null},"tokenNum":"","goodsSource":2,"sellerBzj":100.00,"countDown":485176045,"buyerUid":"0","isInBid":"0","topuserid":null,"deliveryTime":0},{"id":"525587045560200648","num":"","dataStatus":2,"auctionType":1,"auctionStartTick":1660095535,"auctionTick":2145888000,"endTick":2145888000,"startPrice":100.00,"maxPrice":500.00,"nowPrice":100.00,"auctionGoods":{"id":"578779415338024837","cid":"0","classInfo":"","goodsType":"0","mainNetNum":2,"mainNetName":"幻核","contractAddr":"0","goodsKey":"","goodsName":"123","goodsInfo":"{\"images\":[\"https://wm-auction-1.oss-cn-beijing.aliyuncs.com/D_1660095127277_1f71679b-3a31-4072-89b5-0c259c8a817b\"]}","deliveryTick":0,"source":2,"goodsProduct":null},"tokenNum":"","goodsSource":2,"sellerBzj":100.00,"countDown":485176616,"buyerUid":"0","isInBid":"0","topuserid":null,"deliveryTime":0}],"msg":"ok","code":"","data":null}
接口响应时长: 0.083243 s
Http状态码: 200
断言方式：相等
期望结果：10
实际结果：[10]
>>==============================第3条用例执行完毕=======================================>>