INFO     root:logDecoratorl.py:39 
>>===============================正在执行第3条用例======================================>>
测试标题: 获取按剩余时间排序是否成功
请求方式: post
请求头:   {'accesstoken': 'fcaccf868ac55cab8617fd496f7f27c4', 'timespan': '1660816329', 'TOKEN': '86AF2DC047BB1C1853DA37D4486B24DDB061DB08A2044CBA1B5F520F38081D10B4F625603662E02A2AEA7053B8BBA7211E7E2FAB668575B92FE968A4EA9F3227A6496BEF012D4236CE199BCF45E32D98'}
请求路径: http://110.80.137.11:8051/auction/PageList
传参方式： json
请求内容: {"platFormId":"0","source":0,"pageSize":10,"pageIndex":1,"order":2,"searchParm":"","pid":""}
依赖测试用例: 暂无依赖用例数据
接口响应内容: {"success":true,"pageCount":195,"totalCount":1945,"pageSize":10,"pageIndex":1,"list":[{"id":"540336619289415082","num":"52574963","dataStatus":2,"auctionType":1,"auctionStartTick":1659617635,"auctionTick":1660827227,"endTick":1660827227,"startPrice":1.00,"maxPrice":3.00,"nowPrice":1.00,"auctionGoods":{"id":"596064620590809248","cid":"518720465633550411","classInfo":null,"goodsType":"1","mainNetNum":3,"mainNetName":"低傲","contractAddr":"0x5fF97c0435e9B3D2BbF48f6f665fE3DD01F5341f","goodsKey":"3858","goodsName":"拥","goodsInfo":"{\"video\":\"https://wm-auction-1.oss-cn-beijing.aliyuncs.com/2022_07/D1657029315810.mp4\",\"images\":[\"https://wm-auction-1.oss-cn-beijing.aliyuncs.com/2022_07/D1657029312488.png\"],\"tags\":[],\"fbxUrl\":\"\",\"detail\":\"<p><img src=\\\"https://v2.cdwami.com:666/CMS/1/202207/img/20220705215522172.png\\\"></p>\"}","deliveryTick":0,"source":1,"goodsProduct":{"pid":"518720465633550411","className":"爱国拥军","productInfo":"{\"video\":\"https://wm-auction-1.oss-cn-beijing.aliyuncs.com/2022_07/D1657029315810.mp4\",\"images\":[\"https://wm-auction-1.oss-cn-beijing.aliyuncs.com/2022_07/D1657029312488.png\"],\"tags\":[],\"fbxUrl\":\"\",\"detail\":\"<p><img src=\\\"https://v2.cdwami.com:666/CMS/1/202207/img/20220705215522172.png\\\"></p>\"}","totalCount":"0","authorId":"409735638338764801","authorName":"低傲","authorImg":"https://wm-auction-1.oss-cn-beijing.aliyuncs.com/2022_07/D1656988563713.png","publisherName":"低傲","sellTick":"1657072800"}},"tokenNum":"","goodsSource":1,"sellerBzj":0.00,"countDown":12369,"buyerUid":"0","isInBid":"0","topuserid":null,"deliveryTime":0},{"id":"586295386560958282","num":"58893592","dataStatus":2,"auctionType":1,"auctionStartTick":1659617925,"auctionTick":1660827517,"endTick":1660827517,"startPrice":1.00,"maxPrice":3.00,"nowPrice":1.00,"auctionGoods":{"id":"582275441976914259","cid":"518720465633550411","classInfo":null,"goodsType":"1","mainNetNum":3,"mainNetName":"低傲","contractAddr":"0x5fF97c0435e9B3D2BbF48f6f665fE3DD01F5341f","goodsKey":"3860","goodsName":"拥","goodsInfo":"{\"video\":\"https://wm-auction-1.oss-cn-beijing.aliyuncs.com/2022_07/D1657029315810.mp4\",\"images\":[\"https://wm-auction-1.oss-cn-beijing.aliyuncs.com/2022_07/D1657029312488.png\"],\"tags\":[],\"fbxUrl\":\"\",\"detail\":\"<p><img src=\\\"https://v2.cdwami.com:666/CMS/1/202207/img/20220705215522172.png\\\"></p>\"}","deliveryTick":0,"source":1,"goodsProduct":{"pid":"518720465633550411","className":"爱国拥军","productInfo":"{\"video\":\"https://wm-auction-1.oss-cn-beijing.aliyuncs.com/2022_07/D1657029315810.mp4\",\"images\":[\"https://wm-auction-1.oss-cn-beijing.aliyuncs.com/2022_07/D1657029312488.png\"],\"tags\":[],\"fbxUrl\":\"\",\"detail\":\"<p><img src=\\\"https://v2.cdwami.com:666/CMS/1/202207/img/20220705215522172.png\\\"></p>\"}","totalCount":"0","authorId":"409735638338764801","authorName":"低傲","authorImg":"https://wm-auction-1.oss-cn-beijing.aliyuncs.com/2022_07/D1656988563713.png","publisherName":"低傲","sellTick":"1657072800"}},"tokenNum":"","goodsSource":1,"sellerBzj":0.00,"countDown":12546,"buyerUid":"0","isInBid":"0","topuserid":null,"deliveryTime":0},{"id":"585083781137429324","num":"54087709","dataStatus":2,"auctionType":1,"auctionStartTick":1659618197,"auctionTick":1660827789,"endTick":1660827789,"startPrice":1.00,"maxPrice":3.00,"nowPrice":1.00,"auctionGoods":{"id":"587167104247260072","cid":"541441265330316778","classInfo":null,"goodsType":"1","mainNetNum":3,"mainNetName":"低傲","contractAddr":"0x36eBA6137865fbF9E4aa3786889901efD1FcC89B","goodsKey":"27174","goodsName":"数","goodsInfo":"{\"video\":\"https://v2.cdwami.com:666/CMS/1/202206/video/20220617194533205.mp4\",\"images\":[\"https://v2.cdwami.com:666/CMS/1/202206/img/20220617194523864.jpg\"],\"tags\":[],\"detail\":\"<p><img src=\\\"https://v2.cdwami.com:666/CMS/1/202206/img/20220617194541643.jpg\\\"></p>\"}","deliveryTick":0,"source":1,"goodsProduct":{"pid":"541441265330316778","className":"低傲数藏","productInfo":"{\"video\":\"https://v2.cdwami.com:666/CMS/1/202206/video/20220617194533205.mp4\",\"images\":[\"https://v2.cdwami.com:666/CMS/1/202206/img/20220617194523864.jpg\"],\"tags\":[],\"detail\":\"<p><img src=\\\"https://v2.cdwami.com:666/CMS/1/202206/img/20220617194541643.jpg\\\"></p>\"}","totalCount":"0","authorId":"409735638338764801","authorName":"低傲","authorImg":"https://v2.cdwami.com:666/CMS/1/202206/img/20220617194443356.png","publisherName":"低傲","sellTick":"1655308800"}},"tokenNum":"","goodsSource":1,"sellerBzj":0.00,"countDown":12817,"buyerUid":"0","isInBid":"0","topuserid":null,"deliveryTime":0},{"id":"509558602342038166","num":"55406139","dataStatus":2,"auctionType":1,"auctionStartTick":1659618226,"auctionTick":1660827818,"endTick":1660827818,"startPrice":1.00,"maxPrice":3.00,"nowPrice":1.00,"auctionGoods":{"id":"540688532033346692","cid":"541441265330316778","classInfo":null,"goodsType":"1","mainNetNum":3,"mainNetName":"低傲","contractAddr":"0x36eBA6137865fbF9E4aa3786889901efD1FcC89B","goodsKey":"2009","goodsName":"数","goodsInfo":"{\"video\":\"https://v2.cdwami.com:666/CMS/1/202206/video/20220617194533205.mp4\",\"images\":[\"https://v2.cdwami.com:666/CMS/1/202206/img/20220617194523864.jpg\"],\"tags\":[],\"detail\":\"<p><img src=\\\"https://v2.cdwami.com:666/CMS/1/202206/img/20220617194541643.jpg\\\"></p>\"}","deliveryTick":0,"source":1,"goodsProduct":{"pid":"541441265330316778","className":"低傲数藏","productInfo":"{\"video\":\"https://v2.cdwami.com:666/CMS/1/202206/video/20220617194533205.mp4\",\"images\":[\"https://v2.cdwami.com:666/CMS/1/202206/img/20220617194523864.jpg\"],\"tags\":[],\"detail\":\"<p><img src=\\\"https://v2.cdwami.com:666/CMS/1/202206/img/20220617194541643.jpg\\\"></p>\"}","totalCount":"0","authorId":"409735638338764801","authorName":"低傲","authorImg":"https://v2.cdwami.com:666/CMS/1/202206/img/20220617194443356.png","publisherName":"低傲","sellTick":"1655308800"}},"tokenNum":"","goodsSource":1,"sellerBzj":0.00,"countDown":13332,"buyerUid":"0","isInBid":"0","topuserid":null,"deliveryTime":0},{"id":"581632931405432675","num":"57882381","dataStatus":2,"auctionType":1,"auctionStartTick":1659618295,"auctionTick":1660827888,"endTick":1660827888,"startPrice":1.00,"maxPrice":3.00,"nowPrice":1.00,"auctionGoods":{"id":"510896509597966161","cid":"579246700726478200","classInfo":null,"goodsType":"1","mainNetNum":3,"mainNetName":"低傲","contractAddr":"0xB869E9BEF553030F3200D3eB9E049Ed4968D4584","goodsKey":"22843","goodsName":"藏","goodsInfo":"{\"video\":\"https://v2.cdwami.com:666/CMS/1/202206/video/20220617194811696.mp4\",\"images\":[\"https://v2.cdwami.com:666/CMS/1/202206/img/20220617194801848.jpg\"],\"tags\":[],\"detail\":\"<p><img src=\\\"https://v2.cdwami.com:666/CMS/1/202206/img/20220617194823278.jpg\\\"></p>\"}","deliveryTick":0,"source":1,"goodsProduct":{"pid":"579246700726478200","className":"低傲数藏","productInfo":"{\"video\":\"https://v2.cdwami.com:666/CMS/1/202206/video/20220617194811696.mp4\",\"images\":[\"https://v2.cdwami.com:666/CMS/1/202206/img/20220617194801848.jpg\"],\"tags\":[],\"detail\":\"<p><img src=\\\"https://v2.cdwami.com:666/CMS/1/202206/img/20220617194823278.jpg\\\"></p>\"}","totalCount":"0","authorId":"409735638338764801","authorName":"低傲","authorImg":"https://v2.cdwami.com:666/CMS/1/202206/img/20220617194729218.png","publisherName":"低傲","sellTick":"1655308800"}},"tokenNum":"","goodsSource":1,"sellerBzj":0.00,"countDown":12916,"buyerUid":"0","isInBid":"0","topuserid":null,"deliveryTime":0},{"id":"516902875918463778","num":"52214830","dataStatus":2,"auctionType":1,"auctionStartTick":1659618309,"auctionTick":1660827902,"endTick":1660827902,"startPrice":1.00,"maxPrice":3.00,"nowPrice":1.00,"auctionGoods":{"id":"579472277515277395","cid":"579246700726478200","classInfo":null,"goodsType":"1","mainNetNum":3,"mainNetName":"低傲","contractAddr":"0xB869E9BEF553030F3200D3eB9E049Ed4968D4584","goodsKey":"13534","goodsName":"藏","goodsInfo":"{\"video\":\"https://v2.cdwami.com:666/CMS/1/202206/video/20220617194811696.mp4\",\"images\":[\"https://v2.cdwami.com:666/CMS/1/202206/img/20220617194801848.jpg\"],\"tags\":[],\"detail\":\"<p><img src=\\\"https://v2.cdwami.com:666/CMS/1/202206/img/20220617194823278.jpg\\\"></p>\"}","deliveryTick":0,"source":1,"goodsProduct":{"pid":"579246700726478200","className":"低傲数藏","productInfo":"{\"video\":\"https://v2.cdwami.com:666/CMS/1/202206/video/20220617194811696.mp4\",\"images\":[\"https://v2.cdwami.com:666/CMS/1/202206/img/20220617194801848.jpg\"],\"tags\":[],\"detail\":\"<p><img src=\\\"https://v2.cdwami.com:666/CMS/1/202206/img/20220617194823278.jpg\\\"></p>\"}","totalCount":"0","authorId":"409735638338764801","authorName":"低傲","authorImg":"https://v2.cdwami.com:666/CMS/1/202206/img/20220617194729218.png","publisherName":"低傲","sellTick":"1655308800"}},"tokenNum":"","goodsSource":1,"sellerBzj":0.00,"countDown":13332,"buyerUid":"0","isInBid":"0","topuserid":null,"deliveryTime":0},{"id":"556657888080993631","num":"56789578","dataStatus":2,"auctionType":1,"auctionStartTick":1659618324,"auctionTick":1660827916,"endTick":1660827916,"startPrice":1.00,"maxPrice":3.00,"nowPrice":1.00,"auctionGoods":{"id":"569998374903461079","cid":"579246700726478200","classInfo":null,"goodsType":"1","mainNetNum":3,"mainNetName":"低傲","contractAddr":"0xB869E9BEF553030F3200D3eB9E049Ed4968D4584","goodsKey":"13540","goodsName":"藏","goodsInfo":"{\"video\":\"https://v2.cdwami.com:666/CMS/1/202206/video/20220617194811696.mp4\",\"images\":[\"https://v2.cdwami.com:666/CMS/1/202206/img/20220617194801848.jpg\"],\"tags\":[],\"detail\":\"<p><img src=\\\"https://v2.cdwami.com:666/CMS/1/202206/img/20220617194823278.jpg\\\"></p>\"}","deliveryTick":0,"source":1,"goodsProduct":{"pid":"579246700726478200","className":"低傲数藏","productInfo":"{\"video\":\"https://v2.cdwami.com:666/CMS/1/202206/video/20220617194811696.mp4\",\"images\":[\"https://v2.cdwami.com:666/CMS/1/202206/img/20220617194801848.jpg\"],\"tags\":[],\"detail\":\"<p><img src=\\\"https://v2.cdwami.com:666/CMS/1/202206/img/20220617194823278.jpg\\\"></p>\"}","totalCount":"0","authorId":"409735638338764801","authorName":"低傲","authorImg":"https://v2.cdwami.com:666/CMS/1/202206/img/20220617194729218.png","publisherName":"低傲","sellTick":"1655308800"}},"tokenNum":"","goodsSource":1,"sellerBzj":0.00,"countDown":12871,"buyerUid":"0","isInBid":"0","topuserid":null,"deliveryTime":0},{"id":"513916856998405124","num":"55157174","dataStatus":2,"auctionType":1,"auctionStartTick":1659618351,"auctionTick":1660827942,"endTick":1660827942,"startPrice":1.00,"maxPrice":3.00,"nowPrice":1.00,"auctionGoods":{"id":"504378333813279998","cid":"541441265330316778","classInfo":null,"goodsType":"1","mainNetNum":3,"mainNetName":"低傲","contractAddr":"0x36eBA6137865fbF9E4aa3786889901efD1FcC89B","goodsKey":"6034","goodsName":"数","goodsInfo":"{\"video\":\"https://v2.cdwami.com:666/CMS/1/202206/video/20220617194533205.mp4\",\"images\":[\"https://v2.cdwami.com:666/CMS/1/202206/img/20220617194523864.jpg\"],\"tags\":[],\"detail\":\"<p><img src=\\\"https://v2.cdwami.com:666/CMS/1/202206/img/20220617194541643.jpg\\\"></p>\"}","deliveryTick":0,"source":1,"goodsProduct":{"pid":"541441265330316778","className":"低傲数藏","productInfo":"{\"video\":\"https://v2.cdwami.com:666/CMS/1/202206/video/20220617194533205.mp4\",\"images\":[\"https://v2.cdwami.com:666/CMS/1/202206/img/20220617194523864.jpg\"],\"tags\":[],\"detail\":\"<p><img src=\\\"https://v2.cdwami.com:666/CMS/1/202206/img/20220617194541643.jpg\\\"></p>\"}","totalCount":"0","authorId":"409735638338764801","authorName":"低傲","authorImg":"https://v2.cdwami.com:666/CMS/1/202206/img/20220617194443356.png","publisherName":"低傲","sellTick":"1655308800"}},"tokenNum":"","goodsSource":1,"sellerBzj":0.00,"countDown":13409,"buyerUid":"0","isInBid":"0","topuserid":null,"deliveryTime":0},{"id":"541968128569000381","num":"50688151","dataStatus":2,"auctionType":1,"auctionStartTick":1659618896,"auctionTick":1660828463,"endTick":1660828463,"startPrice":66.00,"maxPrice":500.00,"nowPrice":66.00,"auctionGoods":{"id":"538726691959764131","cid":"411158621955555330","classInfo":null,"goodsType":"1","mainNetNum":3,"mainNetName":"低傲","contractAddr":"0xbEDFe410Ea934Ffd6D6EE1937e6E93004e8ADc2e","goodsKey":"32307","goodsName":"万能券","goodsInfo":"{\"video\":\"https://wm-auction-1.oss-cn-beijing.aliyuncs.com/2022_06/D1654599217394_video.mp4\",\"images\":[\"https://wm-auction-1.oss-cn-beijing.aliyuncs.com/2022_06/D1654597886183_img.png\"],\"detail\":\"<p><img src=\\\"https://wm-auction-1.oss-cn-beijing.aliyuncs.com/2022_06/D1654597892086_detail.png\\\"></p>\",\"totalCount\":\"100000\",\"tags\":[\"\"]}","deliveryTick":0,"source":1,"goodsProduct":{"pid":"411158621955555330","className":"万能券","productInfo":"{\"video\":\"https://wm-auction-1.oss-cn-beijing.aliyuncs.com/2022_06/D1654599217394_video.mp4\",\"images\":[\"https://wm-auction-1.oss-cn-beijing.aliyuncs.com/2022_06/D1654597886183_img.png\"],\"detail\":\"<p><img src=\\\"https://wm-auction-1.oss-cn-beijing.aliyuncs.com/2022_06/D1654597892086_detail.png\\\"></p>\",\"totalCount\":\"100000\",\"tags\":[\"\"]}","totalCount":"100000","authorId":"409735638338764801","authorName":"低傲","authorImg":"https://wm-auction-1.oss-cn-beijing.aliyuncs.com/2022_05/D1653751067011_飞书20220528-231648.png","publisherName":"低傲","sellTick":"1655208480"}},"tokenNum":"","goodsSource":1,"sellerBzj":0.00,"countDown":13591,"buyerUid":"0","isInBid":"0","topuserid":null,"deliveryTime":0},{"id":"531845522485585620","num":"53673908","dataStatus":2,"auctionType":1,"auctionStartTick":1659619039,"auctionTick":1660828627,"endTick":1660828627,"startPrice":1.00,"maxPrice":3.00,"nowPrice":1.00,"auctionGoods":{"id":"524763213744060266","cid":"579246700726478200","classInfo":null,"goodsType":"1","mainNetNum":3,"mainNetName":"低傲","contractAddr":"0xB869E9BEF553030F3200D3eB9E049Ed4968D4584","goodsKey":"20630","goodsName":"藏","goodsInfo":"{\"video\":\"https://v2.cdwami.com:666/CMS/1/202206/video/20220617194811696.mp4\",\"images\":[\"https://v2.cdwami.com:666/CMS/1/202206/img/20220617194801848.jpg\"],\"tags\":[],\"detail\":\"<p><img src=\\\"https://v2.cdwami.com:666/CMS/1/202206/img/20220617194823278.jpg\\\"></p>\"}","deliveryTick":0,"source":1,"goodsProduct":{"pid":"579246700726478200","className":"低傲数藏","productInfo":"{\"video\":\"https://v2.cdwami.com:666/CMS/1/202206/video/20220617194811696.mp4\",\"images\":[\"https://v2.cdwami.com:666/CMS/1/202206/img/20220617194801848.jpg\"],\"tags\":[],\"detail\":\"<p><img src=\\\"https://v2.cdwami.com:666/CMS/1/202206/img/20220617194823278.jpg\\\"></p>\"}","totalCount":"0","authorId":"409735638338764801","authorName":"低傲","authorImg":"https://v2.cdwami.com:666/CMS/1/202206/img/20220617194729218.png","publisherName":"低傲","sellTick":"1655308800"}},"tokenNum":"","goodsSource":1,"sellerBzj":0.00,"countDown":13877,"buyerUid":"0","isInBid":"0","topuserid":null,"deliveryTime":0}],"msg":"ok","code":"","data":null}
接口响应时长: 0.087976 s
Http状态码: 200
断言方式：相等
期望结果：10
实际结果：[10]
>>==============================第3条用例执行完毕=======================================>>