INFO     root:logDecoratorl.py:39 
>>===============================正在执行第3条用例======================================>>
测试标题: 获取按剩余时间排序是否成功
请求方式: post
请求头:   {'accesstoken': '58130b6997a28fd92d680ed7e7efa08a', 'timespan': '1661138056', 'TOKEN': '86AF2DC047BB1C1853DA37D4486B24DD8148D45D3915D46FB6746CD2110752DBDEF54E29D5C9FB53F864CE5ECC5A1B987381CC53D7C7934D626CB9003E6BBE4345008A158FE66B77D46CB9CB369464CC'}
请求路径: http://110.80.137.11:8059/auction/PageList
传参方式： json
请求内容: {"platFormId":"0","source":0,"pageSize":10,"pageIndex":1,"order":2,"searchParm":"","pid":""}
依赖测试用例: 暂无依赖用例数据
接口响应内容: {"success":true,"pageCount":176,"totalCount":1754,"pageSize":10,"pageIndex":1,"list":[{"id":"557363168728159439","num":"51664679","dataStatus":2,"auctionType":1,"auctionStartTick":1659359342,"auctionTick":1661173699,"endTick":1661173699,"startPrice":3.00,"maxPrice":100.00,"nowPrice":3.00,"auctionGoods":{"id":"411455992975392870","cid":"411158621955555330","classInfo":null,"goodsType":"1","mainNetNum":3,"mainNetName":"低傲","contractAddr":"0xbEDFe410Ea934Ffd6D6EE1937e6E93004e8ADc2e","goodsKey":"7633","goodsName":"万能券","goodsInfo":"{\"video\":\"https://wm-auction-1.oss-cn-beijing.aliyuncs.com/2022_06/D1654599217394_video.mp4\",\"images\":[\"https://wm-auction-1.oss-cn-beijing.aliyuncs.com/2022_06/D1654597886183_img.png\"],\"detail\":\"<p><img src=\\\"https://wm-auction-1.oss-cn-beijing.aliyuncs.com/2022_06/D1654597892086_detail.png\\\"></p>\",\"totalCount\":\"100000\",\"tags\":[\"\"]}","deliveryTick":0,"source":1,"goodsProduct":{"pid":"411158621955555330","className":"万能券","productInfo":"{\"video\":\"https://wm-auction-1.oss-cn-beijing.aliyuncs.com/2022_06/D1654599217394_video.mp4\",\"images\":[\"https://wm-auction-1.oss-cn-beijing.aliyuncs.com/2022_06/D1654597886183_img.png\"],\"detail\":\"<p><img src=\\\"https://wm-auction-1.oss-cn-beijing.aliyuncs.com/2022_06/D1654597892086_detail.png\\\"></p>\",\"totalCount\":\"100000\",\"tags\":[\"\"]}","totalCount":"100000","authorId":"409735638338764801","authorName":"低傲","authorImg":"https://wm-auction-1.oss-cn-beijing.aliyuncs.com/2022_05/D1653751067011_飞书20220528-231648.png","publisherName":"低傲","sellTick":"1655208480"}},"tokenNum":"","goodsSource":1,"sellerBzj":0.00,"countDown":177463,"buyerUid":"0","isInBid":"0","topuserid":null,"deliveryTime":0},{"id":"502328996636346379","num":"52715232","dataStatus":2,"auctionType":1,"auctionStartTick":1658976578,"auctionTick":1661309333,"endTick":1661309333,"startPrice":320.00,"maxPrice":430.00,"nowPrice":320.00,"auctionGoods":{"id":"410441306968555623","cid":"410169777273700354","classInfo":null,"goodsType":"1","mainNetNum":3,"mainNetName":"低傲","contractAddr":"0x66aD5311570Af7eE7073A9e9b61c6AB9F1197F26","goodsKey":"1503","goodsName":"元宇宙五行-土","goodsInfo":"{\"video\":\"https://wm-auction-1.oss-cn-beijing.aliyuncs.com/2022_06/D1654094352404_video.mp4\",\"images\":[\"https://wm-auction-1.oss-cn-beijing.aliyuncs.com/2022_06/D1654094347717_img.jpg\"],\"detail\":\"<p><img src=\\\"https://wm-auction-1.oss-cn-beijing.aliyuncs.com/2022_06/D1654095223574_tu_detail.jpg\\\"></p>\",\"tags\":[\"\"],\"totalCount\":\"2999\"}","deliveryTick":0,"source":1,"goodsProduct":{"pid":"410169777273700354","className":"元宇宙五行","productInfo":"{\"video\":\"https://wm-auction-1.oss-cn-beijing.aliyuncs.com/2022_06/D1654094352404_video.mp4\",\"images\":[\"https://wm-auction-1.oss-cn-beijing.aliyuncs.com/2022_06/D1654094347717_img.jpg\"],\"detail\":\"<p><img src=\\\"https://wm-auction-1.oss-cn-beijing.aliyuncs.com/2022_06/D1654095223574_tu_detail.jpg\\\"></p>\",\"tags\":[\"\"],\"totalCount\":\"2999\"}","totalCount":"2899","authorId":"409735638338764801","authorName":"低傲","authorImg":"https://wm-auction-1.oss-cn-beijing.aliyuncs.com/2022_05/D1653751067011_飞书20220528-231648.png","publisherName":"低傲","sellTick":"1654171680"}},"tokenNum":"","goodsSource":1,"sellerBzj":0.00,"countDown":313690,"buyerUid":"0","isInBid":"0","topuserid":null,"deliveryTime":0},{"id":"534555484811470905","num":"56774253","dataStatus":2,"auctionType":1,"auctionStartTick":1659308074,"auctionTick":1661381640,"endTick":1661381640,"startPrice":857.00,"maxPrice":1688.00,"nowPrice":857.00,"auctionGoods":{"id":"411745900533121125","cid":"411585541016911874","classInfo":null,"goodsType":"1","mainNetNum":3,"mainNetName":"低傲","contractAddr":"0x6aFcBe2d3854a4c8c22F27B47CBF4b84D1e8e7Dd","goodsKey":"116","goodsName":"童年“飞”","goodsInfo":"{\"images\":[\"https://wm-auction-1.oss-cn-beijing.aliyuncs.com/2022_06/D1654853414673_img.png\"],\"detail\":\"<p><img src=\\\"https://wm-auction-1.oss-cn-beijing.aliyuncs.com/2022_06/D1654853424265_detail.png\\\"></p>\",\"video\":\"https://wm-auction-1.oss-cn-beijing.aliyuncs.com/2022_06/D1654853418496_video.mp4\",\"totalCount\":\"908\",\"tags\":\"\"}","deliveryTick":0,"source":1,"goodsProduct":{"pid":"411585541016911874","className":"童年","productInfo":"{\"images\":[\"https://wm-auction-1.oss-cn-beijing.aliyuncs.com/2022_06/D1654853414673_img.png\"],\"detail\":\"<p><img src=\\\"https://wm-auction-1.oss-cn-beijing.aliyuncs.com/2022_06/D1654853424265_detail.png\\\"></p>\",\"video\":\"https://wm-auction-1.oss-cn-beijing.aliyuncs.com/2022_06/D1654853418496_video.mp4\",\"totalCount\":\"908\",\"tags\":\"\"}","totalCount":"0","authorId":"409735638338764801","authorName":"低傲","authorImg":"https://wm-auction-1.oss-cn-beijing.aliyuncs.com/2022_05/D1653751067011_飞书20220528-231648.png","publisherName":"低傲","sellTick":"1654876800"}},"tokenNum":"","goodsSource":1,"sellerBzj":0.00,"countDown":385645,"buyerUid":"0","isInBid":"0","topuserid":null,"deliveryTime":0},{"id":"541333557215030442","num":"50640425","dataStatus":2,"auctionType":1,"auctionStartTick":1659019209,"auctionTick":1661438347,"endTick":1661438347,"startPrice":48.00,"maxPrice":68.00,"nowPrice":48.00,"auctionGoods":{"id":"571150416925280483","cid":"525859289275454579","classInfo":null,"goodsType":"1","mainNetNum":3,"mainNetName":"低傲","contractAddr":"0xe13f6dC9d3191320029aeA578C43452293A6090f","goodsKey":"1826","goodsName":"国","goodsInfo":"{\"video\":\"https://wm-auction-1.oss-cn-beijing.aliyuncs.com/2022_07/D1657029404498.mp4\",\"images\":[\"https://wm-auction-1.oss-cn-beijing.aliyuncs.com/2022_07/D1657029400241.png\"],\"tags\":[],\"fbxUrl\":\"\",\"detail\":\"<p><img src=\\\"https://v2.cdwami.com:666/CMS/1/202207/img/20220705215652909.png\\\"></p>\"}","deliveryTick":0,"source":1,"goodsProduct":{"pid":"525859289275454579","className":"爱国拥军","productInfo":"{\"video\":\"https://wm-auction-1.oss-cn-beijing.aliyuncs.com/2022_07/D1657029404498.mp4\",\"images\":[\"https://wm-auction-1.oss-cn-beijing.aliyuncs.com/2022_07/D1657029400241.png\"],\"tags\":[],\"fbxUrl\":\"\",\"detail\":\"<p><img src=\\\"https://v2.cdwami.com:666/CMS/1/202207/img/20220705215652909.png\\\"></p>\"}","totalCount":"0","authorId":"409735638338764801","authorName":"低傲","authorImg":"https://wm-auction-1.oss-cn-beijing.aliyuncs.com/2022_07/D1656988949529.png","publisherName":"低傲","sellTick":"1657072800"}},"tokenNum":"","goodsSource":1,"sellerBzj":0.00,"countDown":442279,"buyerUid":"0","isInBid":"0","topuserid":null,"deliveryTime":0},{"id":"563158584334711210","num":"51750731","dataStatus":2,"auctionType":1,"auctionStartTick":1659019252,"auctionTick":1661438428,"endTick":1661438428,"startPrice":48.00,"maxPrice":68.00,"nowPrice":48.00,"auctionGoods":{"id":"555855711182885046","cid":"516204100826669046","classInfo":null,"goodsType":"1","mainNetNum":3,"mainNetName":"低傲","contractAddr":"0xa6268073d0689A9c6E25F118956cA5DF744C63dD","goodsKey":"353","goodsName":"爱","goodsInfo":"{\"video\":\"https://wm-auction-1.oss-cn-beijing.aliyuncs.com/2022_07/D1657029497110.mp4\",\"images\":[\"https://wm-auction-1.oss-cn-beijing.aliyuncs.com/2022_07/D1657029493273.png\"],\"tags\":[],\"fbxUrl\":\"\",\"detail\":\"<p><img src=\\\"https://v2.cdwami.com:666/CMS/1/202207/img/20220705215822369.png\\\"></p>\"}","deliveryTick":0,"source":1,"goodsProduct":{"pid":"516204100826669046","className":"爱国拥军","productInfo":"{\"video\":\"https://wm-auction-1.oss-cn-beijing.aliyuncs.com/2022_07/D1657029497110.mp4\",\"images\":[\"https://wm-auction-1.oss-cn-beijing.aliyuncs.com/2022_07/D1657029493273.png\"],\"tags\":[],\"fbxUrl\":\"\",\"detail\":\"<p><img src=\\\"https://v2.cdwami.com:666/CMS/1/202207/img/20220705215822369.png\\\"></p>\"}","totalCount":"0","authorId":"409735638338764801","authorName":"低傲","authorImg":"https://wm-auction-1.oss-cn-beijing.aliyuncs.com/2022_07/D1656988861559.png","publisherName":"低傲","sellTick":"1657072800"}},"tokenNum":"","goodsSource":1,"sellerBzj":0.00,"countDown":442128,"buyerUid":"0","isInBid":"0","topuserid":null,"deliveryTime":0},{"id":"598195827137757999","num":"57903492","dataStatus":2,"auctionType":1,"auctionStartTick":1658963120,"auctionTick":1661619600,"endTick":1661619600,"startPrice":7.00,"maxPrice":21.00,"nowPrice":7.00,"auctionGoods":{"id":"411311037225107559","cid":"411158621955555330","classInfo":null,"goodsType":"1","mainNetNum":3,"mainNetName":"低傲","contractAddr":"0xbEDFe410Ea934Ffd6D6EE1937e6E93004e8ADc2e","goodsKey":"4234","goodsName":"万能券","goodsInfo":"{\"video\":\"https://wm-auction-1.oss-cn-beijing.aliyuncs.com/2022_06/D1654599217394_video.mp4\",\"images\":[\"https://wm-auction-1.oss-cn-beijing.aliyuncs.com/2022_06/D1654597886183_img.png\"],\"detail\":\"<p><img src=\\\"https://wm-auction-1.oss-cn-beijing.aliyuncs.com/2022_06/D1654597892086_detail.png\\\"></p>\",\"totalCount\":\"100000\",\"tags\":[\"\"]}","deliveryTick":0,"source":1,"goodsProduct":{"pid":"411158621955555330","className":"万能券","productInfo":"{\"video\":\"https://wm-auction-1.oss-cn-beijing.aliyuncs.com/2022_06/D1654599217394_video.mp4\",\"images\":[\"https://wm-auction-1.oss-cn-beijing.aliyuncs.com/2022_06/D1654597886183_img.png\"],\"detail\":\"<p><img src=\\\"https://wm-auction-1.oss-cn-beijing.aliyuncs.com/2022_06/D1654597892086_detail.png\\\"></p>\",\"totalCount\":\"100000\",\"tags\":[\"\"]}","totalCount":"100000","authorId":"409735638338764801","authorName":"低傲","authorImg":"https://wm-auction-1.oss-cn-beijing.aliyuncs.com/2022_05/D1653751067011_飞书20220528-231648.png","publisherName":"低傲","sellTick":"1655208480"}},"tokenNum":"","goodsSource":1,"sellerBzj":0.00,"countDown":622933,"buyerUid":"0","isInBid":"0","topuserid":null,"deliveryTime":0},{"id":"592441312616208105","num":"","dataStatus":2,"auctionType":1,"auctionStartTick":1659075825,"auctionTick":1661667624,"endTick":1661667624,"startPrice":366.00,"maxPrice":666.00,"nowPrice":366.00,"auctionGoods":{"id":"572038132370742400","cid":"0","classInfo":"","goodsType":"0","mainNetNum":1,"mainNetName":"鲸探","contractAddr":"0","goodsKey":"","goodsName":"元青花","goodsInfo":"{\"images\":[\"https://wm-auction-1.oss-cn-beijing.aliyuncs.com/D_1659075638969_ad4bb338-334f-4825-a2e4-4e32cde3fe77\"]}","deliveryTick":0,"source":2,"goodsProduct":null},"tokenNum":"","goodsSource":2,"sellerBzj":100.00,"countDown":671007,"buyerUid":"0","isInBid":"0","topuserid":null,"deliveryTime":0},{"id":"557197250303038284","num":"","dataStatus":2,"auctionType":1,"auctionStartTick":1659075836,"auctionTick":1661667746,"endTick":1661667746,"startPrice":220.00,"maxPrice":399.00,"nowPrice":220.00,"auctionGoods":{"id":"582865869953746702","cid":"0","classInfo":"","goodsType":"0","mainNetNum":1,"mainNetName":"鲸探","contractAddr":"0","goodsKey":"","goodsName":"战国矛","goodsInfo":"{\"images\":[\"https://wm-auction-1.oss-cn-beijing.aliyuncs.com/D_1659075763111_14ee0238-8251-4ae7-b210-b931c86e36a7\"]}","deliveryTick":0,"source":2,"goodsProduct":null},"tokenNum":"","goodsSource":2,"sellerBzj":100.00,"countDown":671511,"buyerUid":"0","isInBid":"0","topuserid":null,"deliveryTime":0},{"id":"517540027270746607","num":"","dataStatus":2,"auctionType":1,"auctionStartTick":1659075989,"auctionTick":1661667804,"endTick":1661667804,"startPrice":299.00,"maxPrice":620.00,"nowPrice":299.00,"auctionGoods":{"id":"536393925401377802","cid":"0","classInfo":"","goodsType":"0","mainNetNum":1,"mainNetName":"鲸探","contractAddr":"0","goodsKey":"","goodsName":"铜尊","goodsInfo":"{\"images\":[\"https://wm-auction-1.oss-cn-beijing.aliyuncs.com/D_1659075826425_a8005fec-2a36-45ab-ad98-915de051dc9d\"]}","deliveryTick":0,"source":2,"goodsProduct":null},"tokenNum":"","goodsSource":2,"sellerBzj":100.00,"countDown":671998,"buyerUid":"0","isInBid":"0","topuserid":null,"deliveryTime":0},{"id":"597624397526328015","num":"","dataStatus":2,"auctionType":1,"auctionStartTick":1659076019,"auctionTick":1661667880,"endTick":1661667880,"startPrice":289.00,"maxPrice":560.00,"nowPrice":289.00,"auctionGoods":{"id":"548738927031693133","cid":"0","classInfo":"","goodsType":"0","mainNetNum":1,"mainNetName":"鲸探","contractAddr":"0","goodsKey":"","goodsName":"血而方","goodsInfo":"{\"images\":[\"https://wm-auction-1.oss-cn-beijing.aliyuncs.com/D_1659075902095_e21b013a-c2d4-4ecb-81ee-99c0fb76a7a6\"]}","deliveryTick":0,"source":2,"goodsProduct":null},"tokenNum":"","goodsSource":2,"sellerBzj":100.00,"countDown":671216,"buyerUid":"0","isInBid":"0","topuserid":null,"deliveryTime":0}],"msg":"ok","code":"","data":null}
接口响应时长: 0.086964 s
Http状态码: 200
断言方式：相等
期望结果：10
实际结果：[10]
>>==============================第3条用例执行完毕=======================================>>