INFO     root:logDecoratorl.py:39 
>>===============================正在执行第3条用例======================================>>
测试标题: 获取按剩余时间排序是否成功
请求方式: post
请求头:   {'accesstoken': '1210052b3e3ec8eb2326c6e62e77318e', 'timespan': '1660813919', 'TOKEN': '86AF2DC047BB1C1853DA37D4486B24DDB061DB08A2044CBA1B5F520F38081D109E5C3181AA98B76FCED7E4BE3C91AF7E1E7E2FAB668575B92FE968A4EA9F3227A6496BEF012D4236CE199BCF45E32D98'}
请求路径: http://110.80.137.11:8051/auction/PageList
传参方式： json
请求内容: {"platFormId":"0","source":0,"pageSize":10,"pageIndex":1,"order":2,"searchParm":"","pid":""}
依赖测试用例: 暂无依赖用例数据
接口响应内容: {"success":true,"pageCount":196,"totalCount":1951,"pageSize":10,"pageIndex":1,"list":[{"id":"584505555551890914","num":"51807347","dataStatus":2,"auctionType":1,"auctionStartTick":1659616837,"auctionTick":1660826426,"endTick":1660826426,"startPrice":1.00,"maxPrice":3.00,"nowPrice":1.00,"auctionGoods":{"id":"540790103717103509","cid":"579246700726478200","classInfo":null,"goodsType":"1","mainNetNum":3,"mainNetName":"低傲","contractAddr":"0xB869E9BEF553030F3200D3eB9E049Ed4968D4584","goodsKey":"19322","goodsName":"藏","goodsInfo":"{\"video\":\"https://v2.cdwami.com:666/CMS/1/202206/video/20220617194811696.mp4\",\"images\":[\"https://v2.cdwami.com:666/CMS/1/202206/img/20220617194801848.jpg\"],\"tags\":[],\"detail\":\"<p><img src=\\\"https://v2.cdwami.com:666/CMS/1/202206/img/20220617194823278.jpg\\\"></p>\"}","deliveryTick":0,"source":1,"goodsProduct":{"pid":"579246700726478200","className":"低傲数藏","productInfo":"{\"video\":\"https://v2.cdwami.com:666/CMS/1/202206/video/20220617194811696.mp4\",\"images\":[\"https://v2.cdwami.com:666/CMS/1/202206/img/20220617194801848.jpg\"],\"tags\":[],\"detail\":\"<p><img src=\\\"https://v2.cdwami.com:666/CMS/1/202206/img/20220617194823278.jpg\\\"></p>\"}","totalCount":"0","authorId":"409735638338764801","authorName":"低傲","authorImg":"https://v2.cdwami.com:666/CMS/1/202206/img/20220617194729218.png","publisherName":"低傲","sellTick":"1655308800"}},"tokenNum":"","goodsSource":1,"sellerBzj":0.00,"countDown":114319,"buyerUid":"0","isInBid":"0","topuserid":null,"deliveryTime":0},{"id":"540336619289415082","num":"52574963","dataStatus":2,"auctionType":1,"auctionStartTick":1659617635,"auctionTick":1660827227,"endTick":1660827227,"startPrice":1.00,"maxPrice":3.00,"nowPrice":1.00,"auctionGoods":{"id":"596064620590809248","cid":"518720465633550411","classInfo":null,"goodsType":"1","mainNetNum":3,"mainNetName":"低傲","contractAddr":"0x5fF97c0435e9B3D2BbF48f6f665fE3DD01F5341f","goodsKey":"3858","goodsName":"拥","goodsInfo":"{\"video\":\"https://wm-auction-1.oss-cn-beijing.aliyuncs.com/2022_07/D1657029315810.mp4\",\"images\":[\"https://wm-auction-1.oss-cn-beijing.aliyuncs.com/2022_07/D1657029312488.png\"],\"tags\":[],\"fbxUrl\":\"\",\"detail\":\"<p><img src=\\\"https://v2.cdwami.com:666/CMS/1/202207/img/20220705215522172.png\\\"></p>\"}","deliveryTick":0,"source":1,"goodsProduct":{"pid":"518720465633550411","className":"爱国拥军","productInfo":"{\"video\":\"https://wm-auction-1.oss-cn-beijing.aliyuncs.com/2022_07/D1657029315810.mp4\",\"images\":[\"https://wm-auction-1.oss-cn-beijing.aliyuncs.com/2022_07/D1657029312488.png\"],\"tags\":[],\"fbxUrl\":\"\",\"detail\":\"<p><img src=\\\"https://v2.cdwami.com:666/CMS/1/202207/img/20220705215522172.png\\\"></p>\"}","totalCount":"0","authorId":"409735638338764801","authorName":"低傲","authorImg":"https://wm-auction-1.oss-cn-beijing.aliyuncs.com/2022_07/D1656988563713.png","publisherName":"低傲","sellTick":"1657072800"}},"tokenNum":"","goodsSource":1,"sellerBzj":0.00,"countDown":115653,"buyerUid":"0","isInBid":"0","topuserid":null,"deliveryTime":0},{"id":"598014433009623294","num":"50979784","dataStatus":2,"auctionType":1,"auctionStartTick":1659617656,"auctionTick":1660827247,"endTick":1660827247,"startPrice":1.00,"maxPrice":3.00,"nowPrice":1.00,"auctionGoods":{"id":"540389829988220559","cid":"518720465633550411","classInfo":null,"goodsType":"1","mainNetNum":3,"mainNetName":"低傲","contractAddr":"0x5fF97c0435e9B3D2BbF48f6f665fE3DD01F5341f","goodsKey":"3857","goodsName":"拥","goodsInfo":"{\"video\":\"https://wm-auction-1.oss-cn-beijing.aliyuncs.com/2022_07/D1657029315810.mp4\",\"images\":[\"https://wm-auction-1.oss-cn-beijing.aliyuncs.com/2022_07/D1657029312488.png\"],\"tags\":[],\"fbxUrl\":\"\",\"detail\":\"<p><img src=\\\"https://v2.cdwami.com:666/CMS/1/202207/img/20220705215522172.png\\\"></p>\"}","deliveryTick":0,"source":1,"goodsProduct":{"pid":"518720465633550411","className":"爱国拥军","productInfo":"{\"video\":\"https://wm-auction-1.oss-cn-beijing.aliyuncs.com/2022_07/D1657029315810.mp4\",\"images\":[\"https://wm-auction-1.oss-cn-beijing.aliyuncs.com/2022_07/D1657029312488.png\"],\"tags\":[],\"fbxUrl\":\"\",\"detail\":\"<p><img src=\\\"https://v2.cdwami.com:666/CMS/1/202207/img/20220705215522172.png\\\"></p>\"}","totalCount":"0","authorId":"409735638338764801","authorName":"低傲","authorImg":"https://wm-auction-1.oss-cn-beijing.aliyuncs.com/2022_07/D1656988563713.png","publisherName":"低傲","sellTick":"1657072800"}},"tokenNum":"","goodsSource":1,"sellerBzj":0.00,"countDown":114978,"buyerUid":"0","isInBid":"0","topuserid":null,"deliveryTime":0},{"id":"586295386560958282","num":"58893592","dataStatus":2,"auctionType":1,"auctionStartTick":1659617925,"auctionTick":1660827517,"endTick":1660827517,"startPrice":1.00,"maxPrice":3.00,"nowPrice":1.00,"auctionGoods":{"id":"582275441976914259","cid":"518720465633550411","classInfo":null,"goodsType":"1","mainNetNum":3,"mainNetName":"低傲","contractAddr":"0x5fF97c0435e9B3D2BbF48f6f665fE3DD01F5341f","goodsKey":"3860","goodsName":"拥","goodsInfo":"{\"video\":\"https://wm-auction-1.oss-cn-beijing.aliyuncs.com/2022_07/D1657029315810.mp4\",\"images\":[\"https://wm-auction-1.oss-cn-beijing.aliyuncs.com/2022_07/D1657029312488.png\"],\"tags\":[],\"fbxUrl\":\"\",\"detail\":\"<p><img src=\\\"https://v2.cdwami.com:666/CMS/1/202207/img/20220705215522172.png\\\"></p>\"}","deliveryTick":0,"source":1,"goodsProduct":{"pid":"518720465633550411","className":"爱国拥军","productInfo":"{\"video\":\"https://wm-auction-1.oss-cn-beijing.aliyuncs.com/2022_07/D1657029315810.mp4\",\"images\":[\"https://wm-auction-1.oss-cn-beijing.aliyuncs.com/2022_07/D1657029312488.png\"],\"tags\":[],\"fbxUrl\":\"\",\"detail\":\"<p><img src=\\\"https://v2.cdwami.com:666/CMS/1/202207/img/20220705215522172.png\\\"></p>\"}","totalCount":"0","authorId":"409735638338764801","authorName":"低傲","authorImg":"https://wm-auction-1.oss-cn-beijing.aliyuncs.com/2022_07/D1656988563713.png","publisherName":"低傲","sellTick":"1657072800"}},"tokenNum":"","goodsSource":1,"sellerBzj":0.00,"countDown":115384,"buyerUid":"0","isInBid":"0","topuserid":null,"deliveryTime":0},{"id":"585083781137429324","num":"54087709","dataStatus":2,"auctionType":1,"auctionStartTick":1659618197,"auctionTick":1660827789,"endTick":1660827789,"startPrice":1.00,"maxPrice":3.00,"nowPrice":1.00,"auctionGoods":{"id":"587167104247260072","cid":"541441265330316778","classInfo":null,"goodsType":"1","mainNetNum":3,"mainNetName":"低傲","contractAddr":"0x36eBA6137865fbF9E4aa3786889901efD1FcC89B","goodsKey":"27174","goodsName":"数","goodsInfo":"{\"video\":\"https://v2.cdwami.com:666/CMS/1/202206/video/20220617194533205.mp4\",\"images\":[\"https://v2.cdwami.com:666/CMS/1/202206/img/20220617194523864.jpg\"],\"tags\":[],\"detail\":\"<p><img src=\\\"https://v2.cdwami.com:666/CMS/1/202206/img/20220617194541643.jpg\\\"></p>\"}","deliveryTick":0,"source":1,"goodsProduct":{"pid":"541441265330316778","className":"低傲数藏","productInfo":"{\"video\":\"https://v2.cdwami.com:666/CMS/1/202206/video/20220617194533205.mp4\",\"images\":[\"https://v2.cdwami.com:666/CMS/1/202206/img/20220617194523864.jpg\"],\"tags\":[],\"detail\":\"<p><img src=\\\"https://v2.cdwami.com:666/CMS/1/202206/img/20220617194541643.jpg\\\"></p>\"}","totalCount":"0","authorId":"409735638338764801","authorName":"低傲","authorImg":"https://v2.cdwami.com:666/CMS/1/202206/img/20220617194443356.png","publisherName":"低傲","sellTick":"1655308800"}},"tokenNum":"","goodsSource":1,"sellerBzj":0.00,"countDown":115675,"buyerUid":"0","isInBid":"0","topuserid":null,"deliveryTime":0},{"id":"509696303832175954","num":"58326071","dataStatus":2,"auctionType":1,"auctionStartTick":1659618210,"auctionTick":1660827803,"endTick":1660827803,"startPrice":1.00,"maxPrice":3.00,"nowPrice":1.00,"auctionGoods":{"id":"580238507108088986","cid":"541441265330316778","classInfo":null,"goodsType":"1","mainNetNum":3,"mainNetName":"低傲","contractAddr":"0x36eBA6137865fbF9E4aa3786889901efD1FcC89B","goodsKey":"2011","goodsName":"数","goodsInfo":"{\"video\":\"https://v2.cdwami.com:666/CMS/1/202206/video/20220617194533205.mp4\",\"images\":[\"https://v2.cdwami.com:666/CMS/1/202206/img/20220617194523864.jpg\"],\"tags\":[],\"detail\":\"<p><img src=\\\"https://v2.cdwami.com:666/CMS/1/202206/img/20220617194541643.jpg\\\"></p>\"}","deliveryTick":0,"source":1,"goodsProduct":{"pid":"541441265330316778","className":"低傲数藏","productInfo":"{\"video\":\"https://v2.cdwami.com:666/CMS/1/202206/video/20220617194533205.mp4\",\"images\":[\"https://v2.cdwami.com:666/CMS/1/202206/img/20220617194523864.jpg\"],\"tags\":[],\"detail\":\"<p><img src=\\\"https://v2.cdwami.com:666/CMS/1/202206/img/20220617194541643.jpg\\\"></p>\"}","totalCount":"0","authorId":"409735638338764801","authorName":"低傲","authorImg":"https://v2.cdwami.com:666/CMS/1/202206/img/20220617194443356.png","publisherName":"低傲","sellTick":"1655308800"}},"tokenNum":"","goodsSource":1,"sellerBzj":0.00,"countDown":116616,"buyerUid":"0","isInBid":"0","topuserid":null,"deliveryTime":0},{"id":"509558602342038166","num":"55406139","dataStatus":2,"auctionType":1,"auctionStartTick":1659618226,"auctionTick":1660827818,"endTick":1660827818,"startPrice":1.00,"maxPrice":3.00,"nowPrice":1.00,"auctionGoods":{"id":"540688532033346692","cid":"541441265330316778","classInfo":null,"goodsType":"1","mainNetNum":3,"mainNetName":"低傲","contractAddr":"0x36eBA6137865fbF9E4aa3786889901efD1FcC89B","goodsKey":"2009","goodsName":"数","goodsInfo":"{\"video\":\"https://v2.cdwami.com:666/CMS/1/202206/video/20220617194533205.mp4\",\"images\":[\"https://v2.cdwami.com:666/CMS/1/202206/img/20220617194523864.jpg\"],\"tags\":[],\"detail\":\"<p><img src=\\\"https://v2.cdwami.com:666/CMS/1/202206/img/20220617194541643.jpg\\\"></p>\"}","deliveryTick":0,"source":1,"goodsProduct":{"pid":"541441265330316778","className":"低傲数藏","productInfo":"{\"video\":\"https://v2.cdwami.com:666/CMS/1/202206/video/20220617194533205.mp4\",\"images\":[\"https://v2.cdwami.com:666/CMS/1/202206/img/20220617194523864.jpg\"],\"tags\":[],\"detail\":\"<p><img src=\\\"https://v2.cdwami.com:666/CMS/1/202206/img/20220617194541643.jpg\\\"></p>\"}","totalCount":"0","authorId":"409735638338764801","authorName":"低傲","authorImg":"https://v2.cdwami.com:666/CMS/1/202206/img/20220617194443356.png","publisherName":"低傲","sellTick":"1655308800"}},"tokenNum":"","goodsSource":1,"sellerBzj":0.00,"countDown":116633,"buyerUid":"0","isInBid":"0","topuserid":null,"deliveryTime":0},{"id":"500226021783615581","num":"52644384","dataStatus":2,"auctionType":1,"auctionStartTick":1659618260,"auctionTick":1660827852,"endTick":1660827852,"startPrice":1.00,"maxPrice":3.00,"nowPrice":1.00,"auctionGoods":{"id":"522096849778768545","cid":"507784198226545250","classInfo":null,"goodsType":"1","mainNetNum":3,"mainNetName":"低傲","contractAddr":"0x1f393fF6Af4c7ce6bE35E5A360A6A9a68a4087Bb","goodsKey":"24595","goodsName":"傲","goodsInfo":"{\"video\":\"https://v2.cdwami.com:666/CMS/1/202206/video/20220617194217443.mp4\",\"images\":[\"https://v2.cdwami.com:666/CMS/1/202206/img/20220617194207595.jpg\"],\"tags\":[],\"detail\":\"<p><img src=\\\"https://v2.cdwami.com:666/CMS/1/202206/img/20220617194233685.jpg\\\"></p>\"}","deliveryTick":0,"source":1,"goodsProduct":{"pid":"507784198226545250","className":"低傲数藏","productInfo":"{\"video\":\"https://v2.cdwami.com:666/CMS/1/202206/video/20220617194217443.mp4\",\"images\":[\"https://v2.cdwami.com:666/CMS/1/202206/img/20220617194207595.jpg\"],\"tags\":[],\"detail\":\"<p><img src=\\\"https://v2.cdwami.com:666/CMS/1/202206/img/20220617194233685.jpg\\\"></p>\"}","totalCount":"0","authorId":"409735638338764801","authorName":"低傲","authorImg":"","publisherName":"低傲","sellTick":"1655308800"}},"tokenNum":"","goodsSource":1,"sellerBzj":0.00,"countDown":116782,"buyerUid":"0","isInBid":"0","topuserid":null,"deliveryTime":0},{"id":"581632931405432675","num":"57882381","dataStatus":2,"auctionType":1,"auctionStartTick":1659618295,"auctionTick":1660827888,"endTick":1660827888,"startPrice":1.00,"maxPrice":3.00,"nowPrice":1.00,"auctionGoods":{"id":"510896509597966161","cid":"579246700726478200","classInfo":null,"goodsType":"1","mainNetNum":3,"mainNetName":"低傲","contractAddr":"0xB869E9BEF553030F3200D3eB9E049Ed4968D4584","goodsKey":"22843","goodsName":"藏","goodsInfo":"{\"video\":\"https://v2.cdwami.com:666/CMS/1/202206/video/20220617194811696.mp4\",\"images\":[\"https://v2.cdwami.com:666/CMS/1/202206/img/20220617194801848.jpg\"],\"tags\":[],\"detail\":\"<p><img src=\\\"https://v2.cdwami.com:666/CMS/1/202206/img/20220617194823278.jpg\\\"></p>\"}","deliveryTick":0,"source":1,"goodsProduct":{"pid":"579246700726478200","className":"低傲数藏","productInfo":"{\"video\":\"https://v2.cdwami.com:666/CMS/1/202206/video/20220617194811696.mp4\",\"images\":[\"https://v2.cdwami.com:666/CMS/1/202206/img/20220617194801848.jpg\"],\"tags\":[],\"detail\":\"<p><img src=\\\"https://v2.cdwami.com:666/CMS/1/202206/img/20220617194823278.jpg\\\"></p>\"}","totalCount":"0","authorId":"409735638338764801","authorName":"低傲","authorImg":"https://v2.cdwami.com:666/CMS/1/202206/img/20220617194729218.png","publisherName":"低傲","sellTick":"1655308800"}},"tokenNum":"","goodsSource":1,"sellerBzj":0.00,"countDown":115814,"buyerUid":"0","isInBid":"0","topuserid":null,"deliveryTime":0},{"id":"516902875918463778","num":"52214830","dataStatus":2,"auctionType":1,"auctionStartTick":1659618309,"auctionTick":1660827902,"endTick":1660827902,"startPrice":1.00,"maxPrice":3.00,"nowPrice":1.00,"auctionGoods":{"id":"579472277515277395","cid":"579246700726478200","classInfo":null,"goodsType":"1","mainNetNum":3,"mainNetName":"低傲","contractAddr":"0xB869E9BEF553030F3200D3eB9E049Ed4968D4584","goodsKey":"13534","goodsName":"藏","goodsInfo":"{\"video\":\"https://v2.cdwami.com:666/CMS/1/202206/video/20220617194811696.mp4\",\"images\":[\"https://v2.cdwami.com:666/CMS/1/202206/img/20220617194801848.jpg\"],\"tags\":[],\"detail\":\"<p><img src=\\\"https://v2.cdwami.com:666/CMS/1/202206/img/20220617194823278.jpg\\\"></p>\"}","deliveryTick":0,"source":1,"goodsProduct":{"pid":"579246700726478200","className":"低傲数藏","productInfo":"{\"video\":\"https://v2.cdwami.com:666/CMS/1/202206/video/20220617194811696.mp4\",\"images\":[\"https://v2.cdwami.com:666/CMS/1/202206/img/20220617194801848.jpg\"],\"tags\":[],\"detail\":\"<p><img src=\\\"https://v2.cdwami.com:666/CMS/1/202206/img/20220617194823278.jpg\\\"></p>\"}","totalCount":"0","authorId":"409735638338764801","authorName":"低傲","authorImg":"https://v2.cdwami.com:666/CMS/1/202206/img/20220617194729218.png","publisherName":"低傲","sellTick":"1655308800"}},"tokenNum":"","goodsSource":1,"sellerBzj":0.00,"countDown":116627,"buyerUid":"0","isInBid":"0","topuserid":null,"deliveryTime":0}],"msg":"ok","code":"","data":null}
接口响应时长: 0.084794 s
Http状态码: 200
断言方式：相等
期望结果：10
实际结果：[10]
>>==============================第3条用例执行完毕=======================================>>