INFO     root:logDecoratorl.py:39 
>>===============================正在执行第3条用例======================================>>
测试标题: 搜索拍卖中存在的商品是否成功
请求方式: post
请求头:   {'accesstoken': '904d3a8ddf0059a744972f83f2c74d45', 'timespan': '1661138294', 'TOKEN': '86AF2DC047BB1C1853DA37D4486B24DD8148D45D3915D46FB6746CD2110752DB22D648E8E5B29660D2E9BD0C6FF9EAFE7381CC53D7C7934D626CB9003E6BBE4345008A158FE66B77D46CB9CB369464CC'}
请求路径: http://110.80.137.11:8059/auction/PageList
传参方式： json
请求内容: {"platFormId":"0","source":0,"pageSize":10,"pageIndex":1,"order":1,"searchParm":"五行","pid":""}
依赖测试用例: 暂无依赖用例数据
接口响应内容: {"success":true,"pageCount":10,"totalCount":97,"pageSize":10,"pageIndex":1,"list":[{"id":"502328996636346379","num":"52715232","dataStatus":2,"auctionType":1,"auctionStartTick":1658976578,"auctionTick":1661309333,"endTick":1661309460,"startPrice":320.00,"maxPrice":430.00,"nowPrice":320.00,"auctionGoods":{"id":"410441306968555623","cid":"410169777273700354","classInfo":null,"goodsType":"1","mainNetNum":3,"mainNetName":"低傲","contractAddr":"0x66aD5311570Af7eE7073A9e9b61c6AB9F1197F26","goodsKey":"1503","goodsName":"元宇宙五行-土","goodsInfo":"{\"video\":\"https://wm-auction-1.oss-cn-beijing.aliyuncs.com/2022_06/D1654094352404_video.mp4\",\"images\":[\"https://wm-auction-1.oss-cn-beijing.aliyuncs.com/2022_06/D1654094347717_img.jpg\"],\"detail\":\"<p><img src=\\\"https://wm-auction-1.oss-cn-beijing.aliyuncs.com/2022_06/D1654095223574_tu_detail.jpg\\\"></p>\",\"tags\":[\"\"],\"totalCount\":\"2999\"}","deliveryTick":0,"source":1,"goodsProduct":{"pid":"410169777273700354","className":"元宇宙五行","productInfo":"{\"video\":\"https://wm-auction-1.oss-cn-beijing.aliyuncs.com/2022_06/D1654094352404_video.mp4\",\"images\":[\"https://wm-auction-1.oss-cn-beijing.aliyuncs.com/2022_06/D1654094347717_img.jpg\"],\"detail\":\"<p><img src=\\\"https://wm-auction-1.oss-cn-beijing.aliyuncs.com/2022_06/D1654095223574_tu_detail.jpg\\\"></p>\",\"tags\":[\"\"],\"totalCount\":\"2999\"}","totalCount":"2899","authorId":"409735638338764801","authorName":"低傲","authorImg":"https://wm-auction-1.oss-cn-beijing.aliyuncs.com/2022_05/D1653751067011_飞书20220528-231648.png","publisherName":"低傲","sellTick":"1654171680"}},"tokenNum":"","goodsSource":1,"sellerBzj":0.00,"countDown":313690,"buyerUid":"0","isInBid":"0","topuserid":null,"deliveryTime":0},{"id":"500904211524299774","num":"53941196","dataStatus":2,"auctionType":1,"auctionStartTick":1659325789,"auctionTick":1661917764,"endTick":1661917764,"startPrice":888.00,"maxPrice":1088.00,"nowPrice":888.00,"auctionGoods":{"id":"504210595512738248","cid":"526426075853783484","classInfo":null,"goodsType":"1","mainNetNum":3,"mainNetName":"低傲","contractAddr":"0xF1ECF88E80fFF718077eEb056058a3274be2dd41","goodsKey":"1029","goodsName":"元宇宙五行-源","goodsInfo":"{\"video\":\"https://wm-auction-1.oss-cn-beijing.aliyuncs.com/2022_06/D1656054335011.mp4\",\"images\":[\"https://wm-auction-1.oss-cn-beijing.aliyuncs.com/2022_06/D1656044635157.png\"],\"tags\":[],\"fbxUrl\":\"https://wm-auction-1.oss-cn-beijing.aliyuncs.com/2022_06/D1656044679807.fbx\",\"fbxType\":\"xnr\",\"detail\":\"<p><img src=\\\"https://v2.cdwami.com:666/CMS/1/202206/img/20220624122447615.png\\\"></p>\"}","deliveryTick":0,"source":1,"goodsProduct":{"pid":"526426075853783484","className":"元宇宙五行","productInfo":"{\"video\":\"https://wm-auction-1.oss-cn-beijing.aliyuncs.com/2022_06/D1656054335011.mp4\",\"images\":[\"https://wm-auction-1.oss-cn-beijing.aliyuncs.com/2022_06/D1656044635157.png\"],\"tags\":[],\"fbxUrl\":\"https://wm-auction-1.oss-cn-beijing.aliyuncs.com/2022_06/D1656044679807.fbx\",\"fbxType\":\"xnr\",\"detail\":\"<p><img src=\\\"https://v2.cdwami.com:666/CMS/1/202206/img/20220624173425157.png\\\"></p>\"}","totalCount":"2799","authorId":"409735638338764801","authorName":"低傲","authorImg":"https://wm-auction-1.oss-cn-beijing.aliyuncs.com/2022_06/D1656044476873.png","publisherName":"低傲","sellTick":"1656061680"}},"tokenNum":"","goodsSource":1,"sellerBzj":0.00,"countDown":922143,"buyerUid":"0","isInBid":"0","topuserid":null,"deliveryTime":0},{"id":"502232330420815710","num":"59288308","dataStatus":2,"auctionType":1,"auctionStartTick":1659176546,"auctionTick":1661941314,"endTick":1661941314,"startPrice":41.00,"maxPrice":43.00,"nowPrice":41.00,"auctionGoods":{"id":"410151969684979813","cid":"410010293259730946","classInfo":null,"goodsType":"1","mainNetNum":3,"mainNetName":"低傲","contractAddr":"0xc53cd95f04fAA2f9471CC03aC495bD16c2F13374","goodsKey":"7009","goodsName":"元宇宙五行-水","goodsInfo":"{\"video\":\"https://wm-auction-1.oss-cn-beijing.aliyuncs.com/2022_05/D1653914741160_水—视频.mp4\",\"images\":[\"https://wm-auction-1.oss-cn-beijing.aliyuncs.com/2022_05/D1653914737313_水—图片.jpeg\"],\"detail\":\"<p><img src=\\\"https://wm-auction-1.oss-cn-beijing.aliyuncs.com/2022_05/D1653918667117_shui1234.jpg\\\"></p>\",\"tags\":[],\"totalCount\":\"10000\"}","deliveryTick":0,"source":1,"goodsProduct":{"pid":"410010293259730946","className":"元宇宙五行","productInfo":"{\"video\":\"https://wm-auction-1.oss-cn-beijing.aliyuncs.com/2022_05/D1653914741160_水—视频.mp4\",\"images\":[\"https://wm-auction-1.oss-cn-beijing.aliyuncs.com/2022_05/D1653914737313_水—图片.jpeg\"],\"detail\":\"<p><img src=\\\"https://wm-auction-1.oss-cn-beijing.aliyuncs.com/2022_05/D1653918667117_shui1234.jpg\\\"></p>\",\"tags\":[],\"totalCount\":\"10000\"}","totalCount":"10000","authorId":"409735638338764801","authorName":"低傲","authorImg":"https://wm-auction-1.oss-cn-beijing.aliyuncs.com/2022_05/D1653751067011_飞书20220528-231648.png","publisherName":"低傲","sellTick":"1653998880"}},"tokenNum":"","goodsSource":1,"sellerBzj":0.00,"countDown":945673,"buyerUid":"0","isInBid":"0","topuserid":null,"deliveryTime":0},{"id":"502909071585927927","num":"59105390","dataStatus":2,"auctionType":1,"auctionStartTick":1659176000,"auctionTick":1661940768,"endTick":1661940768,"startPrice":43.00,"maxPrice":45.00,"nowPrice":43.00,"auctionGoods":{"id":"410006519778639973","cid":"409869009371004930","classInfo":null,"goodsType":"1","mainNetNum":3,"mainNetName":"低傲","contractAddr":"0xFBF3cF3Db6035CEC5254377b0C0631bf5538F7Be","goodsKey":"5821","goodsName":"元宇宙五行-木","goodsInfo":"{\"video\":\"https://wm-auction-1.oss-cn-beijing.aliyuncs.com/2022_05/D1653830448393_五行-木.mp4\",\"images\":[\"https://wm-auction-1.oss-cn-beijing.aliyuncs.com/2022_05/D1653830442525_Untitled0000.jpg\"],\"detail\":\"<p><img src=\\\"https://wm-auction-1.oss-cn-beijing.aliyuncs.com/2022_05/D1653831729739_wuxinmu.jpeg\\\"></p>\",\"tags\":[],\"totalCount\":\"10000\"}","deliveryTick":0,"source":1,"goodsProduct":{"pid":"409869009371004930","className":"元宇宙五行","productInfo":"{\"video\":\"https://wm-auction-1.oss-cn-beijing.aliyuncs.com/2022_05/D1653830448393_五行-木.mp4\",\"images\":[\"https://wm-auction-1.oss-cn-beijing.aliyuncs.com/2022_05/D1653830442525_Untitled0000.jpg\"],\"detail\":\"<p><img src=\\\"https://wm-auction-1.oss-cn-beijing.aliyuncs.com/2022_05/D1653831729739_wuxinmu.jpeg\\\"></p>\",\"tags\":[],\"totalCount\":\"10000\"}","totalCount":"10000","authorId":"409735638338764801","authorName":"低傲","authorImg":"https://wm-auction-1.oss-cn-beijing.aliyuncs.com/2022_05/D1653751067011_飞书20220528-231648.png","publisherName":"低傲","sellTick":"1653912480"}},"tokenNum":"","goodsSource":1,"sellerBzj":0.00,"countDown":945118,"buyerUid":"0","isInBid":"0","topuserid":null,"deliveryTime":0},{"id":"504473500507273433","num":"","dataStatus":2,"auctionType":1,"auctionStartTick":1658914272,"auctionTick":2145888000,"endTick":2145888000,"startPrice":100.00,"maxPrice":123.00,"nowPrice":100.00,"auctionGoods":{"id":"536641704036028793","cid":"0","classInfo":"","goodsType":"0","mainNetNum":10057,"mainNetName":"幻藏艺术","contractAddr":"0","goodsKey":"","goodsName":"五行机甲土8202750","goodsInfo":"{\"images\":[\"https://wm-auction-1.oss-cn-beijing.aliyuncs.com/D_1658913705616_1658913705437_Screenshot_2022-07-27-16-53-03-90_540331e394d7289c17ad9ffd9710068f.jpg\"]}","deliveryTick":0,"source":2,"goodsProduct":null},"tokenNum":"","goodsSource":2,"sellerBzj":100.00,"countDown":484892333,"buyerUid":"0","isInBid":"0","topuserid":null,"deliveryTime":0},{"id":"504753203161116009","num":"","dataStatus":2,"auctionType":1,"auctionStartTick":1659022795,"auctionTick":2145888000,"endTick":2145888000,"startPrice":100.00,"maxPrice":123.00,"nowPrice":100.00,"auctionGoods":{"id":"552211431581504974","cid":"0","classInfo":"","goodsType":"0","mainNetNum":10057,"mainNetName":"幻藏艺术","contractAddr":"0","goodsKey":"","goodsName":"五行机甲木6021929","goodsInfo":"{\"images\":[\"https://wm-auction-1.oss-cn-beijing.aliyuncs.com/D_1659022652310_1659022652157_IMG_20220727_182946.jpg\"]}","deliveryTick":0,"source":2,"goodsProduct":null},"tokenNum":"","goodsSource":2,"sellerBzj":100.00,"countDown":484892329,"buyerUid":"0","isInBid":"0","topuserid":null,"deliveryTime":0},{"id":"506942383509423068","num":"","dataStatus":2,"auctionType":1,"auctionStartTick":1659023425,"auctionTick":2145888000,"endTick":2145888000,"startPrice":100.00,"maxPrice":123.00,"nowPrice":100.00,"auctionGoods":{"id":"502803447219357764","cid":"0","classInfo":"","goodsType":"0","mainNetNum":10057,"mainNetName":"幻藏艺术","contractAddr":"0","goodsKey":"","goodsName":"五行机甲木6076468","goodsInfo":"{\"images\":[\"https://wm-auction-1.oss-cn-beijing.aliyuncs.com/D_1659023352348_1659023352178_IMG_20220727_182946.jpg\"]}","deliveryTick":0,"source":2,"goodsProduct":null},"tokenNum":"","goodsSource":2,"sellerBzj":100.00,"countDown":484892311,"buyerUid":"0","isInBid":"0","topuserid":null,"deliveryTime":0},{"id":"513336241130621539","num":"","dataStatus":2,"auctionType":1,"auctionStartTick":1659022785,"auctionTick":2145888000,"endTick":2145888000,"startPrice":100.00,"maxPrice":123.00,"nowPrice":100.00,"auctionGoods":{"id":"525762045725108985","cid":"0","classInfo":"","goodsType":"0","mainNetNum":10057,"mainNetName":"幻藏艺术","contractAddr":"0","goodsKey":"","goodsName":"五行机甲木6059252","goodsInfo":"{\"images\":[\"https://wm-auction-1.oss-cn-beijing.aliyuncs.com/D_1659022758533_1659022758357_IMG_20220727_182946.jpg\"]}","deliveryTick":0,"source":2,"goodsProduct":null},"tokenNum":"","goodsSource":2,"sellerBzj":100.00,"countDown":484892242,"buyerUid":"0","isInBid":"0","topuserid":null,"deliveryTime":0},{"id":"513945802634912825","num":"56229562","dataStatus":2,"auctionType":1,"auctionStartTick":1658976748,"auctionTick":1661914315,"endTick":1661914315,"startPrice":320.00,"maxPrice":500.00,"nowPrice":320.00,"auctionGoods":{"id":"410441308344287333","cid":"410169777273700354","classInfo":null,"goodsType":"1","mainNetNum":3,"mainNetName":"低傲","contractAddr":"0x66aD5311570Af7eE7073A9e9b61c6AB9F1197F26","goodsKey":"2154","goodsName":"元宇宙五行-土","goodsInfo":"{\"video\":\"https://wm-auction-1.oss-cn-beijing.aliyuncs.com/2022_06/D1654094352404_video.mp4\",\"images\":[\"https://wm-auction-1.oss-cn-beijing.aliyuncs.com/2022_06/D1654094347717_img.jpg\"],\"detail\":\"<p><img src=\\\"https://wm-auction-1.oss-cn-beijing.aliyuncs.com/2022_06/D1654095223574_tu_detail.jpg\\\"></p>\",\"tags\":[\"\"],\"totalCount\":\"2999\"}","deliveryTick":0,"source":1,"goodsProduct":{"pid":"410169777273700354","className":"元宇宙五行","productInfo":"{\"video\":\"https://wm-auction-1.oss-cn-beijing.aliyuncs.com/2022_06/D1654094352404_video.mp4\",\"images\":[\"https://wm-auction-1.oss-cn-beijing.aliyuncs.com/2022_06/D1654094347717_img.jpg\"],\"detail\":\"<p><img src=\\\"https://wm-auction-1.oss-cn-beijing.aliyuncs.com/2022_06/D1654095223574_tu_detail.jpg\\\"></p>\",\"tags\":[\"\"],\"totalCount\":\"2999\"}","totalCount":"2899","authorId":"409735638338764801","authorName":"低傲","authorImg":"https://wm-auction-1.oss-cn-beijing.aliyuncs.com/2022_05/D1653751067011_飞书20220528-231648.png","publisherName":"低傲","sellTick":"1654171680"}},"tokenNum":"","goodsSource":1,"sellerBzj":0.00,"countDown":918551,"buyerUid":"0","isInBid":"0","topuserid":null,"deliveryTime":0},{"id":"516550244411375977","num":"51136214","dataStatus":2,"auctionType":1,"auctionStartTick":1659210186,"auctionTick":1661888568,"endTick":1661888568,"startPrice":38.00,"maxPrice":40.00,"nowPrice":38.00,"auctionGoods":{"id":"410151393605714021","cid":"410010293259730946","classInfo":null,"goodsType":"1","mainNetNum":3,"mainNetName":"低傲","contractAddr":"0xc53cd95f04fAA2f9471CC03aC495bD16c2F13374","goodsKey":"8194","goodsName":"元宇宙五行-水","goodsInfo":"{\"video\":\"https://wm-auction-1.oss-cn-beijing.aliyuncs.com/2022_05/D1653914741160_水—视频.mp4\",\"images\":[\"https://wm-auction-1.oss-cn-beijing.aliyuncs.com/2022_05/D1653914737313_水—图片.jpeg\"],\"detail\":\"<p><img src=\\\"https://wm-auction-1.oss-cn-beijing.aliyuncs.com/2022_05/D1653918667117_shui1234.jpg\\\"></p>\",\"tags\":[],\"totalCount\":\"10000\"}","deliveryTick":0,"source":1,"goodsProduct":{"pid":"410010293259730946","className":"元宇宙五行","productInfo":"{\"video\":\"https://wm-auction-1.oss-cn-beijing.aliyuncs.com/2022_05/D1653914741160_水—视频.mp4\",\"images\":[\"https://wm-auction-1.oss-cn-beijing.aliyuncs.com/2022_05/D1653914737313_水—图片.jpeg\"],\"detail\":\"<p><img src=\\\"https://wm-auction-1.oss-cn-beijing.aliyuncs.com/2022_05/D1653918667117_shui1234.jpg\\\"></p>\",\"tags\":[],\"totalCount\":\"10000\"}","totalCount":"10000","authorId":"409735638338764801","authorName":"低傲","authorImg":"https://wm-auction-1.oss-cn-beijing.aliyuncs.com/2022_05/D1653751067011_飞书20220528-231648.png","publisherName":"低傲","sellTick":"1653998880"}},"tokenNum":"","goodsSource":1,"sellerBzj":0.00,"countDown":892776,"buyerUid":"0","isInBid":"0","topuserid":null,"deliveryTime":0}],"msg":"ok","code":"","data":null}
接口响应时长: 0.085871 s
Http状态码: 200
断言方式：相等
期望结果：2
实际结果：[2, 2, 2, 2, 2, 2, 2, 2, 2, 2]
>>==============================第3条用例执行完毕=======================================>>