INFO     root:logDecoratorl.py:39 
>>===============================正在执行第3条用例======================================>>
测试标题: 获取发行藏品列表是否成功
请求方式: post
请求头:   {'accesstoken': '4993ca8a10303c7032762081c3b88d5d', 'timespan': '1661155057', 'TOKEN': '86AF2DC047BB1C1853DA37D4486B24DD8148D45D3915D46FB6746CD2110752DB848C78521F66C7D2999B33AD8F75B1817381CC53D7C7934D626CB9003E6BBE4345008A158FE66B77D46CB9CB369464CC'}
请求路径: http://110.80.137.11:8059/miao/getProductList
传参方式： json
请求内容: {"pageSize":10,"pageIndex":1,"type":1}
依赖测试用例: 暂无依赖用例数据
接口响应内容: {"success":true,"pageCount":4,"totalCount":31,"pageSize":10,"pageIndex":1,"list":[{"id":"576133939571167355","mainNetNum":3,"mainNetName":"低傲","className":"热血军魂·陆战之王系列","productName":"99A式主战坦克","productInfo":"{\"video\":\"https://wm-auction-1.oss-cn-beijing.aliyuncs.com/2022_08/D1659605481039.mp4\",\"images\":[\"https://wm-auction-1.oss-cn-beijing.aliyuncs.com/2022_08/D1659605425867.jpg\"],\"tags\":[],\"fbxUrl\":\"https://wm-auction-1.oss-cn-beijing.aliyuncs.com/2022_08/D1659606404572.fbx\",\"detail\":\"<p><img src=\\\"https://v2.cdwami.com:666/CMS/1/202208/img/20220804213959811.jpg\\\"></p>\",\"fbxConfig\":\"{\\\"type\\\":\\\"99A\\\",\\\"three\\\":{\\\"camera\\\":{\\\"position\\\":[-400,200,200]},\\\"pointLight\\\":{\\\"power\\\":0.3}},\\\"object\\\":{\\\"scale\\\":[0.008,0.008,0.008]}}\",\"fbxType\":\"config\"}","price":"0.00","stockCount":"0","totalCount":"500","sellTick":1659960000,"authorName":"低傲","authorImg":"https://wm-auction-1.oss-cn-beijing.aliyuncs.com/2022_07/D1659012360923.png"},{"id":"505203212110733757","mainNetNum":3,"mainNetName":"低傲","className":"低傲元宇宙房产","productName":"低傲元宇宙房产证“福祉盈门”TW-TZ-DIAO002","productInfo":"{\"video\":\"https://wm-auction-1.oss-cn-beijing.aliyuncs.com/2022_08/D1659514526228.mp4\",\"images\":[\"https://wm-auction-1.oss-cn-beijing.aliyuncs.com/2022_08/D1659514521485.png\"],\"tags\":[],\"fbxUrl\":\"\",\"detail\":\"<p><img src=\\\"https://v2.cdwami.com:666/CMS/1/202208/img/20220803161534466.png\\\"></p>\"}","price":"29.90","stockCount":"0","totalCount":"1500","sellTick":1659530280,"authorName":"低傲","authorImg":"https://wm-auction-1.oss-cn-beijing.aliyuncs.com/2022_07/D1659012360923.png"},{"id":"564712755101491016","mainNetNum":3,"mainNetName":"低傲","className":"万安博物馆藏系列","productName":"青釉人物纹罐","productInfo":"{\"video\":\"https://wm-auction-1.oss-cn-beijing.aliyuncs.com/2022_07/D1658917409385.mp4\",\"images\":[\"https://wm-auction-1.oss-cn-beijing.aliyuncs.com/2022_07/D1658917399479.jpg\"],\"tags\":[],\"fbxUrl\":\"\",\"detail\":\"<p><img src=\\\"https://v2.cdwami.com:666/CMS/1/202207/img/20220727182337742.jpg\\\"></p>\"}","price":"59.00","stockCount":"0","totalCount":"2000","sellTick":1659442080,"authorName":"低傲","authorImg":"https://wm-auction-1.oss-cn-beijing.aliyuncs.com/2022_07/D1658917358128.png"},{"id":"589383225311736893","mainNetNum":3,"mainNetName":"低傲","className":"荣耀纪念","productName":"荣耀纪念","productInfo":"{\"video\":\"https://wm-auction-1.oss-cn-beijing.aliyuncs.com/2022_08/D1659342979115.mp4\",\"images\":[\"https://wm-auction-1.oss-cn-beijing.aliyuncs.com/2022_08/D1659342975178.png\"],\"tags\":[],\"fbxUrl\":\"\",\"detail\":\"<p><img src=\\\"https://v2.cdwami.com:666/CMS/1/202208/img/20220801163625903.png\\\"></p>\"}","price":"0.00","stockCount":"0","totalCount":"1500","sellTick":1659355680,"authorName":"低傲","authorImg":"https://wm-auction-1.oss-cn-beijing.aliyuncs.com/2022_07/D1659012360923.png"},{"id":"521055997880183598","mainNetNum":3,"mainNetName":"低傲","className":"万安博物馆藏系列","productName":"战国铜剑","productInfo":"{\"video\":\"https://wm-auction-1.oss-cn-beijing.aliyuncs.com/2022_07/D1658917263107.mp4\",\"images\":[\"https://wm-auction-1.oss-cn-beijing.aliyuncs.com/2022_07/D1658917253129.jpg\"],\"tags\":[],\"fbxUrl\":\"\",\"detail\":\"<p><img src=\\\"https://v2.cdwami.com:666/CMS/1/202207/img/20220727182111794.jpg\\\"></p>\"}","price":"59.00","stockCount":"0","totalCount":"2000","sellTick":1659182880,"authorName":"低傲","authorImg":"https://wm-auction-1.oss-cn-beijing.aliyuncs.com/2022_07/D1658917224081.png"},{"id":"515384108906486488","mainNetNum":3,"mainNetName":"低傲","className":"万安博物馆藏系列","productName":"山字格铜剑","productInfo":"{\"video\":\"https://wm-auction-1.oss-cn-beijing.aliyuncs.com/2022_07/D1658917157679.mp4\",\"images\":[\"https://wm-auction-1.oss-cn-beijing.aliyuncs.com/2022_07/D1658917153205.jpg\"],\"tags\":[],\"fbxUrl\":\"\",\"detail\":\"<p><img src=\\\"https://v2.cdwami.com:666/CMS/1/202207/img/20220727181924576.jpg\\\"></p>\"}","price":"59.00","stockCount":"0","totalCount":"2000","sellTick":1659179280,"authorName":"低傲","authorImg":"https://wm-auction-1.oss-cn-beijing.aliyuncs.com/2022_07/D1658917117519.png"},{"id":"527321156155302658","mainNetNum":3,"mainNetName":"低傲","className":"万安博物馆藏系列","productName":"楚式铜剑","productInfo":"{\"video\":\"https://wm-auction-1.oss-cn-beijing.aliyuncs.com/2022_07/D1658916961151.mp4\",\"images\":[\"https://wm-auction-1.oss-cn-beijing.aliyuncs.com/2022_07/D1658916949488.jpg\"],\"tags\":[],\"fbxUrl\":\"\",\"detail\":\"<p><img src=\\\"https://v2.cdwami.com:666/CMS/1/202207/img/20220727181630343.jpg\\\"></p>\"}","price":"59.00","stockCount":"0","totalCount":"2000","sellTick":1659096480,"authorName":"低傲","authorImg":"https://wm-auction-1.oss-cn-beijing.aliyuncs.com/2022_07/D1658916895083.png"},{"id":"583337686275733527","mainNetNum":3,"mainNetName":"低傲","className":"节日盲盒","productName":"节日盲盒-无锁","productInfo":"{\"video\":\"https://wm-auction-1.oss-cn-beijing.aliyuncs.com/2022_07/D1657029804565.mp4\",\"images\":[\"https://wm-auction-1.oss-cn-beijing.aliyuncs.com/2022_07/D1657029799748.jpg\"],\"tags\":[],\"fbxUrl\":\"\",\"detail\":\"<p><img src=\\\"https://v2.cdwami.com:666/CMS/1/202207/img/20220705220350140.png\\\"></p>\"}","price":"9.90","stockCount":"0","totalCount":"100000","sellTick":1657080000,"authorName":"低傲","authorImg":"https://wm-auction-1.oss-cn-beijing.aliyuncs.com/2022_07/D1656988400930.png"},{"id":"509132582460768547","mainNetNum":3,"mainNetName":"低傲","className":"付庆五画作","productName":"付庆五先生画作二","productInfo":"{\"video\":\"https://wm-auction-1.oss-cn-beijing.aliyuncs.com/2022_06/D1656593151713.mp4\",\"images\":[\"https://wm-auction-1.oss-cn-beijing.aliyuncs.com/2022_06/D1656593147210.jpg\"],\"tags\":[],\"fbxUrl\":\"\",\"detail\":\"<p><img src=\\\"https://v2.cdwami.com:666/CMS/1/202206/img/20220630204602151.jpg\\\"></p>\"}","price":"19.00","stockCount":"0","totalCount":"3199","sellTick":1656936480,"authorName":"付庆五画作","authorImg":"https://wm-auction-1.oss-cn-beijing.aliyuncs.com/2022_06/D1656593121109.png"},{"id":"590822630026372516","mainNetNum":3,"mainNetName":"低傲","className":"付庆五画作","productName":"付庆五先生画作一","productInfo":"{\"video\":\"https://wm-auction-1.oss-cn-beijing.aliyuncs.com/2022_06/D1656593008249.mp4\",\"images\":[\"https://wm-auction-1.oss-cn-beijing.aliyuncs.com/2022_06/D1656593004443.jpg\"],\"tags\":[],\"fbxUrl\":\"\",\"detail\":\"<p><img src=\\\"https://v2.cdwami.com:666/CMS/1/202206/img/20220630204335372.jpg\\\"></p>\"}","price":"19.00","stockCount":"0","totalCount":"3199","sellTick":1656659280,"authorName":"付庆五画作","authorImg":"https://wm-auction-1.oss-cn-beijing.aliyuncs.com/2022_06/D1656592812151.png"}],"msg":"","code":"","data":null}
接口响应时长: 0.18628 s
Http状态码: 200
断言方式：不等于
期望结果：0
实际结果：[31, '500', '1500', '2000', '1500', '2000', '2000', '2000', '100000', '3199', '3199']
>>==============================第3条用例执行完毕=======================================>>