INFO     root:logDecoratorl.py:39 
>>===============================正在执行第7条用例======================================>>
测试标题: 查看我的商品
请求方式: post
请求头:   {'accesstoken': '17b471073252f2cc3790c054591aaf18', 'timespan': '1660615538', 'TOKEN': '86AF2DC047BB1C1853DA37D4486B24DDB061DB08A2044CBA1B5F520F38081D10CF199D4E77D99687CFB680B1D9A3355FF2893C605D2169C63AD2006BF4D0376A65216A7347299E18C4316C245BFF62B6'}
请求路径: http://110.80.137.11:8051/Product/myproduct
传参方式： params
请求内容: {"key":"",
"pageIndex":1,
"pageSize":18}
依赖测试用例: 暂无依赖用例数据
接口响应内容: {"success":true,"pageCount":2,"totalCount":28,"pageSize":18,"pageIndex":1,"list":[{"uid":409812845962723329,"pid":"409736535080960001","holdcount":1,"mainNet":3,"productInfo":"{\"video\":\"https://wm-auction-1.oss-cn-beijing.aliyuncs.com/2022_05/D1653751477414_金-视频.mp4\",\"images\":[\"https://wm-auction-1.oss-cn-beijing.aliyuncs.com/2022_05/D1653751469081_img.jpg\"],\"detail\":\"<p><img src=\\\"https://wm-auction-1.oss-cn-beijing.aliyuncs.com/2022_05/D1653751486917_detail.jpg\\\"></p>\",\"tags\":[\"\"]}","productName":"元宇宙五行-金","publisherImg":"https://wm-auction-1.oss-cn-beijing.aliyuncs.com/2022_05/D1653751067011_飞书20220528-231648.png","priorityBuyInfo":null},{"uid":409812845962723329,"pid":"410011578646134786","holdcount":1,"mainNet":3,"productInfo":"{\"video\":\"https://wm-auction-1.oss-cn-beijing.aliyuncs.com/2022_05/D1653915475838_3d.mp4\",\"images\":[\"https://wm-auction-1.oss-cn-beijing.aliyuncs.com/2022_05/D1653915471703_img.jpeg\"],\"detail\":\"<p><img src=\\\"https://wm-auction-1.oss-cn-beijing.aliyuncs.com/2022_06/D1654047286772_huo_detail.jpg\\\"></p>\",\"tags\":[],\"totalCount\":\"10000\"}","productName":"元宇宙五行-火","publisherImg":"https://wm-auction-1.oss-cn-beijing.aliyuncs.com/2022_05/D1653751067011_飞书20220528-231648.png","priorityBuyInfo":null},{"uid":409812845962723329,"pid":"410144290317008898","holdcount":97,"mainNet":3,"productInfo":"{\"video\":\"https://wm-auction-1.oss-cn-beijing.aliyuncs.com/2022_05/D1653993927352_video.mp4\",\"images\":[\"https://wm-auction-1.oss-cn-beijing.aliyuncs.com/2022_05/D1653993922378_img.png\"],\"detail\":\"<p><img src=\\\"https://wm-auction-1.oss-cn-beijing.aliyuncs.com/2022_06/D1654434213670_haoyuntianjiang.jpg\\\"></p>\",\"tags\":[],\"totalCount\":\"1250\"}","productName":"创世勋章-好运天降","publisherImg":"https://wm-auction-1.oss-cn-beijing.aliyuncs.com/2022_05/D1653751067011_飞书20220528-231648.png","priorityBuyInfo":null},{"uid":409812845962723329,"pid":"410173682506268674","holdcount":97,"mainNet":3,"productInfo":"{\"video\":\"https://wm-auction-1.oss-cn-beijing.aliyuncs.com/2022_05/D1654012110166_bo.mp4\",\"images\":[\"https://wm-auction-1.oss-cn-beijing.aliyuncs.com/2022_05/D1654012105761_bo_1.png\"],\"detail\":\"<p><img src=\\\"https://wm-auction-1.oss-cn-beijing.aliyuncs.com/2022_05/D1654012117432_bo_img.png\\\"></p>\",\"tags\":[\"\"],\"totalCount\":\"2000\"}","productName":"童话“播”","publisherImg":"https://wm-auction-1.oss-cn-beijing.aliyuncs.com/2022_05/D1653751067011_飞书20220528-231648.png","priorityBuyInfo":null},{"uid":409812845962723329,"pid":"410174510428323842","holdcount":1,"mainNet":3,"productInfo":"{\"video\":\"https://wm-auction-1.oss-cn-beijing.aliyuncs.com/2022_05/D1654012627214_kong.mp4\",\"images\":[\"https://wm-auction-1.oss-cn-beijing.aliyuncs.com/2022_05/D1654012622859_kong_1.png\"],\"detail\":\"<p><img src=\\\"https://wm-auction-1.oss-cn-beijing.aliyuncs.com/2022_05/D1654012632763_kong_img.png\\\"></p>\",\"tags\":[],\"totalCount\":\"1500\"}","productName":"童心“控”","publisherImg":"https://wm-auction-1.oss-cn-beijing.aliyuncs.com/2022_05/D1653751067011_飞书20220528-231648.png","priorityBuyInfo":null},{"uid":409812845962723329,"pid":"410310897634902018","holdcount":1,"mainNet":3,"productInfo":"{\"video\":\"https://wm-auction-1.oss-cn-beijing.aliyuncs.com/2022_06/D1654093732577_video.mp4\",\"images\":[\"https://wm-auction-1.oss-cn-beijing.aliyuncs.com/2022_06/D1654093728652_img.jpg\"],\"detail\":\"<p><img src=\\\"https://wm-auction-1.oss-cn-beijing.aliyuncs.com/2022_06/D1654093799784_detail.jpeg\\\"></p>\",\"totalCount\":\"2000\",\"tags\":[\"\"]}","productName":"赋能勋章-厚土黄","publisherImg":"https://wm-auction-1.oss-cn-beijing.aliyuncs.com/2022_05/D1653751067011_飞书20220528-231648.png","priorityBuyInfo":null},{"uid":409812845962723329,"pid":"411158621955555330","holdcount":1,"mainNet":3,"productInfo":"{\"video\":\"https://wm-auction-1.oss-cn-beijing.aliyuncs.com/2022_06/D1654599217394_video.mp4\",\"images\":[\"https://wm-auction-1.oss-cn-beijing.aliyuncs.com/2022_06/D1654597886183_img.png\"],\"detail\":\"<p><img src=\\\"https://wm-auction-1.oss-cn-beijing.aliyuncs.com/2022_06/D1654597892086_detail.png\\\"></p>\",\"totalCount\":\"100000\",\"tags\":[\"\"]}","productName":"万能券","publisherImg":"https://wm-auction-1.oss-cn-beijing.aliyuncs.com/2022_05/D1653751067011_飞书20220528-231648.png","priorityBuyInfo":null},{"uid":409812845962723329,"pid":"505045856486125274","holdcount":5,"mainNet":3,"productInfo":"{\"video\":\"https://wm-auction-1.oss-cn-beijing.aliyuncs.com/2022_08/D1660099143806.mp4\",\"images\":[\"https://wm-auction-1.oss-cn-beijing.aliyuncs.com/2022_08/D1660099055843.jpg\"],\"tags\":[],\"fbxUrl\":\"\",\"detail\":\"<p><img src=\\\"https://v2.cdwami.com:666/CMS/9/202208/img/20220810104627432.jpg\\\"></p>\"}","productName":"Mechanic R","publisherImg":"https://wm-auction-1.oss-cn-beijing.aliyuncs.com/2022_07/D1659012360923.png","priorityBuyInfo":null},{"uid":409812845962723329,"pid":"505232628190117419","holdcount":1,"mainNet":3,"productInfo":"{\"video\":\"https://wm-auction-1.oss-cn-beijing.aliyuncs.com/2022_08/D1660099163996.mp4\",\"images\":[\"https://wm-auction-1.oss-cn-beijing.aliyuncs.com/2022_08/D1660099074529.jpg\"],\"tags\":[],\"fbxUrl\":\"\",\"detail\":\"<p><img src=\\\"https://v2.cdwami.com:666/CMS/9/202208/img/20220810105418695.jpg\\\"></p>\"}","productName":"Skywalker SSR","publisherImg":"https://wm-auction-1.oss-cn-beijing.aliyuncs.com/2022_07/D1659012360923.png","priorityBuyInfo":null},{"uid":409812845962723329,"pid":"505829024508017759","holdcount":3,"mainNet":3,"productInfo":"{\"video\":\"https://wm-auction-1.oss-cn-beijing.aliyuncs.com/2022_08/D1660099159427.mp4\",\"images\":[\"https://wm-auction-1.oss-cn-beijing.aliyuncs.com/2022_08/D1660099068067.jpg\"],\"tags\":[],\"fbxUrl\":\"\",\"detail\":\"<p><img src=\\\"https://v2.cdwami.com:666/CMS/9/202208/img/20220810105353169.jpg\\\"></p>\"}","productName":"Soldier SR","publisherImg":"https://wm-auction-1.oss-cn-beijing.aliyuncs.com/2022_07/D1659012360923.png","priorityBuyInfo":null},{"uid":409812845962723329,"pid":"507010873337234040","holdcount":1,"mainNet":3,"productInfo":"{\"video\":\"https://wm-auction-1.oss-cn-beijing.aliyuncs.com/2022_07/D1659022489073.mp4\",\"images\":[\"https://wm-auction-1.oss-cn-beijing.aliyuncs.com/2022_07/D1659022482557.jpg\"],\"tags\":[],\"fbxUrl\":\"\",\"detail\":\"<p><img src=\\\"https://v2.cdwami.com:666/CMS/1/202207/img/20220728233950602.jpg\\\"></p>\"}","productName":"宝石R","publisherImg":"https://wm-auction-1.oss-cn-beijing.aliyuncs.com/2022_07/D1659018521870.png","priorityBuyInfo":null},{"uid":409812845962723329,"pid":"509885923086417628","holdcount":1,"mainNet":3,"productInfo":"{\"video\":\"https://wm-auction-1.oss-cn-beijing.aliyuncs.com/2022_07/D1659022569943.mp4\",\"images\":[\"https://wm-auction-1.oss-cn-beijing.aliyuncs.com/2022_07/D1659022564048.jpg\"],\"tags\":[],\"fbxUrl\":\"\",\"detail\":\"<p><img src=\\\"https://v2.cdwami.com:666/CMS/1/202207/img/20220728233913699.jpg\\\"></p>\"}","productName":"宝石SSR","publisherImg":"https://wm-auction-1.oss-cn-beijing.aliyuncs.com/2022_07/D1659018755449.png","priorityBuyInfo":null},{"uid":409812845962723329,"pid":"511638854811939822","holdcount":5,"mainNet":3,"productInfo":"{\"video\":\"https://wm-auction-1.oss-cn-beijing.aliyuncs.com/2022_08/D1660099151395.mp4\",\"images\":[\"https://wm-auction-1.oss-cn-beijing.aliyuncs.com/2022_08/D1660099063673.jpg\"],\"tags\":[],\"fbxUrl\":\"\",\"detail\":\"<p><img src=\\\"https://v2.cdwami.com:666/CMS/9/202208/img/20220810104831223.jpg\\\"></p>\"}","productName":"Professor SR","publisherImg":"https://wm-auction-1.oss-cn-beijing.aliyuncs.com/2022_07/D1659012360923.png","priorityBuyInfo":null},{"uid":409812845962723329,"pid":"514758603213618405","holdcount":1,"mainNet":3,"productInfo":"{\"video\":\"https://wm-auction-1.oss-cn-beijing.aliyuncs.com/2022_07/D1657027418281.mp4\",\"images\":[\"https://wm-auction-1.oss-cn-beijing.aliyuncs.com/2022_07/D1657024972020.png\"],\"tags\":[],\"fbxUrl\":\"https://wm-auction-1.oss-cn-beijing.aliyuncs.com/2022_07/D1657077018165.fbx\",\"fbxType\":\"config\",\"detail\":\"<p><img src=\\\"https://v2.cdwami.com:666/CMS/1/202207/img/20220705203840597.png\\\"></p>\",\"fbxConfig\":\"{\\\"type\\\":\\\"sunzi\\\",\\\"three\\\":{\\\"camera\\\":{\\\"position\\\":[0,50,200]},\\\"ambient\\\":{\\\"power\\\":0.3},\\\"pointLight\\\":{\\\"power\\\":0.25}},\\\"object\\\":{\\\"scale\\\":[0.25,0.25,0.25]}}\"}","productName":"“镇国之宝-孙子兵法”作战篇","publisherImg":"https://wm-auction-1.oss-cn-beijing.aliyuncs.com/2022_07/D1657097055658.jpg","priorityBuyInfo":null},{"uid":409812845962723329,"pid":"516204100826669046","holdcount":10,"mainNet":3,"productInfo":"{\"video\":\"https://wm-auction-1.oss-cn-beijing.aliyuncs.com/2022_07/D1657029497110.mp4\",\"images\":[\"https://wm-auction-1.oss-cn-beijing.aliyuncs.com/2022_07/D1657029493273.png\"],\"tags\":[],\"fbxUrl\":\"\",\"detail\":\"<p><img src=\\\"https://v2.cdwami.com:666/CMS/1/202207/img/20220705215822369.png\\\"></p>\"}","productName":"爱","publisherImg":"https://wm-auction-1.oss-cn-beijing.aliyuncs.com/2022_07/D1656988861559.png","priorityBuyInfo":null},{"uid":409812845962723329,"pid":"518720465633550411","holdcount":10,"mainNet":3,"productInfo":"{\"video\":\"https://wm-auction-1.oss-cn-beijing.aliyuncs.com/2022_07/D1657029315810.mp4\",\"images\":[\"https://wm-auction-1.oss-cn-beijing.aliyuncs.com/2022_07/D1657029312488.png\"],\"tags\":[],\"fbxUrl\":\"\",\"detail\":\"<p><img src=\\\"https://v2.cdwami.com:666/CMS/1/202207/img/20220705215522172.png\\\"></p>\"}","productName":"拥","publisherImg":"https://wm-auction-1.oss-cn-beijing.aliyuncs.com/2022_07/D1656988563713.png","priorityBuyInfo":null},{"uid":409812845962723329,"pid":"521921311527694903","holdcount":1,"mainNet":3,"productInfo":"{\"video\":\"https://wm-auction-1.oss-cn-beijing.aliyuncs.com/2022_08/D1659703496647.mp4\",\"images\":[\"https://wm-auction-1.oss-cn-beijing.aliyuncs.com/2022_08/D1659703491268.jpg\"],\"tags\":[],\"fbxUrl\":\"\",\"detail\":\"<p>1232112</p>\"}","productName":"测试优先购","publisherImg":"https://wm-auction-1.oss-cn-beijing.aliyuncs.com/2022_07/D1659012360923.png","priorityBuyInfo":null},{"uid":409812845962723329,"pid":"525859289275454579","holdcount":10,"mainNet":3,"productInfo":"{\"video\":\"https://wm-auction-1.oss-cn-beijing.aliyuncs.com/2022_07/D1657029404498.mp4\",\"images\":[\"https://wm-auction-1.oss-cn-beijing.aliyuncs.com/2022_07/D1657029400241.png\"],\"tags\":[],\"fbxUrl\":\"\",\"detail\":\"<p><img src=\\\"https://v2.cdwami.com:666/CMS/1/202207/img/20220705215652909.png\\\"></p>\"}","productName":"国","publisherImg":"https://wm-auction-1.oss-cn-beijing.aliyuncs.com/2022_07/D1656988949529.png","priorityBuyInfo":null}],"msg":"","code":"","data":1713}
接口响应时长: 0.182672 s
Http状态码: 200
断言方式：相等
期望结果：True
实际结果：[True]
>>==============================第7条用例执行完毕=======================================>>