INFO     root:logDecoratorl.py:39 
>>===============================正在执行第7条用例======================================>>
测试标题: 查看我的商品
请求方式: post
请求头:   {'accesstoken': 'b8f6148a0d85fd42bba7caaa53963103', 'timespan': '1658998402', 'TOKEN': '86AF2DC047BB1C1853DA37D4486B24DD6DA5561CA1AB01D67F68DD2045B607A03545D66CECC174585F1652F4C2517F7FF2893C605D2169C63AD2006BF4D0376A65216A7347299E18C4316C245BFF62B6'}
请求路径: http://110.80.137.11:8051/Product/myproduct
传参方式： params
请求内容: {"key":"",
"pageIndex":1,
"pageSize":18}
依赖测试用例: 暂无依赖用例数据
接口响应内容: {"success":true,"pageCount":2,"totalCount":21,"pageSize":18,"pageIndex":1,"list":[{"uid":409812845962723329,"pid":"409736535080960001","holdcount":4,"mainNet":3,"productInfo":"{\"video\":\"https://wm-auction-1.oss-cn-beijing.aliyuncs.com/2022_05/D1653751477414_金-视频.mp4\",\"images\":[\"https://wm-auction-1.oss-cn-beijing.aliyuncs.com/2022_05/D1653751469081_img.jpg\"],\"detail\":\"<p><img src=\\\"https://wm-auction-1.oss-cn-beijing.aliyuncs.com/2022_05/D1653751486917_detail.jpg\\\"></p>\",\"tags\":[\"\"]}","productName":"元宇宙五行-金","publisherImg":"https://wm-auction-1.oss-cn-beijing.aliyuncs.com/2022_05/D1653751067011_飞书20220528-231648.png","priorityBuyInfo":""},{"uid":409812845962723329,"pid":"409868548148559874","holdcount":1,"mainNet":3,"productInfo":"{\"images\":[\"https://wm-auction-1.oss-cn-beijing.aliyuncs.com/2022_05/D1653830227490_赋能图片-木.jpeg\"],\"detail\":\"<p><img src=\\\"https://wm-auction-1.oss-cn-beijing.aliyuncs.com/2022_05/D1653830240456_赋能勋章—木.jpeg\\\"></p>\",\"video\":\"https://wm-auction-1.oss-cn-beijing.aliyuncs.com/2022_05/D1653830234049_赋能——木.mp4\",\"tags\":[]}","productName":"赋能勋章-青葱绿","publisherImg":"https://wm-auction-1.oss-cn-beijing.aliyuncs.com/2022_05/D1653751067011_飞书20220528-231648.png","priorityBuyInfo":""},{"uid":409812845962723329,"pid":"409869009371004930","holdcount":2,"mainNet":3,"productInfo":"{\"video\":\"https://wm-auction-1.oss-cn-beijing.aliyuncs.com/2022_05/D1653830448393_五行-木.mp4\",\"images\":[\"https://wm-auction-1.oss-cn-beijing.aliyuncs.com/2022_05/D1653830442525_Untitled0000.jpg\"],\"detail\":\"<p><img src=\\\"https://wm-auction-1.oss-cn-beijing.aliyuncs.com/2022_05/D1653831729739_wuxinmu.jpeg\\\"></p>\",\"tags\":[],\"totalCount\":\"10000\"}","productName":"元宇宙五行-木","publisherImg":"https://wm-auction-1.oss-cn-beijing.aliyuncs.com/2022_05/D1653751067011_飞书20220528-231648.png","priorityBuyInfo":""},{"uid":409812845962723329,"pid":"410010293259730946","holdcount":3,"mainNet":3,"productInfo":"{\"video\":\"https://wm-auction-1.oss-cn-beijing.aliyuncs.com/2022_05/D1653914741160_水—视频.mp4\",\"images\":[\"https://wm-auction-1.oss-cn-beijing.aliyuncs.com/2022_05/D1653914737313_水—图片.jpeg\"],\"detail\":\"<p><img src=\\\"https://wm-auction-1.oss-cn-beijing.aliyuncs.com/2022_05/D1653918667117_shui1234.jpg\\\"></p>\",\"tags\":[],\"totalCount\":\"10000\"}","productName":"元宇宙五行-水","publisherImg":"https://wm-auction-1.oss-cn-beijing.aliyuncs.com/2022_05/D1653751067011_飞书20220528-231648.png","priorityBuyInfo":""},{"uid":409812845962723329,"pid":"410011578646134786","holdcount":2,"mainNet":3,"productInfo":"{\"video\":\"https://wm-auction-1.oss-cn-beijing.aliyuncs.com/2022_05/D1653915475838_3d.mp4\",\"images\":[\"https://wm-auction-1.oss-cn-beijing.aliyuncs.com/2022_05/D1653915471703_img.jpeg\"],\"detail\":\"<p><img src=\\\"https://wm-auction-1.oss-cn-beijing.aliyuncs.com/2022_06/D1654047286772_huo_detail.jpg\\\"></p>\",\"tags\":[],\"totalCount\":\"10000\"}","productName":"元宇宙五行-火","publisherImg":"https://wm-auction-1.oss-cn-beijing.aliyuncs.com/2022_05/D1653751067011_飞书20220528-231648.png","priorityBuyInfo":""},{"uid":409812845962723329,"pid":"410144290317008898","holdcount":6,"mainNet":3,"productInfo":"{\"video\":\"https://wm-auction-1.oss-cn-beijing.aliyuncs.com/2022_05/D1653993927352_video.mp4\",\"images\":[\"https://wm-auction-1.oss-cn-beijing.aliyuncs.com/2022_05/D1653993922378_img.png\"],\"detail\":\"<p><img src=\\\"https://wm-auction-1.oss-cn-beijing.aliyuncs.com/2022_06/D1654434213670_haoyuntianjiang.jpg\\\"></p>\",\"tags\":[],\"totalCount\":\"1250\"}","productName":"创世勋章-好运天降","publisherImg":"https://wm-auction-1.oss-cn-beijing.aliyuncs.com/2022_05/D1653751067011_飞书20220528-231648.png","priorityBuyInfo":""},{"uid":409812845962723329,"pid":"410174510428323842","holdcount":1,"mainNet":3,"productInfo":"{\"video\":\"https://wm-auction-1.oss-cn-beijing.aliyuncs.com/2022_05/D1654012627214_kong.mp4\",\"images\":[\"https://wm-auction-1.oss-cn-beijing.aliyuncs.com/2022_05/D1654012622859_kong_1.png\"],\"detail\":\"<p><img src=\\\"https://wm-auction-1.oss-cn-beijing.aliyuncs.com/2022_05/D1654012632763_kong_img.png\\\"></p>\",\"tags\":[],\"totalCount\":\"1500\"}","productName":"童心“控”","publisherImg":"https://wm-auction-1.oss-cn-beijing.aliyuncs.com/2022_05/D1653751067011_飞书20220528-231648.png","priorityBuyInfo":""},{"uid":409812845962723329,"pid":"410310897634902018","holdcount":1,"mainNet":3,"productInfo":"{\"video\":\"https://wm-auction-1.oss-cn-beijing.aliyuncs.com/2022_06/D1654093732577_video.mp4\",\"images\":[\"https://wm-auction-1.oss-cn-beijing.aliyuncs.com/2022_06/D1654093728652_img.jpg\"],\"detail\":\"<p><img src=\\\"https://wm-auction-1.oss-cn-beijing.aliyuncs.com/2022_06/D1654093799784_detail.jpeg\\\"></p>\",\"totalCount\":\"2000\",\"tags\":[]}","productName":"赋能勋章-厚土黄","publisherImg":"https://wm-auction-1.oss-cn-beijing.aliyuncs.com/2022_05/D1653751067011_飞书20220528-231648.png","priorityBuyInfo":""},{"uid":409812845962723329,"pid":"410470393778798594","holdcount":1,"mainNet":3,"productInfo":"{\"video\":\"https://wm-auction-1.oss-cn-beijing.aliyuncs.com/2022_06/D1654188957722_longzhou.mp4\",\"images\":[\"https://wm-auction-1.oss-cn-beijing.aliyuncs.com/2022_06/D1654188945595_ 11.png\"],\"detail\":\"<p><img src=\\\"https://wm-auction-1.oss-cn-beijing.aliyuncs.com/2022_06/D1654188964757_longzou_detail.png\\\"></p>\",\"totalCount\":\"3000\",\"tags\":[\"\"]}","productName":"端午纪念藏品-龙舟","publisherImg":"https://wm-auction-1.oss-cn-beijing.aliyuncs.com/2022_05/D1653751067011_飞书20220528-231648.png","priorityBuyInfo":""},{"uid":409812845962723329,"pid":"410470742208020482","holdcount":2,"mainNet":3,"productInfo":"{\"video\":\"https://wm-auction-1.oss-cn-beijing.aliyuncs.com/2022_06/D1654189143962_zhiyan.mp4\",\"images\":[\"https://wm-auction-1.oss-cn-beijing.aliyuncs.com/2022_06/D1654189136606_ 12.png\"],\"detail\":\"<p><img src=\\\"https://wm-auction-1.oss-cn-beijing.aliyuncs.com/2022_06/D1654189153399_zhi_detail.png\\\"></p>\",\"totalCount\":\"3000\",\"tags\":[\"\"]}","productName":"端午纪念藏品-纸鸢","publisherImg":"https://wm-auction-1.oss-cn-beijing.aliyuncs.com/2022_05/D1653751067011_飞书20220528-231648.png","priorityBuyInfo":""},{"uid":409812845962723329,"pid":"410879773670113282","holdcount":2,"mainNet":3,"productInfo":"{\"video\":\"https://wm-auction-1.oss-cn-beijing.aliyuncs.com/2022_06/D1654431756369_02.mp4\",\"images\":[\"https://wm-auction-1.oss-cn-beijing.aliyuncs.com/2022_06/D1654431752255_img.jpg\"],\"detail\":\"<p><img src=\\\"https://wm-auction-1.oss-cn-beijing.aliyuncs.com/2022_06/D1654434136576_wanshi.jpg\\\"></p>\",\"totalCount\":\"1250\",\"tags\":[]}","productName":"创世勋章-万事顺遂","publisherImg":"https://wm-auction-1.oss-cn-beijing.aliyuncs.com/2022_05/D1653751067011_飞书20220528-231648.png","priorityBuyInfo":""},{"uid":409812845962723329,"pid":"411158621955555330","holdcount":2,"mainNet":3,"productInfo":"{\"video\":\"https://wm-auction-1.oss-cn-beijing.aliyuncs.com/2022_06/D1654599217394_video.mp4\",\"images\":[\"https://wm-auction-1.oss-cn-beijing.aliyuncs.com/2022_06/D1654597886183_img.png\"],\"detail\":\"<p><img src=\\\"https://wm-auction-1.oss-cn-beijing.aliyuncs.com/2022_06/D1654597892086_detail.png\\\"></p>\",\"totalCount\":\"100000\",\"tags\":[\"\"]}","productName":"万能券","publisherImg":"https://wm-auction-1.oss-cn-beijing.aliyuncs.com/2022_05/D1653751067011_飞书20220528-231648.png","priorityBuyInfo":""},{"uid":409812845962723329,"pid":"516204100826669046","holdcount":1,"mainNet":3,"productInfo":"{\"video\":\"https://wm-auction-1.oss-cn-beijing.aliyuncs.com/2022_07/D1657029497110.mp4\",\"images\":[\"https://wm-auction-1.oss-cn-beijing.aliyuncs.com/2022_07/D1657029493273.png\"],\"tags\":[],\"fbxUrl\":\"\",\"detail\":\"<p><img src=\\\"https://v2.cdwami.com:666/CMS/1/202207/img/20220705215822369.png\\\"></p>\"}","productName":"爱","publisherImg":"https://wm-auction-1.oss-cn-beijing.aliyuncs.com/2022_07/D1656988861559.png","priorityBuyInfo":""},{"uid":409812845962723329,"pid":"518720465633550411","holdcount":2,"mainNet":3,"productInfo":"{\"video\":\"https://wm-auction-1.oss-cn-beijing.aliyuncs.com/2022_07/D1657029315810.mp4\",\"images\":[\"https://wm-auction-1.oss-cn-beijing.aliyuncs.com/2022_07/D1657029312488.png\"],\"tags\":[],\"fbxUrl\":\"\",\"detail\":\"<p><img src=\\\"https://v2.cdwami.com:666/CMS/1/202207/img/20220705215522172.png\\\"></p>\"}","productName":"拥","publisherImg":"https://wm-auction-1.oss-cn-beijing.aliyuncs.com/2022_07/D1656988563713.png","priorityBuyInfo":""},{"uid":409812845962723329,"pid":"520709153860947623","holdcount":1,"mainNet":3,"productInfo":"{\"video\":\"https://wm-auction-1.oss-cn-beijing.aliyuncs.com/2022_07/D1658556115477.mp4\",\"images\":[\"https://wm-auction-1.oss-cn-beijing.aliyuncs.com/2022_07/D1658556097355.jpg\"],\"tags\":[],\"fbxUrl\":\"\",\"detail\":\"<p>低傲之星</p>\"}","productName":"低傲之星","publisherImg":"https://wm-auction-1.oss-cn-beijing.aliyuncs.com/2022_07/D1658556033987.png","priorityBuyInfo":null},{"uid":409812845962723329,"pid":"525859289275454579","holdcount":1,"mainNet":3,"productInfo":"{\"video\":\"https://wm-auction-1.oss-cn-beijing.aliyuncs.com/2022_07/D1657029404498.mp4\",\"images\":[\"https://wm-auction-1.oss-cn-beijing.aliyuncs.com/2022_07/D1657029400241.png\"],\"tags\":[],\"fbxUrl\":\"\",\"detail\":\"<p><img src=\\\"https://v2.cdwami.com:666/CMS/1/202207/img/20220705215652909.png\\\"></p>\"}","productName":"国","publisherImg":"https://wm-auction-1.oss-cn-beijing.aliyuncs.com/2022_07/D1656988949529.png","priorityBuyInfo":""},{"uid":409812845962723329,"pid":"527784816493039790","holdcount":2,"mainNet":3,"productInfo":"{\"video\":\"https://v2.cdwami.com:666/CMS/1/202206/video/20220616045933793.mp4\",\"images\":[\"https://v2.cdwami.com:666/CMS/1/202206/img/20220616045929510.jpeg\"],\"tags\":[],\"detail\":\"<p><img src=\\\"https://v2.cdwami.com:666/CMS/1/202206/img/20220616053321986.jpg\\\"></p>\"}","productName":"原驻民勋章","publisherImg":"https://v2.cdwami.com:666/CMS/1/202206/img/20220616050209770.png","priorityBuyInfo":""},{"uid":409812845962723329,"pid":"556791178914604224","holdcount":1,"mainNet":3,"productInfo":"{\"video\":\"https://wm-auction-1.oss-cn-beijing.aliyuncs.com/2022_07/D1656989294564.png\",\"images\":[\"https://wm-auction-1.oss-cn-beijing.aliyuncs.com/2022_07/D1656989290200.png\"],\"tags\":[],\"fbxUrl\":\"\",\"detail\":\"<p>1</p>\"}","productName":"九五至尊","publisherImg":"https://wm-auction-1.oss-cn-beijing.aliyuncs.com/2022_07/D1656989273287.png","priorityBuyInfo":""}],"msg":"","code":"","data":150}
接口响应时长: 0.096319 s
Http状态码: 200
断言方式：相等
期望结果：True
实际结果：[True]
>>==============================第7条用例执行完毕=======================================>>